<?xml version='1.0' encoding='UTF-8'?>
<osm version='0.6' generator='JOSM'>
  <node id='-106107' visible='true' lat='-33.84581932606' lon='151.11509726518'>
    <tag k='addr:housenumber' v='120' />
    <tag k='addr:street' v='Cabarita Road' />
  </node>
  <node id='-106109' visible='true' lat='-33.84874578068' lon='151.1142665344'>
    <tag k='addr:housenumber' v='99' />
    <tag k='addr:street' v='Cabarita Road' />
  </node>
  <node id='-106111' visible='true' lat='-33.84916739884' lon='151.1121672045'>
    <tag k='addr:housenumber' v='24' />
    <tag k='addr:street' v='Elphinstone Street' />
  </node>
  <node id='-106113' visible='true' lat='-33.85118785899' lon='151.11871298766'>
    <tag k='addr:housenumber' v='18' />
    <tag k='addr:street' v='Rosemeadow Drive' />
  </node>
  <node id='-106115' visible='true' lat='-33.84448519488' lon='151.11591297223'>
    <tag k='addr:housenumber' v='132K' />
    <tag k='addr:street' v='Cabarita Road' />
  </node>
  <node id='-106117' visible='true' lat='-33.84706811545' lon='151.11330251398'>
    <tag k='addr:housenumber' v='2' />
    <tag k='addr:street' v='Bishop Street' />
  </node>
  <node id='-106119' visible='true' lat='-33.84462426075' lon='151.11583990904'>
    <tag k='addr:housenumber' v='132I' />
    <tag k='addr:street' v='Cabarita Road' />
  </node>
  <node id='-106121' visible='true' lat='-33.85110769678' lon='151.11815893038'>
    <tag k='addr:housenumber' v='23' />
    <tag k='addr:street' v='Rosemeadow Drive' />
  </node>
  <node id='-106123' visible='true' lat='-33.84497402067' lon='151.11497138097'>
    <tag k='addr:housenumber' v='6' />
    <tag k='addr:street' v='Kendall Inlet' />
  </node>
  <node id='-106125' visible='true' lat='-33.84790619492' lon='151.11604950618'>
    <tag k='addr:housenumber' v='29' />
    <tag k='addr:street' v='Dorking Road' />
  </node>
  <node id='-106127' visible='true' lat='-33.84701206826' lon='151.11624493495'>
    <tag k='addr:housenumber' v='3' />
    <tag k='addr:street' v='Waine Street' />
  </node>
  <node id='-106129' visible='true' lat='-33.84938976115' lon='151.11331402804'>
    <tag k='addr:housenumber' v='90' />
    <tag k='addr:street' v='Cabarita Road' />
  </node>
  <node id='-106131' visible='true' lat='-33.846340195' lon='151.11576331313'>
    <tag k='addr:housenumber' v='139' />
    <tag k='addr:street' v='Cabarita Road' />
  </node>
  <node id='-106133' visible='true' lat='-33.85128737572' lon='151.11279732431'>
    <tag k='addr:housenumber' v='4' />
    <tag k='addr:street' v='Elphinstone Street' />
  </node>
  <node id='-106135' visible='true' lat='-33.84839728494' lon='151.11322921794'>
    <tag k='addr:housenumber' v='7' />
    <tag k='addr:street' v='Moore Street' />
  </node>
  <node id='-106137' visible='true' lat='-33.85225315792' lon='151.11856869633'>
    <tag k='addr:housenumber' v='5' />
    <tag k='addr:street' v='Rosemeadow Drive' />
  </node>
  <node id='-106139' visible='true' lat='-33.84983975444' lon='151.11305321708'>
    <tag k='addr:housenumber' v='84A' />
    <tag k='addr:street' v='Cabarita Road' />
  </node>
  <node id='-106141' visible='true' lat='-33.84499616019' lon='151.11524706358'>
    <tag k='addr:housenumber' v='3' />
    <tag k='addr:street' v='Medora Lane' />
  </node>
  <node id='-106143' visible='true' lat='-33.84948200624' lon='151.11442556054'>
    <tag k='addr:housenumber' v='22' />
    <tag k='addr:street' v='Collingwood Avenue' />
  </node>
  <node id='-106145' visible='true' lat='-33.84510985451' lon='151.11558486385'>
    <tag k='addr:housenumber' v='132B' />
    <tag k='addr:street' v='Cabarita Road' />
  </node>
  <node id='-106147' visible='true' lat='-33.85022887297' lon='151.11353135734'>
    <tag k='addr:housenumber' v='77' />
    <tag k='addr:street' v='Cabarita Road' />
  </node>
  <node id='-106149' visible='true' lat='-33.84674248709' lon='151.11566775638'>
    <tag k='addr:housenumber' v='13' />
    <tag k='addr:street' v='Waine Street' />
  </node>
  <node id='-106151' visible='true' lat='-33.84846915299' lon='151.11483836294'>
    <tag k='addr:housenumber' v='14' />
    <tag k='addr:street' v='Dorking Road' />
  </node>
  <node id='-106153' visible='true' lat='-33.8500975292' lon='151.1124598678'>
    <tag k='addr:housenumber' v='8' />
    <tag k='addr:street' v='Elphinstone Street' />
  </node>
  <node id='-106155' visible='true' lat='-33.85104955867' lon='151.11531728063'>
    <tag k='addr:housenumber' v='15' />
    <tag k='addr:street' v='Phillips Street' />
  </node>
  <node id='-106157' visible='true' lat='-33.85174220654' lon='151.11885616234'>
    <tag k='addr:housenumber' v='12' />
    <tag k='addr:street' v='Rosemeadow Drive' />
  </node>
  <node id='-106159' visible='true' lat='-33.84873979678' lon='151.11369185122'>
    <tag k='addr:housenumber' v='98' />
    <tag k='addr:street' v='Cabarita Road' />
  </node>
  <node id='-106161' visible='true' lat='-33.84706350392' lon='151.11518714162'>
    <tag k='addr:housenumber' v='127' />
    <tag k='addr:street' v='Cabarita Road' />
  </node>
  <node id='-106163' visible='true' lat='-33.84819050548' lon='151.11596184049'>
    <tag k='addr:housenumber' v='23' />
    <tag k='addr:street' v='Dorking Road' />
  </node>
  <node id='-106165' visible='true' lat='-33.85084479579' lon='151.11438414311'>
    <tag k='addr:housenumber' v='3' />
    <tag k='addr:street' v='Phillips Street' />
  </node>
  <node id='-106167' visible='true' lat='-33.844812771' lon='151.11700223413'>
    <tag k='addr:housenumber' v='4' />
    <tag k='addr:street' v='Correys Square' />
  </node>
  <node id='-106169' visible='true' lat='-33.84580631591' lon='151.11658702139'>
    <tag k='addr:housenumber' v='1' />
    <tag k='addr:street' v='Catherine Spence Place' />
  </node>
  <node id='-106171' visible='true' lat='-33.85329483203' lon='151.11794838166'>
    <tag k='addr:housenumber' v='5' />
    <tag k='addr:street' v='Jacaranda Drive' />
  </node>
  <node id='-106173' visible='true' lat='-33.85329305284' lon='151.11706768404'>
    <tag k='addr:housenumber' v='13' />
    <tag k='addr:street' v='Jacaranda Drive' />
  </node>
  <node id='-106175' visible='true' lat='-33.84426723564' lon='151.11659618657'>
    <tag k='addr:housenumber' v='2' />
    <tag k='addr:street' v='Edgewood Crescent' />
  </node>
  <node id='-106177' visible='true' lat='-33.84399677218' lon='151.11673692952'>
    <tag k='addr:housenumber' v='171' />
    <tag k='addr:street' v='Cabarita Road' />
  </node>
  <node id='-106179' visible='true' lat='-33.84478159958' lon='151.11868264518'>
    <tag k='addr:housenumber' v='3' />
    <tag k='addr:street' v='Regatta Way' />
  </node>
  <node id='-106181' visible='true' lat='-33.8465637129' lon='151.11718153629'>
    <tag k='addr:housenumber' v='5' />
    <tag k='addr:street' v='Strathroy Close' />
  </node>
  <node id='-106183' visible='true' lat='-33.84593231561' lon='151.11673245353'>
    <tag k='addr:housenumber' v='24' />
    <tag k='addr:street' v='Edgewood Crescent' />
  </node>
  <node id='-106185' visible='true' lat='-33.84613620456' lon='151.11818437093'>
    <tag k='addr:housenumber' v='17' />
    <tag k='addr:street' v='Regatta Way' />
  </node>
  <node id='-106187' visible='true' lat='-33.85328412815' lon='151.11758921388'>
    <tag k='addr:housenumber' v='8' />
    <tag k='addr:street' v='Jacaranda Drive' />
  </node>
  <node id='-106189' visible='true' lat='-33.84407970894' lon='151.11669577928'>
    <tag k='addr:housenumber' v='169' />
    <tag k='addr:street' v='Cabarita Road' />
  </node>
  <node id='-106191' visible='true' lat='-33.84552124216' lon='151.1166699031'>
    <tag k='addr:housenumber' v='49' />
    <tag k='addr:street' v='Edgewood Crescent' />
  </node>
  <node id='-106193' visible='true' lat='-33.84512686071' lon='151.11729601662'>
    <tag k='addr:housenumber' v='21' />
    <tag k='addr:street' v='Edgewood Crescent' />
  </node>
  <node id='-106195' visible='true' lat='-33.84612386382' lon='151.11704791026'>
    <tag k='addr:housenumber' v='9' />
    <tag k='addr:street' v='Strathroy Close' />
  </node>
  <node id='-106197' visible='true' lat='-33.84434708202' lon='151.11598542553'>
    <tag k='addr:housenumber' v='132M' />
    <tag k='addr:street' v='Cabarita Road' />
  </node>
  <node id='-106199' visible='true' lat='-33.8495983053' lon='151.11436567717'>
    <tag k='addr:housenumber' v='20' />
    <tag k='addr:street' v='Collingwood Avenue' />
  </node>
  <node id='-106201' visible='true' lat='-33.84744178942' lon='151.11371329754'>
    <tag k='addr:housenumber' v='14' />
    <tag k='addr:street' v='Kendall Street' />
  </node>
  <node id='-106203' visible='true' lat='-33.84853301897' lon='151.11265298916'>
    <tag k='addr:housenumber' v='15' />
    <tag k='addr:street' v='Moore Street' />
  </node>
  <node id='-106205' visible='true' lat='-33.8518301456' lon='151.11675446539'>
    <tag k='addr:housenumber' v='40' />
    <tag k='addr:street' v='Rosemeadow Drive' />
  </node>
  <node id='-106207' visible='true' lat='-33.84755671825' lon='151.11283459198'>
    <tag k='addr:housenumber' v='9' />
    <tag k='addr:street' v='Stamford Avenue' />
  </node>
  <node id='-106209' visible='true' lat='-33.84394656585' lon='151.11540827599'>
    <tag k='addr:housenumber' v='16' />
    <tag k='addr:street' v='Kendall Inlet' />
  </node>
  <node id='-106211' visible='true' lat='-33.84986571059' lon='151.11238756036'>
    <tag k='addr:housenumber' v='12' />
    <tag k='addr:street' v='Elphinstone Street' />
  </node>
  <node id='-106213' visible='true' lat='-33.84481652465' lon='151.1150536044'>
    <tag k='addr:housenumber' v='8' />
    <tag k='addr:street' v='Kendall Inlet' />
  </node>
  <node id='-106215' visible='true' lat='-33.84665817711' lon='151.11412662613'>
    <tag k='addr:housenumber' v='1' />
    <tag k='addr:street' v='Medora Street' />
  </node>
  <node id='-106217' visible='true' lat='-33.85237102977' lon='151.11771430872'>
    <tag k='addr:housenumber' v='47' />
    <tag k='addr:street' v='Phillips Street' />
  </node>
  <node id='-106219' visible='true' lat='-33.8480083187' lon='151.11327030409'>
    <tag k='addr:housenumber' v='6' />
    <tag k='addr:street' v='Stamford Avenue' />
  </node>
  <node id='-106221' visible='true' lat='-33.84756154845' lon='151.11555948727'>
    <tag k='addr:housenumber' v='28' />
    <tag k='addr:street' v='Dorking Road' />
  </node>
  <node id='-106223' visible='true' lat='-33.84729127839' lon='151.11157848373'>
    <tag k='addr:housenumber' v='54' />
    <tag k='addr:street' v='Elphinstone Street' />
  </node>
  <node id='-106225' visible='true' lat='-33.84990661593' lon='151.11370268178'>
    <tag k='addr:housenumber' v='83' />
    <tag k='addr:street' v='Cabarita Road' />
  </node>
  <node id='-106227' visible='true' lat='-33.84648750014' lon='151.11653436621'>
    <tag k='addr:housenumber' v='40' />
    <tag k='addr:street' v='Dorking Road' />
  </node>
  <node id='-106229' visible='true' lat='-33.84818705873' lon='151.11392873862'>
    <tag k='addr:housenumber' v='4' />
    <tag k='addr:street' v='Kendall Street' />
  </node>
  <node id='-106231' visible='true' lat='-33.851121816' lon='151.11804638501'>
    <tag k='addr:housenumber' v='24' />
    <tag k='addr:street' v='Rosemeadow Drive' />
  </node>
  <node id='-106233' visible='true' lat='-33.84740326597' lon='151.11340028375'>
    <tag k='addr:housenumber' v='1' />
    <tag k='addr:street' v='Stamford Avenue' />
  </node>
  <node id='-106235' visible='true' lat='-33.8490458782' lon='151.11410897687'>
    <tag k='addr:housenumber' v='95' />
    <tag k='addr:street' v='Cabarita Road' />
  </node>
  <node id='-106237' visible='true' lat='-33.84565284274' lon='151.11464772985'>
    <tag k='addr:housenumber' v='21' />
    <tag k='addr:street' v='Medora Street' />
  </node>
  <node id='-106239' visible='true' lat='-33.85122918357' lon='151.11742516964'>
    <tag k='addr:housenumber' v='30' />
    <tag k='addr:street' v='Rosemeadow Drive' />
  </node>
  <node id='-106241' visible='true' lat='-33.84699496438' lon='151.11754666921'>
    <tag k='addr:housenumber' v='51' />
    <tag k='addr:street' v='Dorking Road' />
  </node>
  <node id='-106243' visible='true' lat='-33.84660438337' lon='151.11648030871'>
    <tag k='addr:housenumber' v='38' />
    <tag k='addr:street' v='Dorking Road' />
  </node>
  <node id='-106245' visible='true' lat='-33.8479461149' lon='151.11169018725'>
    <tag k='addr:housenumber' v='44' />
    <tag k='addr:street' v='Elphinstone Street' />
  </node>
  <node id='-106247' visible='true' lat='-33.84595456314' lon='151.11448807004'>
    <tag k='addr:housenumber' v='15' />
    <tag k='addr:street' v='Medora Street' />
  </node>
  <node id='-106249' visible='true' lat='-33.85112934437' lon='151.11795731692'>
    <tag k='addr:housenumber' v='25' />
    <tag k='addr:street' v='Rosemeadow Drive' />
  </node>
  <node id='-106251' visible='true' lat='-33.85171285344' lon='151.11682200411'>
    <tag k='addr:housenumber' v='38' />
    <tag k='addr:street' v='Rosemeadow Drive' />
  </node>
  <node id='-106253' visible='true' lat='-33.85207349958' lon='151.11564927571'>
    <tag k='addr:housenumber' v='33' />
    <tag k='addr:street' v='Jacaranda Drive' />
  </node>
  <node id='-106255' visible='true' lat='-33.8530079133' lon='151.11811789415'>
    <tag k='addr:housenumber' v='1' />
    <tag k='addr:street' v='Jacaranda Drive' />
  </node>
  <node id='-106257' visible='true' lat='-33.84603823251' lon='151.11818169684'>
    <tag k='addr:housenumber' v='16' />
    <tag k='addr:street' v='Regatta Way' />
  </node>
  <node id='-106259' visible='true' lat='-33.84514498223' lon='151.11614103624'>
    <tag k='addr:housenumber' v='157' />
    <tag k='addr:street' v='Cabarita Road' />
  </node>
  <node id='-106261' visible='true' lat='-33.84565409464' lon='151.11722891532'>
    <tag k='addr:housenumber' v='37' />
    <tag k='addr:street' v='Edgewood Crescent' />
  </node>
  <node id='-106263' visible='true' lat='-33.84554729566' lon='151.11592885132'>
    <tag k='addr:housenumber' v='153' />
    <tag k='addr:street' v='Cabarita Road' />
  </node>
  <node id='-106265' visible='true' lat='-33.85215534984' lon='151.11600215792'>
    <tag k='addr:housenumber' v='8' />
    <tag k='addr:street' v='Phillips Street' />
  </node>
  <node id='-106267' visible='true' lat='-33.84616458655' lon='151.11616374688'>
    <tag k='addr:housenumber' v='7' />
    <tag k='addr:street' v='Catherine Spence Place' />
  </node>
  <node id='-106269' visible='true' lat='-33.84733590877' lon='151.11230830629'>
    <tag k='addr:housenumber' v='16' />
    <tag k='addr:street' v='Bishop Street' />
  </node>
  <node id='-106271' visible='true' lat='-33.846419828' lon='151.11478059815'>
    <tag k='addr:housenumber' v='108' />
    <tag k='addr:street' v='Cabarita Road' />
  </node>
  <node id='-106273' visible='true' lat='-33.84893125706' lon='151.11209333909'>
    <tag k='addr:housenumber' v='30' />
    <tag k='addr:street' v='Elphinstone Street' />
  </node>
  <node id='-106275' visible='true' lat='-33.85111911279' lon='151.11833993456'>
    <tag k='addr:housenumber' v='22' />
    <tag k='addr:street' v='Rosemeadow Drive' />
  </node>
  <node id='-106277' visible='true' lat='-33.84386050216' lon='151.11623990588'>
    <tag k='addr:housenumber' v='132R' />
    <tag k='addr:street' v='Cabarita Road' />
  </node>
  <node id='-106279' visible='true' lat='-33.8474043336' lon='151.11161033957'>
    <tag k='addr:housenumber' v='52' />
    <tag k='addr:street' v='Elphinstone Street' />
  </node>
  <node id='-106281' visible='true' lat='-33.8490574936' lon='151.11292060319'>
    <tag k='addr:housenumber' v='6' />
    <tag k='addr:street' v='Moore Street' />
  </node>
  <node id='-106283' visible='true' lat='-33.85164342153' lon='151.11629190729'>
    <tag k='addr:housenumber' v='29' />
    <tag k='addr:street' v='Phillips Street' />
  </node>
  <node id='-106285' visible='true' lat='-33.84826961456' lon='151.11455116636'>
    <tag k='addr:housenumber' v='107' />
    <tag k='addr:street' v='Cabarita Road' />
  </node>
  <node id='-106287' visible='true' lat='-33.84807160158' lon='151.11390251817'>
    <tag k='addr:housenumber' v='6' />
    <tag k='addr:street' v='Kendall Street' />
  </node>
  <node id='-106289' visible='true' lat='-33.84571924008' lon='151.11515164201'>
    <tag k='addr:housenumber' v='122' />
    <tag k='addr:street' v='Cabarita Road' />
  </node>
  <node id='-106291' visible='true' lat='-33.84758024715' lon='151.11495116194'>
    <tag k='addr:housenumber' v='117' />
    <tag k='addr:street' v='Cabarita Road' />
  </node>
  <node id='-106293' visible='true' lat='-33.8481924055' lon='151.11255295373'>
    <tag k='addr:housenumber' v='16' />
    <tag k='addr:street' v='Stamford Avenue' />
  </node>
  <node id='-106295' visible='true' lat='-33.84502501184' lon='151.11532563995'>
    <tag k='addr:housenumber' v='1' />
    <tag k='addr:street' v='Medora Lane' />
  </node>
  <node id='-106297' visible='true' lat='-33.8463541327' lon='151.11427507943'>
    <tag k='addr:housenumber' v='7' />
    <tag k='addr:street' v='Medora Street' />
  </node>
  <node id='-106299' visible='true' lat='-33.85129304071' lon='151.11572307588'>
    <tag k='addr:housenumber' v='21' />
    <tag k='addr:street' v='Phillips Street' />
  </node>
  <node id='-106301' visible='true' lat='-33.84924132688' lon='151.11335359893'>
    <tag k='addr:housenumber' v='92' />
    <tag k='addr:street' v='Cabarita Road' />
  </node>
  <node id='-106303' visible='true' lat='-33.84496705274' lon='151.1151686615'>
    <tag k='addr:housenumber' v='5' />
    <tag k='addr:street' v='Medora Lane' />
  </node>
  <node id='-106305' visible='true' lat='-33.84672823715' lon='151.11640696054'>
    <tag k='addr:housenumber' v='36' />
    <tag k='addr:street' v='Dorking Road' />
  </node>
  <node id='-106307' visible='true' lat='-33.85115287384' lon='151.11778220633'>
    <tag k='addr:housenumber' v='27' />
    <tag k='addr:street' v='Rosemeadow Drive' />
  </node>
  <node id='-106309' visible='true' lat='-33.8460207128' lon='151.11499159351'>
    <tag k='addr:housenumber' v='116' />
    <tag k='addr:street' v='Cabarita Road' />
  </node>
  <node id='-106311' visible='true' lat='-33.85145646802' lon='151.11698241434'>
    <tag k='addr:housenumber' v='35' />
    <tag k='addr:street' v='Rosemeadow Drive' />
  </node>
  <node id='-106313' visible='true' lat='-33.84963754916' lon='151.11311091635'>
    <tag k='addr:housenumber' v='86A' />
    <tag k='addr:street' v='Cabarita Road' />
  </node>
  <node id='-106315' visible='true' lat='-33.84488631879' lon='151.11501616097'>
    <tag k='addr:housenumber' v='7' />
    <tag k='addr:street' v='Kendall Inlet' />
  </node>
  <node id='-106317' visible='true' lat='-33.84783783228' lon='151.11532675737'>
    <tag k='addr:housenumber' v='22' />
    <tag k='addr:street' v='Dorking Road' />
  </node>
  <node id='-106319' visible='true' lat='-33.84881587447' lon='151.11336950014'>
    <tag k='addr:housenumber' v='2A' />
    <tag k='addr:street' v='Moore Street' />
  </node>
  <node id='-106321' visible='true' lat='-33.85144948697' lon='151.11885740157'>
    <tag k='addr:housenumber' v='15' />
    <tag k='addr:street' v='Rosemeadow Drive' />
  </node>
  <node id='-106323' visible='true' lat='-33.85325822958' lon='151.1168932141'>
    <tag k='addr:housenumber' v='14' />
    <tag k='addr:street' v='Jacaranda Drive' />
  </node>
  <node id='-106325' visible='true' lat='-33.84482147257' lon='151.11718713383'>
    <tag k='addr:housenumber' v='11' />
    <tag k='addr:street' v='Edgewood Crescent' />
  </node>
  <node id='-106327' visible='true' lat='-33.85301869429' lon='151.11616803974'>
    <tag k='addr:housenumber' v='22' />
    <tag k='addr:street' v='Jacaranda Drive' />
  </node>
  <node id='-106329' visible='true' lat='-33.84498969418' lon='151.11652706611'>
    <tag k='addr:housenumber' v='9' />
    <tag k='addr:street' v='Correys Square' />
  </node>
  <node id='-106331' visible='true' lat='-33.84532184348' lon='151.11726376154'>
    <tag k='addr:housenumber' v='27' />
    <tag k='addr:street' v='Edgewood Crescent' />
  </node>
  <node id='-106333' visible='true' lat='-33.85322520265' lon='151.11679995807'>
    <tag k='addr:housenumber' v='15' />
    <tag k='addr:street' v='Jacaranda Drive' />
  </node>
  <node id='-106335' visible='true' lat='-33.84393252071' lon='151.11701937551'>
    <tag k='addr:housenumber' v='1' />
    <tag k='addr:street' v='Parkside Terrace' />
  </node>
  <node id='-106337' visible='true' lat='-33.84503985046' lon='151.11618268305'>
    <tag k='addr:housenumber' v='159' />
    <tag k='addr:street' v='Cabarita Road' />
  </node>
  <node id='-106339' visible='true' lat='-33.84583005607' lon='151.11578763171'>
    <tag k='addr:housenumber' v='147' />
    <tag k='addr:street' v='Cabarita Road' />
  </node>
  <node id='-106341' visible='true' lat='-33.85321227031' lon='151.11801682733'>
    <tag k='addr:housenumber' v='4' />
    <tag k='addr:street' v='Jacaranda Drive' />
  </node>
  <node id='-106343' visible='true' lat='-33.85328314428' lon='151.1171718831'>
    <tag k='addr:housenumber' v='12' />
    <tag k='addr:street' v='Jacaranda Drive' />
  </node>
  <node id='-106345' visible='true' lat='-33.84400852429' lon='151.11724649644'>
    <tag k='addr:housenumber' v='3' />
    <tag k='addr:street' v='Parkside Terrace' />
  </node>
  <node id='-106347' visible='true' lat='-33.85222832763' lon='151.11559104808'>
    <tag k='addr:housenumber' v='32' />
    <tag k='addr:street' v='Jacaranda Drive' />
  </node>
  <node id='-106349' visible='true' lat='-33.84698184802' lon='151.11715287139'>
    <tag k='addr:housenumber' v='49A' />
    <tag k='addr:street' v='Dorking Road' />
  </node>
  <node id='-106351' visible='true' lat='-33.8446459531' lon='151.11884356243'>
    <tag k='addr:housenumber' v='1' />
    <tag k='addr:street' v='Regatta Way' />
  </node>
  <node id='-106353' visible='true' lat='-33.8460045888' lon='151.11710613435'>
    <tag k='addr:housenumber' v='20' />
    <tag k='addr:street' v='Edgewood Crescent' />
  </node>
  <node id='-106355' visible='true' lat='-33.84672865496' lon='151.11461899593'>
    <tag k='addr:housenumber' v='102' />
    <tag k='addr:street' v='Cabarita Road' />
  </node>
  <node id='-106357' visible='true' lat='-33.85056054516' lon='151.11336344297'>
    <tag k='addr:housenumber' v='71' />
    <tag k='addr:street' v='Cabarita Road' />
  </node>
  <node id='-106359' visible='true' lat='-33.84863563189' lon='151.11200836542'>
    <tag k='addr:housenumber' v='32' />
    <tag k='addr:street' v='Elphinstone Street' />
  </node>
  <node id='-106361' visible='true' lat='-33.85142224068' lon='151.1164715638'>
    <tag k='addr:housenumber' v='29A' />
    <tag k='addr:street' v='Phillips Street' />
  </node>
  <node id='-106363' visible='true' lat='-33.84490275623' lon='151.11569393182'>
    <tag k='addr:housenumber' v='132E' />
    <tag k='addr:street' v='Cabarita Road' />
  </node>
  <node id='-106365' visible='true' lat='-33.84862917804' lon='151.11432626926'>
    <tag k='addr:housenumber' v='101' />
    <tag k='addr:street' v='Cabarita Road' />
  </node>
  <node id='-106367' visible='true' lat='-33.85005931883' lon='151.11412514035'>
    <tag k='addr:housenumber' v='14' />
    <tag k='addr:street' v='Collingwood Avenue' />
  </node>
  <node id='-106369' visible='true' lat='-33.84882304706' lon='151.11460278368'>
    <tag k='addr:housenumber' v='8' />
    <tag k='addr:street' v='Dorking Road' />
  </node>
  <node id='-106371' visible='true' lat='-33.84744334488' lon='151.11325783106'>
    <tag k='addr:housenumber' v='3' />
    <tag k='addr:street' v='Stamford Avenue' />
  </node>
  <node id='-106373' visible='true' lat='-33.8437192372' lon='151.1163137071'>
    <tag k='addr:housenumber' v='132T' />
    <tag k='addr:street' v='Cabarita Road' />
  </node>
  <node id='-106375' visible='true' lat='-33.85001499496' lon='151.11364540937'>
    <tag k='addr:housenumber' v='81' />
    <tag k='addr:street' v='Cabarita Road' />
  </node>
  <node id='-106377' action='modify' visible='true' lat='-33.85107655939' lon='151.11496775965'>
    <tag k='addr:housenumber' v='11' />
    <tag k='addr:street' v='Phillips Street' />
  </node>
  <node id='-106379' action='modify' visible='true' lat='-33.85107655939' lon='151.11492449279'>
    <tag k='addr:housenumber' v='11B' />
    <tag k='addr:street' v='Phillips Street' />
  </node>
  <node id='-106381' visible='true' lat='-33.85177109771' lon='151.11678757697'>
    <tag k='addr:housenumber' v='39' />
    <tag k='addr:street' v='Rosemeadow Drive' />
  </node>
  <node id='-106383' action='modify' visible='true' lat='-33.84681211261' lon='151.11531136601'>
    <tag k='addr:housenumber' v='2/129' />
    <tag k='addr:street' v='Cabarita Road' />
  </node>
  <node id='-106385' action='modify' visible='true' lat='-33.84679655333' lon='151.11527891749'>
    <tag k='addr:housenumber' v='1/129' />
    <tag k='addr:street' v='Cabarita Road' />
  </node>
  <node id='-106387' action='modify' visible='true' lat='-33.84682767188' lon='151.11527891749'>
    <tag k='addr:housenumber' v='129' />
    <tag k='addr:street' v='Cabarita Road' />
  </node>
  <node id='-106389' visible='true' lat='-33.84861086048' lon='151.11547698361'>
    <tag k='addr:housenumber' v='15' />
    <tag k='addr:street' v='Dorking Road' />
  </node>
  <node id='-106391' visible='true' lat='-33.84719175439' lon='151.11553295301'>
    <tag k='addr:housenumber' v='2' />
    <tag k='addr:street' v='Waine Street' />
  </node>
  <node id='-106393' visible='true' lat='-33.84497222009' lon='151.11565727719'>
    <tag k='addr:housenumber' v='132D' />
    <tag k='addr:street' v='Cabarita Road' />
  </node>
  <node id='-106395' visible='true' lat='-33.84388115995' lon='151.11545849316'>
    <tag k='addr:housenumber' v='17' />
    <tag k='addr:street' v='Kendall Inlet' />
  </node>
  <node id='-106397' visible='true' lat='-33.85049150633' lon='151.11389745541'>
    <tag k='addr:housenumber' v='6' />
    <tag k='addr:street' v='Collingwood Avenue' />
  </node>
  <node id='-106399' visible='true' lat='-33.84888528089' lon='151.11518517979'>
    <tag k='addr:housenumber' v='9' />
    <tag k='addr:street' v='Dorking Road' />
  </node>
  <node id='-106401' visible='true' lat='-33.85116329214' lon='151.11767696327'>
    <tag k='addr:housenumber' v='28' />
    <tag k='addr:street' v='Rosemeadow Drive' />
  </node>
  <node id='-106403' visible='true' lat='-33.84519169332' lon='151.1155429427'>
    <tag k='addr:housenumber' v='132A' />
    <tag k='addr:street' v='Cabarita Road' />
  </node>
  <node id='-106405' visible='true' lat='-33.84364851414' lon='151.1156192839'>
    <tag k='addr:housenumber' v='19' />
    <tag k='addr:street' v='Kendall Inlet' />
  </node>
  <node id='-106407' visible='true' lat='-33.84784722649' lon='151.11633106206'>
    <tag k='addr:housenumber' v='31' />
    <tag k='addr:street' v='Dorking Road' />
  </node>
  <node id='-106409' visible='true' lat='-33.84535157634' lon='151.11480882287'>
    <tag k='addr:housenumber' v='27' />
    <tag k='addr:street' v='Medora Street' />
  </node>
  <node id='-106411' visible='true' lat='-33.84476351962' lon='151.11576680148'>
    <tag k='addr:housenumber' v='132G' />
    <tag k='addr:street' v='Cabarita Road' />
  </node>
  <node id='-106413' visible='true' lat='-33.84792899662' lon='151.11525182953'>
    <tag k='addr:housenumber' v='20' />
    <tag k='addr:street' v='Dorking Road' />
  </node>
  <node id='-106415' visible='true' lat='-33.85140015473' lon='151.11702615273'>
    <tag k='addr:housenumber' v='34' />
    <tag k='addr:street' v='Rosemeadow Drive' />
  </node>
  <node id='-106417' visible='true' lat='-33.84545385997' lon='151.11724653278'>
    <tag k='addr:housenumber' v='31' />
    <tag k='addr:street' v='Edgewood Crescent' />
  </node>
  <node id='-106419' visible='true' lat='-33.84542117514' lon='151.11825849991'>
    <tag k='addr:housenumber' v='10' />
    <tag k='addr:street' v='Regatta Way' />
  </node>
  <node id='-106421' visible='true' lat='-33.85248424713' lon='151.11550036926'>
    <tag k='addr:housenumber' v='30' />
    <tag k='addr:street' v='Jacaranda Drive' />
  </node>
  <node id='-106423' visible='true' lat='-33.84493730427' lon='151.11624343576'>
    <tag k='addr:housenumber' v='161' />
    <tag k='addr:street' v='Cabarita Road' />
  </node>
  <node id='-106425' visible='true' lat='-33.8458402654' lon='151.1181802872'>
    <tag k='addr:housenumber' v='13A' />
    <tag k='addr:street' v='Regatta Way' />
  </node>
  <node id='-106427' visible='true' lat='-33.84571623545' lon='151.11720981315'>
    <tag k='addr:housenumber' v='39' />
    <tag k='addr:street' v='Edgewood Crescent' />
  </node>
  <node id='-106429' visible='true' lat='-33.85317867452' lon='151.11665469474'>
    <tag k='addr:housenumber' v='17' />
    <tag k='addr:street' v='Jacaranda Drive' />
  </node>
  <node id='-106431' visible='true' lat='-33.84550607738' lon='151.11822585639'>
    <tag k='addr:housenumber' v='11' />
    <tag k='addr:street' v='Regatta Way' />
  </node>
  <node id='-106433' visible='true' lat='-33.8443036992' lon='151.11683665734'>
    <tag k='addr:housenumber' v='4' />
    <tag k='addr:street' v='Edgewood Crescent' />
  </node>
  <node id='-106435' visible='true' lat='-33.84559853178' lon='151.11821379816'>
    <tag k='addr:housenumber' v='12' />
    <tag k='addr:street' v='Regatta Way' />
  </node>
  <node id='-106437' visible='true' lat='-33.84531851057' lon='151.11536264731'>
    <tag k='addr:housenumber' v='130' />
    <tag k='addr:street' v='Cabarita Road' />
  </node>
  <node id='-106439' visible='true' lat='-33.84381016983' lon='151.11550485956'>
    <tag k='addr:housenumber' v='18' />
    <tag k='addr:street' v='Kendall Inlet' />
  </node>
  <node id='-106441' visible='true' lat='-33.85027540889' lon='151.11401078284'>
    <tag k='addr:housenumber' v='10' />
    <tag k='addr:street' v='Collingwood Avenue' />
  </node>
  <node id='-106443' visible='true' lat='-33.84575473944' lon='151.11459527528'>
    <tag k='addr:housenumber' v='19' />
    <tag k='addr:street' v='Medora Street' />
  </node>
  <node id='-106445' visible='true' lat='-33.85122306163' lon='151.11558162351'>
    <tag k='addr:housenumber' v='19' />
    <tag k='addr:street' v='Phillips Street' />
  </node>
  <node id='-106447' visible='true' lat='-33.84767742486' lon='151.11488909604'>
    <tag k='addr:housenumber' v='115' />
    <tag k='addr:street' v='Cabarita Road' />
  </node>
  <node id='-106449' visible='true' lat='-33.84870627402' lon='151.11537296357'>
    <tag k='addr:housenumber' v='13' />
    <tag k='addr:street' v='Dorking Road' />
  </node>
  <node id='-106451' visible='true' lat='-33.84378985307' lon='151.11627676136'>
    <tag k='addr:housenumber' v='132S' />
    <tag k='addr:street' v='Cabarita Road' />
  </node>
  <node id='-106453' visible='true' lat='-33.8484967881' lon='151.11439781092'>
    <tag k='addr:housenumber' v='103' />
    <tag k='addr:street' v='Cabarita Road' />
  </node>
  <node id='-106455' visible='true' lat='-33.84833336961' lon='151.11392523372'>
    <tag k='addr:housenumber' v='2' />
    <tag k='addr:street' v='Kendall Street' />
  </node>
  <node id='-106457' visible='true' lat='-33.85236897772' lon='151.11849902244'>
    <tag k='addr:housenumber' v='3' />
    <tag k='addr:street' v='Rosemeadow Drive' />
  </node>
  <node id='-106459' visible='true' lat='-33.85129617563' lon='151.11885096196'>
    <tag k='addr:housenumber' v='17' />
    <tag k='addr:street' v='Rosemeadow Drive' />
  </node>
  <node id='-106461' visible='true' lat='-33.84363248718' lon='151.11635906106'>
    <tag k='addr:housenumber' v='132U' />
    <tag k='addr:street' v='Cabarita Road' />
  </node>
  <node id='-106463' visible='true' lat='-33.84979798356' lon='151.11375921278'>
    <tag k='addr:housenumber' v='85' />
    <tag k='addr:street' v='Cabarita Road' />
  </node>
  <node id='-106465' visible='true' lat='-33.84731566959' lon='151.11586903193'>
    <tag k='addr:housenumber' v='34' />
    <tag k='addr:street' v='Dorking Road' />
  </node>
  <node id='-106467' visible='true' lat='-33.84796069224' lon='151.11386574378'>
    <tag k='addr:housenumber' v='8' />
    <tag k='addr:street' v='Kendall Street' />
  </node>
  <node id='-106469' visible='true' lat='-33.84615467851' lon='151.11438260965'>
    <tag k='addr:housenumber' v='11' />
    <tag k='addr:street' v='Medora Street' />
  </node>
  <node id='-106471' visible='true' lat='-33.84718272225' lon='151.11287655383'>
    <tag k='addr:housenumber' v='8' />
    <tag k='addr:street' v='Bishop Street' />
  </node>
  <node id='-106473' visible='true' lat='-33.8462260753' lon='151.11581761401'>
    <tag k='addr:housenumber' v='141' />
    <tag k='addr:street' v='Cabarita Road' />
  </node>
  <node id='-106475' visible='true' lat='-33.84545290196' lon='151.11475459477'>
    <tag k='addr:housenumber' v='25' />
    <tag k='addr:street' v='Medora Street' />
  </node>
  <node id='-106477' visible='true' lat='-33.8512759701' lon='151.11723568476'>
    <tag k='addr:housenumber' v='32' />
    <tag k='addr:street' v='Rosemeadow Drive' />
  </node>
  <node id='-106479' visible='true' lat='-33.84483302389' lon='151.11573046027'>
    <tag k='addr:housenumber' v='132F' />
    <tag k='addr:street' v='Cabarita Road' />
  </node>
  <node id='-106481' visible='true' lat='-33.84466521358' lon='151.11551505303'>
    <tag k='addr:housenumber' v='27' />
    <tag k='addr:street' v='Kendall Inlet' />
  </node>
  <node id='-106483' visible='true' lat='-33.84525086562' lon='151.11486081595'>
    <tag k='addr:housenumber' v='29' />
    <tag k='addr:street' v='Medora Street' />
  </node>
  <node id='-106485' visible='true' lat='-33.84915432924' lon='151.11442797253'>
    <tag k='addr:housenumber' v='2' />
    <tag k='addr:street' v='Dorking Road' />
  </node>
  <node id='-106487' visible='true' lat='-33.8443124371' lon='151.11737144037'>
    <tag k='addr:housenumber' v='7' />
    <tag k='addr:street' v='Parkside Terrace' />
  </node>
  <node id='-106489' visible='true' lat='-33.84573110906' lon='151.11582525891'>
    <tag k='addr:housenumber' v='149' />
    <tag k='addr:street' v='Cabarita Road' />
  </node>
  <node id='-106491' visible='true' lat='-33.84440542936' lon='151.11714545757'>
    <tag k='addr:housenumber' v='8' />
    <tag k='addr:street' v='Edgewood Crescent' />
  </node>
  <node id='-106493' visible='true' lat='-33.85298010456' lon='151.1160115111'>
    <tag k='addr:housenumber' v='23' />
    <tag k='addr:street' v='Jacaranda Drive' />
  </node>
  <node id='-106495' visible='true' lat='-33.84970354069' lon='151.11406624731'>
    <tag k='addr:housenumber' v='16A' />
    <tag k='addr:street' v='Collingwood Avenue' />
  </node>
  <node id='-106497' visible='true' lat='-33.85329434343' lon='151.11778341792'>
    <tag k='addr:housenumber' v='6' />
    <tag k='addr:street' v='Jacaranda Drive' />
  </node>
  <node id='-106499' visible='true' lat='-33.8453441159' lon='151.11603576921'>
    <tag k='addr:housenumber' v='57' />
    <tag k='addr:street' v='Edgewood Crescent' />
  </node>
  <node id='-106501' visible='true' lat='-33.84581623251' lon='151.11621445857'>
    <tag k='addr:housenumber' v='10' />
    <tag k='addr:street' v='Catherine Spence Place' />
  </node>
  <node id='-106503' visible='true' lat='-33.84598265128' lon='151.11686979473'>
    <tag k='addr:housenumber' v='22' />
    <tag k='addr:street' v='Edgewood Crescent' />
  </node>
  <node id='-106505' visible='true' lat='-33.85313330016' lon='151.11650784393'>
    <tag k='addr:housenumber' v='19' />
    <tag k='addr:street' v='Jacaranda Drive' />
  </node>
  <node id='-106507' visible='true' lat='-33.84409598879' lon='151.11747414433'>
    <tag k='addr:housenumber' v='5' />
    <tag k='addr:street' v='Parkside Terrace' />
  </node>
  <node id='-106509' visible='true' lat='-33.84533894521' lon='151.11829883142'>
    <tag k='addr:housenumber' v='9' />
    <tag k='addr:street' v='Regatta Way' />
  </node>
  <node id='-106511' visible='true' lat='-33.84918270019' lon='151.11501170207'>
    <tag k='addr:housenumber' v='3' />
    <tag k='addr:street' v='Dorking Road' />
  </node>
  <node id='-106513' visible='true' lat='-33.8493150266' lon='151.11496279744'>
    <tag k='addr:housenumber' v='1' />
    <tag k='addr:street' v='Dorking Road' />
  </node>
  <node id='-106515' visible='true' lat='-33.84803320762' lon='151.11631335993'>
    <tag k='addr:housenumber' v='27' />
    <tag k='addr:street' v='Dorking Road' />
  </node>
  <node id='-106517' visible='true' lat='-33.84898526347' lon='151.1151308894'>
    <tag k='addr:housenumber' v='7' />
    <tag k='addr:street' v='Dorking Road' />
  </node>
  <node id='-106519' visible='true' lat='-33.8515278498' lon='151.11663776542'>
    <tag k='addr:housenumber' v='31' />
    <tag k='addr:street' v='Phillips Street' />
  </node>
  <node id='-106521' visible='true' lat='-33.84908377552' lon='151.11507660283'>
    <tag k='addr:housenumber' v='5' />
    <tag k='addr:street' v='Dorking Road' />
  </node>
  <node id='-106523' visible='true' lat='-33.84809974187' lon='151.11604231801'>
    <tag k='addr:housenumber' v='25' />
    <tag k='addr:street' v='Dorking Road' />
  </node>
  <node id='-106525' visible='true' lat='-33.8467655352' lon='151.11728323152'>
    <tag k='addr:housenumber' v='55' />
    <tag k='addr:street' v='Dorking Road' />
  </node>
  <node id='-106527' visible='true' lat='-33.84695157559' lon='151.11779051376'>
    <tag k='addr:housenumber' v='53' />
    <tag k='addr:street' v='Dorking Road' />
  </node>
  <node id='-106529' visible='true' lat='-33.84287739346' lon='151.11807070445'>
    <tag k='addr:housenumber' v='138P' />
    <tag k='addr:street' v='Cabarita Road' />
  </node>
  <node id='-106531' visible='true' lat='-33.85145693436' lon='151.11620140717'>
    <tag k='addr:housenumber' v='27' />
    <tag k='addr:street' v='Phillips Street' />
  </node>
  <node id='-106533' visible='true' lat='-33.85060459209' lon='151.11450821403'>
    <tag k='addr:housenumber' v='1' />
    <tag k='addr:street' v='Collingwood Avenue' />
  </node>
  <node id='-106535' visible='true' lat='-33.84818813122' lon='151.11504334263'>
    <tag k='addr:housenumber' v='18' />
    <tag k='addr:street' v='Dorking Road' />
  </node>
  <node id='-106537' visible='true' lat='-33.84852197585' lon='151.11197392736'>
    <tag k='addr:housenumber' v='34' />
    <tag k='addr:street' v='Elphinstone Street' />
  </node>
  <node id='-106539' visible='true' lat='-33.84840723803' lon='151.11194008268'>
    <tag k='addr:housenumber' v='36' />
    <tag k='addr:street' v='Elphinstone Street' />
  </node>
  <node id='-106541' visible='true' lat='-33.84829284933' lon='151.11190657529'>
    <tag k='addr:housenumber' v='38' />
    <tag k='addr:street' v='Elphinstone Street' />
  </node>
  <node id='-106543' visible='true' lat='-33.85279077715' lon='151.11894449843'>
    <tag k='addr:housenumber' v='51P' />
    <tag k='addr:street' v='Phillips Street' />
  </node>
  <node id='-106547' visible='true' lat='-33.84716258521' lon='151.11432055063'>
    <tag k='addr:housenumber' v='1P' />
    <tag k='addr:street' v='Kendall Street' />
  </node>
  <node id='-106549' visible='true' lat='-33.84836438091' lon='151.11337165724'>
    <tag k='addr:housenumber' v='5' />
    <tag k='addr:street' v='Moore Street' />
  </node>
  <node id='-106551' visible='true' lat='-33.84192726178' lon='151.12063843303'>
    <tag k='addr:housenumber' v='142' />
    <tag k='addr:street' v='Cabarita Road' />
  </node>
  <node id='-106553' visible='true' lat='-33.84971698305' lon='151.11539162277'>
    <tag k='addr:housenumber' v='13' />
    <tag k='addr:street' v='Collingwood Avenue' />
  </node>
  <node id='-106555' visible='true' lat='-33.85066985702' lon='151.11447857801'>
    <tag k='addr:housenumber' v='3A' />
    <tag k='addr:street' v='Phillips Street' />
  </node>
  <node id='-106557' visible='true' lat='-33.84726618641' lon='151.11725825315'>
    <tag k='addr:housenumber' v='45' />
    <tag k='addr:street' v='Dorking Road' />
  </node>
  <node id='-106559' visible='true' lat='-33.84738211442' lon='151.11692261948'>
    <tag k='addr:housenumber' v='41' />
    <tag k='addr:street' v='Dorking Road' />
  </node>
  <node id='-106561' visible='true' lat='-33.84733659888' lon='151.11712526774'>
    <tag k='addr:housenumber' v='43' />
    <tag k='addr:street' v='Dorking Road' />
  </node>
  <node id='-106563' visible='true' lat='-33.85026796416' lon='151.11493756654'>
    <tag k='addr:housenumber' v='7A' />
    <tag k='addr:street' v='Collingwood Avenue' />
  </node>
  <node id='-106565' visible='true' lat='-33.85039698542' lon='151.11473928496'>
    <tag k='addr:housenumber' v='5' />
    <tag k='addr:street' v='Collingwood Avenue' />
  </node>
  <node id='-106567' visible='true' lat='-33.84991108674' lon='151.11488415308'>
    <tag k='addr:housenumber' v='11' />
    <tag k='addr:street' v='Collingwood Avenue' />
  </node>
  <node id='-106569' visible='true' lat='-33.8466221962' lon='151.11467762457'>
    <tag k='addr:housenumber' v='104' />
    <tag k='addr:street' v='Cabarita Road' />
  </node>
  <node id='-106571' visible='true' lat='-33.85294417171' lon='151.11585496713'>
    <tag k='addr:housenumber' v='25' />
    <tag k='addr:street' v='Jacaranda Drive' />
  </node>
  <node id='-106573' visible='true' lat='-33.84621216453' lon='151.11629594241'>
    <tag k='addr:housenumber' v='6' />
    <tag k='addr:street' v='Catherine Spence Place' />
  </node>
  <node id='-106575' visible='true' lat='-33.85328339586' lon='151.11766815639'>
    <tag k='addr:housenumber' v='7' />
    <tag k='addr:street' v='Jacaranda Drive' />
  </node>
  <node id='-106577' visible='true' lat='-33.8439070578' lon='151.11678847994'>
    <tag k='addr:housenumber' v='173' />
    <tag k='addr:street' v='Cabarita Road' />
  </node>
  <node id='-106579' visible='true' lat='-33.85285276479' lon='151.11555878483'>
    <tag k='addr:housenumber' v='27' />
    <tag k='addr:street' v='Jacaranda Drive' />
  </node>
  <node id='-106581' visible='true' lat='-33.84544104665' lon='151.11691132355'>
    <tag k='addr:housenumber' v='14' />
    <tag k='addr:street' v='Correys Square' />
  </node>
  <node id='-106583' visible='true' lat='-33.84499930435' lon='151.117325421'>
    <tag k='addr:housenumber' v='17' />
    <tag k='addr:street' v='Edgewood Crescent' />
  </node>
  <node id='-106585' visible='true' lat='-33.84517448585' lon='151.11837949153'>
    <tag k='addr:housenumber' v='7' />
    <tag k='addr:street' v='Regatta Way' />
  </node>
  <node id='-106587' visible='true' lat='-33.84634848263' lon='151.11694573433'>
    <tag k='addr:housenumber' v='7' />
    <tag k='addr:street' v='Strathroy Close' />
  </node>
  <node id='-106589' visible='true' lat='-33.85320370589' lon='151.11672731816'>
    <tag k='addr:housenumber' v='16' />
    <tag k='addr:street' v='Jacaranda Drive' />
  </node>
  <node id='-106591' visible='true' lat='-33.84670746925' lon='151.11757348368'>
    <tag k='addr:housenumber' v='3' />
    <tag k='addr:street' v='Strathroy Close' />
  </node>
  <node id='-106593' visible='true' lat='-33.85290602715' lon='151.11569775704'>
    <tag k='addr:housenumber' v='26' />
    <tag k='addr:street' v='Jacaranda Drive' />
  </node>
  <node id='-106595' visible='true' lat='-33.85232452509' lon='151.11649112227'>
    <tag k='addr:housenumber' v='18' />
    <tag k='addr:street' v='Phillips Street' />
  </node>
  <node id='-106597' visible='true' lat='-33.84569204873' lon='151.11819867133'>
    <tag k='addr:housenumber' v='13' />
    <tag k='addr:street' v='Regatta Way' />
  </node>
  <node id='-106599' visible='true' lat='-33.8463188269' lon='151.11657331901'>
    <tag k='addr:housenumber' v='4' />
    <tag k='addr:street' v='Catherine Spence Place' />
  </node>
  <node id='-106601' visible='true' lat='-33.84737679792' lon='151.11216300537'>
    <tag k='addr:housenumber' v='18' />
    <tag k='addr:street' v='Bishop Street' />
  </node>
  <node id='-106603' visible='true' lat='-33.84659597062' lon='151.11543673702'>
    <tag k='addr:housenumber' v='135' />
    <tag k='addr:street' v='Cabarita Road' />
  </node>
  <node id='-106605' visible='true' lat='-33.84956152365' lon='151.11388473176'>
    <tag k='addr:housenumber' v='89' />
    <tag k='addr:street' v='Cabarita Road' />
  </node>
  <node id='-106607' visible='true' lat='-33.84765400313' lon='151.11548135738'>
    <tag k='addr:housenumber' v='26' />
    <tag k='addr:street' v='Dorking Road' />
  </node>
  <node id='-106609' visible='true' lat='-33.84939924689' lon='151.11224097062'>
    <tag k='addr:housenumber' v='20' />
    <tag k='addr:street' v='Elphinstone Street' />
  </node>
  <node id='-106611' visible='true' lat='-33.84625442559' lon='151.11432946868'>
    <tag k='addr:housenumber' v='9' />
    <tag k='addr:street' v='Medora Street' />
  </node>
  <node id='-106613' visible='true' lat='-33.84408009359' lon='151.11613214063'>
    <tag k='addr:housenumber' v='132O' />
    <tag k='addr:street' v='Cabarita Road' />
  </node>
  <node id='-106615' visible='true' lat='-33.85007494317' lon='151.11483322406'>
    <tag k='addr:housenumber' v='9' />
    <tag k='addr:street' v='Collingwood Avenue' />
  </node>
  <node id='-106617' visible='true' lat='-33.8513769679' lon='151.11889593821'>
    <tag k='addr:housenumber' v='16' />
    <tag k='addr:street' v='Rosemeadow Drive' />
  </node>
  <node id='-106619' visible='true' lat='-33.84678789904' lon='151.11578593165'>
    <tag k='addr:housenumber' v='11' />
    <tag k='addr:street' v='Waine Street' />
  </node>
  <node id='-106621' visible='true' lat='-33.84426425453' lon='151.1160140059'>
    <tag k='addr:housenumber' v='132N' />
    <tag k='addr:street' v='Cabarita Road' />
  </node>
  <node id='-106623' visible='true' lat='-33.84804453899' lon='151.11466865411'>
    <tag k='addr:housenumber' v='111' />
    <tag k='addr:street' v='Cabarita Road' />
  </node>
  <node id='-106625' visible='true' lat='-33.85072305485' lon='151.11378131591'>
    <tag k='addr:housenumber' v='2' />
    <tag k='addr:street' v='Collingwood Avenue' />
  </node>
  <node id='-106627' visible='true' lat='-33.84831807784' lon='151.11494928727'>
    <tag k='addr:housenumber' v='16' />
    <tag k='addr:street' v='Dorking Road' />
  </node>
  <node id='-106629' visible='true' lat='-33.85143312663' lon='151.11284337331'>
    <tag k='addr:housenumber' v='2' />
    <tag k='addr:street' v='Elphinstone Street' />
  </node>
  <node id='-106631' visible='true' lat='-33.84551660249' lon='151.1152584342'>
    <tag k='addr:housenumber' v='126' />
    <tag k='addr:street' v='Cabarita Road' />
  </node>
  <node id='-106633' visible='true' lat='-33.85033816536' lon='151.11347350613'>
    <tag k='addr:housenumber' v='75' />
    <tag k='addr:street' v='Cabarita Road' />
  </node>
  <node id='-106635' visible='true' lat='-33.8496321501' lon='151.11231468132'>
    <tag k='addr:housenumber' v='16' />
    <tag k='addr:street' v='Elphinstone Street' />
  </node>
  <node id='-106637' visible='true' lat='-33.84441637128' lon='151.11594910918'>
    <tag k='addr:housenumber' v='132L' />
    <tag k='addr:street' v='Cabarita Road' />
  </node>
  <node id='-106639' visible='true' lat='-33.84728688923' lon='151.11513619353'>
    <tag k='addr:housenumber' v='123' />
    <tag k='addr:street' v='Cabarita Road' />
  </node>
  <node id='-106641' visible='true' lat='-33.84841270426' lon='151.11567947823'>
    <tag k='addr:housenumber' v='19' />
    <tag k='addr:street' v='Dorking Road' />
  </node>
  <node id='-106643' visible='true' lat='-33.84767869104' lon='151.11161016692'>
    <tag k='addr:housenumber' v='48' />
    <tag k='addr:street' v='Elphinstone Street' />
  </node>
  <node id='-106645' visible='true' lat='-33.85113782991' lon='151.11544767353'>
    <tag k='addr:housenumber' v='17' />
    <tag k='addr:street' v='Phillips Street' />
  </node>
  <node id='-106647' visible='true' lat='-33.8479731468' lon='151.11341075014'>
    <tag k='addr:housenumber' v='4' />
    <tag k='addr:street' v='Stamford Avenue' />
  </node>
  <node id='-106649' visible='true' lat='-33.84692252918' lon='151.11614849095'>
    <tag k='addr:housenumber' v='5' />
    <tag k='addr:street' v='Waine Street' />
  </node>
  <node id='-106651' visible='true' lat='-33.84561866388' lon='151.1152041329'>
    <tag k='addr:housenumber' v='124' />
    <tag k='addr:street' v='Cabarita Road' />
  </node>
  <node id='-106653' visible='true' lat='-33.84644936838' lon='151.11570143909'>
    <tag k='addr:housenumber' v='137' />
    <tag k='addr:street' v='Cabarita Road' />
  </node>
  <node id='-106655' visible='true' lat='-33.85021554697' lon='151.11249752667'>
    <tag k='addr:housenumber' v='6' />
    <tag k='addr:street' v='Elphinstone Street' />
  </node>
  <node id='-106657' visible='true' lat='-33.84718867438' lon='151.11519587538'>
    <tag k='addr:housenumber' v='125' />
    <tag k='addr:street' v='Cabarita Road' />
  </node>
  <node id='-106659' visible='true' lat='-33.84819308026' lon='151.11180891605'>
    <tag k='addr:housenumber' v='40' />
    <tag k='addr:street' v='Elphinstone Street' />
  </node>
  <node id='-106661' visible='true' lat='-33.84710188636' lon='151.11361698279'>
    <tag k='addr:housenumber' v='20' />
    <tag k='addr:street' v='Kendall Street' />
  </node>
  <node id='-106663' visible='true' lat='-33.85160041247' lon='151.11885430858'>
    <tag k='addr:housenumber' v='13' />
    <tag k='addr:street' v='Rosemeadow Drive' />
  </node>
  <node id='-106665' visible='true' lat='-33.84759542235' lon='151.11269385208'>
    <tag k='addr:housenumber' v='11' />
    <tag k='addr:street' v='Stamford Avenue' />
  </node>
  <node id='-106667' visible='true' lat='-33.84687776624' lon='151.11602887116'>
    <tag k='addr:housenumber' v='7' />
    <tag k='addr:street' v='Waine Street' />
  </node>
  <node id='-106669' visible='true' lat='-33.84714432561' lon='151.11302142344'>
    <tag k='addr:housenumber' v='6' />
    <tag k='addr:street' v='Bishop Street' />
  </node>
  <node id='-106671' visible='true' lat='-33.84356809508' lon='151.11565349195'>
    <tag k='addr:housenumber' v='20' />
    <tag k='addr:street' v='Kendall Inlet' />
  </node>
  <node id='-106673' visible='true' lat='-33.84984250997' lon='151.11423889087'>
    <tag k='addr:housenumber' v='16' />
    <tag k='addr:street' v='Collingwood Avenue' />
  </node>
  <node id='-106675' visible='true' lat='-33.84721713317' lon='151.11364493759'>
    <tag k='addr:housenumber' v='18' />
    <tag k='addr:street' v='Kendall Street' />
  </node>
  <node id='-106677' visible='true' lat='-33.85315626157' lon='151.116580503'>
    <tag k='addr:housenumber' v='18' />
    <tag k='addr:street' v='Jacaranda Drive' />
  </node>
  <node id='-106679' visible='true' lat='-33.84634860978' lon='151.11753965506'>
    <tag k='addr:housenumber' v='1' />
    <tag k='addr:street' v='Strathroy Close' />
  </node>
  <node id='-106681' visible='true' lat='-33.84434625423' lon='151.11695470464'>
    <tag k='addr:housenumber' v='6' />
    <tag k='addr:street' v='Edgewood Crescent' />
  </node>
  <node id='-106683' visible='true' lat='-33.84523360426' lon='151.11641743871'>
    <tag k='addr:housenumber' v='13' />
    <tag k='addr:street' v='Correys Square' />
  </node>
  <node id='-106685' visible='true' lat='-33.84510564982' lon='151.11646578951'>
    <tag k='addr:housenumber' v='11' />
    <tag k='addr:street' v='Correys Square' />
  </node>
  <node id='-106687' visible='true' lat='-33.845065047' lon='151.11731553016'>
    <tag k='addr:housenumber' v='19' />
    <tag k='addr:street' v='Edgewood Crescent' />
  </node>
  <node id='-106689' visible='true' lat='-33.84558495154' lon='151.11722942637'>
    <tag k='addr:housenumber' v='35' />
    <tag k='addr:street' v='Edgewood Crescent' />
  </node>
  <node id='-106691' visible='true' lat='-33.8521968651' lon='151.11612228524'>
    <tag k='addr:housenumber' v='10' />
    <tag k='addr:street' v='Phillips Street' />
  </node>
  <node id='-106693' visible='true' lat='-33.84592358289' lon='151.11572649478'>
    <tag k='addr:housenumber' v='145' />
    <tag k='addr:street' v='Cabarita Road' />
  </node>
  <node id='-106695' visible='true' lat='-33.84623736966' lon='151.11700417911'>
    <tag k='addr:housenumber' v='8' />
    <tag k='addr:street' v='Strathroy Close' />
  </node>
  <node id='-106697' visible='true' lat='-33.84611572654' lon='151.11602922682'>
    <tag k='addr:housenumber' v='8' />
    <tag k='addr:street' v='Catherine Spence Place' />
  </node>
  <node id='-106699' visible='true' lat='-33.85328909696' lon='151.11748529941'>
    <tag k='addr:housenumber' v='9' />
    <tag k='addr:street' v='Jacaranda Drive' />
  </node>
  <node id='-106701' visible='true' lat='-33.84449589495' lon='151.11737746813'>
    <tag k='addr:housenumber' v='12' />
    <tag k='addr:street' v='Edgewood Crescent' />
  </node>
  <node id='-106703' visible='true' lat='-33.84626405768' lon='151.11643373902'>
    <tag k='addr:housenumber' v='5' />
    <tag k='addr:street' v='Catherine Spence Place' />
  </node>
  <node id='-106705' visible='true' lat='-33.84921612379' lon='151.11276437428'>
    <tag k='addr:housenumber' v='5' />
    <tag k='addr:street' v='Elphinstone Street' />
  </node>
  <node id='-106707' visible='true' lat='-33.84849819214' lon='151.11279548898'>
    <tag k='addr:housenumber' v='13' />
    <tag k='addr:street' v='Moore Street' />
  </node>
  <node id='-106709' visible='true' lat='-33.85116399989' lon='151.11860760885'>
    <tag k='addr:housenumber' v='19' />
    <tag k='addr:street' v='Rosemeadow Drive' />
  </node>
  <node id='-106711' visible='true' lat='-33.84515216563' lon='151.11491382587'>
    <tag k='addr:housenumber' v='31' />
    <tag k='addr:street' v='Medora Street' />
  </node>
  <node id='-106713' visible='true' lat='-33.84902834094' lon='151.11305406075'>
    <tag k='addr:housenumber' v='4' />
    <tag k='addr:street' v='Moore Street' />
  </node>
  <node id='-106715' visible='true' lat='-33.85206164596' lon='151.1186933098'>
    <tag k='addr:housenumber' v='8' />
    <tag k='addr:street' v='Rosemeadow Drive' />
  </node>
  <node id='-106717' visible='true' lat='-33.84761154375' lon='151.1167786486'>
    <tag k='addr:housenumber' v='3' />
    <tag k='addr:street' v='Tingara Lane' />
  </node>
  <node id='-106719' visible='true' lat='-33.844607283' lon='151.1153580872'>
    <tag k='addr:housenumber' v='25' />
    <tag k='addr:street' v='Kendall Inlet' />
  </node>
  <node id='-106721' visible='true' lat='-33.85089091778' lon='151.11468478452'>
    <tag k='addr:housenumber' v='7' />
    <tag k='addr:street' v='Phillips Street' />
  </node>
  <node id='-106723' visible='true' lat='-33.85248509796' lon='151.1184291794'>
    <tag k='addr:housenumber' v='1' />
    <tag k='addr:street' v='Rosemeadow Drive' />
  </node>
  <node id='-106725' visible='true' lat='-33.845040911' lon='151.11562056769'>
    <tag k='addr:housenumber' v='132C' />
    <tag k='addr:street' v='Cabarita Road' />
  </node>
  <node id='-106727' visible='true' lat='-33.85016870566' lon='151.11406773298'>
    <tag k='addr:housenumber' v='12' />
    <tag k='addr:street' v='Collingwood Avenue' />
  </node>
  <node id='-106729' visible='true' lat='-33.84828571903' lon='151.1157122488'>
    <tag k='addr:housenumber' v='21' />
    <tag k='addr:street' v='Dorking Road' />
  </node>
  <node id='-106731' visible='true' lat='-33.84645710633' lon='151.11422635623'>
    <tag k='addr:housenumber' v='5' />
    <tag k='addr:street' v='Medora Street' />
  </node>
  <node id='-106733' visible='true' lat='-33.8514091007' lon='151.11603008068'>
    <tag k='addr:housenumber' v='25' />
    <tag k='addr:street' v='Phillips Street' />
  </node>
  <node id='-106735' visible='true' lat='-33.84944598114' lon='151.1139452146'>
    <tag k='addr:housenumber' v='91' />
    <tag k='addr:street' v='Cabarita Road' />
  </node>
  <node id='-106737' visible='true' lat='-33.85020853549' lon='151.11466054139'>
    <tag k='addr:housenumber' v='7' />
    <tag k='addr:street' v='Collingwood Avenue' />
  </node>
  <node id='-106739' visible='true' lat='-33.84871178421' lon='151.11466129421'>
    <tag k='addr:housenumber' v='10' />
    <tag k='addr:street' v='Dorking Road' />
  </node>
  <node id='-106741' visible='true' lat='-33.84714322278' lon='151.11153446947'>
    <tag k='addr:housenumber' v='56' />
    <tag k='addr:street' v='Elphinstone Street' />
  </node>
  <node id='-106743' visible='true' lat='-33.84698915277' lon='151.1135832061'>
    <tag k='addr:housenumber' v='22' />
    <tag k='addr:street' v='Kendall Street' />
  </node>
  <node id='-106745' visible='true' lat='-33.84555265545' lon='151.11470258797'>
    <tag k='addr:housenumber' v='23' />
    <tag k='addr:street' v='Medora Street' />
  </node>
  <node id='-106747' visible='true' lat='-33.84843169694' lon='151.11308408731'>
    <tag k='addr:housenumber' v='9' />
    <tag k='addr:street' v='Moore Street' />
  </node>
  <node id='-106749' visible='true' lat='-33.8521951398' lon='151.11860359838'>
    <tag k='addr:housenumber' v='6' />
    <tag k='addr:street' v='Rosemeadow Drive' />
  </node>
  <node id='-106751' visible='true' lat='-33.84746949868' lon='151.11563610812'>
    <tag k='addr:housenumber' v='30' />
    <tag k='addr:street' v='Dorking Road' />
  </node>
  <node id='-106753' visible='true' lat='-33.84605510661' lon='151.11443595375'>
    <tag k='addr:housenumber' v='13' />
    <tag k='addr:street' v='Medora Street' />
  </node>
  <node id='-106755' visible='true' lat='-33.84342768495' lon='151.11578633068'>
    <tag k='addr:housenumber' v='22' />
    <tag k='addr:street' v='Kendall Inlet' />
  </node>
  <node id='-106757' visible='true' lat='-33.84612011536' lon='151.1149385579'>
    <tag k='addr:housenumber' v='114' />
    <tag k='addr:street' v='Cabarita Road' />
  </node>
  <node id='-106759' visible='true' lat='-33.85078229908' lon='151.11492665232'>
    <tag k='addr:housenumber' v='9' />
    <tag k='addr:street' v='Phillips Street' />
  </node>
  <node id='-106761' visible='true' lat='-33.85119607084' lon='151.11752443742'>
    <tag k='addr:housenumber' v='29' />
    <tag k='addr:street' v='Rosemeadow Drive' />
  </node>
  <node id='-106763' visible='true' lat='-33.84751864603' lon='151.11297352481'>
    <tag k='addr:housenumber' v='7' />
    <tag k='addr:street' v='Stamford Avenue' />
  </node>
  <node id='-106765' visible='true' lat='-33.84413451312' lon='151.11757900683'>
    <tag k='addr:housenumber' v='6' />
    <tag k='addr:street' v='Parkside Terrace' />
  </node>
  <node id='-106767' visible='true' lat='-33.84405765561' lon='151.11735988913'>
    <tag k='addr:housenumber' v='4' />
    <tag k='addr:street' v='Parkside Terrace' />
  </node>
  <node id='-106769' visible='true' lat='-33.85227906768' lon='151.1163652201'>
    <tag k='addr:housenumber' v='16' />
    <tag k='addr:street' v='Phillips Street' />
  </node>
  <node id='-106771' visible='true' lat='-33.84540883736' lon='151.1163668333'>
    <tag k='addr:housenumber' v='53' />
    <tag k='addr:street' v='Edgewood Crescent' />
  </node>
  <node id='-106773' visible='true' lat='-33.84594072149' lon='151.11817980925'>
    <tag k='addr:housenumber' v='15' />
    <tag k='addr:street' v='Regatta Way' />
  </node>
  <node id='-106775' visible='true' lat='-33.85310858622' lon='151.1164354053'>
    <tag k='addr:housenumber' v='20' />
    <tag k='addr:street' v='Jacaranda Drive' />
  </node>
  <node id='-106777' visible='true' lat='-33.84606503287' lon='151.1158980838'>
    <tag k='addr:housenumber' v='9' />
    <tag k='addr:street' v='Catherine Spence Place' />
  </node>
  <node id='-106779' visible='true' lat='-33.84636520415' lon='151.11671107178'>
    <tag k='addr:housenumber' v='3' />
    <tag k='addr:street' v='Catherine Spence Place' />
  </node>
  <node id='-106781' visible='true' lat='-33.84471286188' lon='151.11875304783'>
    <tag k='addr:housenumber' v='2' />
    <tag k='addr:street' v='Regatta Way' />
  </node>
  <node id='-106783' visible='true' lat='-33.85307342341' lon='151.11807779091'>
    <tag k='addr:housenumber' v='2' />
    <tag k='addr:street' v='Jacaranda Drive' />
  </node>
  <node id='-106785' visible='true' lat='-33.85192577776' lon='151.11573685621'>
    <tag k='addr:housenumber' v='2' />
    <tag k='addr:street' v='Phillips Street' />
  </node>
  <node id='-106787' visible='true' lat='-33.84525645408' lon='151.11727339146'>
    <tag k='addr:housenumber' v='25' />
    <tag k='addr:street' v='Edgewood Crescent' />
  </node>
  <node id='-106789' visible='true' lat='-33.84467366328' lon='151.11512871888'>
    <tag k='addr:housenumber' v='10' />
    <tag k='addr:street' v='Kendall Inlet' />
  </node>
  <node id='-106791' visible='true' lat='-33.84893517656' lon='151.11454423916'>
    <tag k='addr:housenumber' v='6' />
    <tag k='addr:street' v='Dorking Road' />
  </node>
  <node id='-106793' visible='true' lat='-33.8497141429' lon='151.11430565401'>
    <tag k='addr:housenumber' v='18' />
    <tag k='addr:street' v='Collingwood Avenue' />
  </node>
  <node id='-106795' visible='true' lat='-33.84846680799' lon='151.11293912495'>
    <tag k='addr:housenumber' v='11' />
    <tag k='addr:street' v='Moore Street' />
  </node>
  <node id='-106797' visible='true' lat='-33.85265199653' lon='151.11754837085'>
    <tag k='addr:housenumber' v='48' />
    <tag k='addr:street' v='Phillips Street' />
  </node>
  <node id='-106799' visible='true' lat='-33.85181880431' lon='151.11882004086'>
    <tag k='addr:housenumber' v='11' />
    <tag k='addr:street' v='Rosemeadow Drive' />
  </node>
  <node id='-106801' visible='true' lat='-33.84767186905' lon='151.11240689829'>
    <tag k='addr:housenumber' v='15' />
    <tag k='addr:street' v='Stamford Avenue' />
  </node>
  <node id='-106803' visible='true' lat='-33.84722116003' lon='151.11273551368'>
    <tag k='addr:housenumber' v='10' />
    <tag k='addr:street' v='Bishop Street' />
  </node>
  <node id='-106805' visible='true' lat='-33.84632051296' lon='151.11483335344'>
    <tag k='addr:housenumber' v='110' />
    <tag k='addr:street' v='Cabarita Road' />
  </node>
  <node id='-106807' visible='true' lat='-33.84932906406' lon='151.11400594132'>
    <tag k='addr:housenumber' v='93' />
    <tag k='addr:street' v='Cabarita Road' />
  </node>
  <node id='-106809' visible='true' lat='-33.84995650354' lon='151.11302379042'>
    <tag k='addr:housenumber' v='84' />
    <tag k='addr:street' v='Cabarita Road' />
  </node>
  <node id='-106811' visible='true' lat='-33.84777451311' lon='151.11482904744'>
    <tag k='addr:housenumber' v='113' />
    <tag k='addr:street' v='Cabarita Road' />
  </node>
  <node id='-106813' visible='true' lat='-33.84765783324' lon='151.11647197985'>
    <tag k='addr:housenumber' v='35' />
    <tag k='addr:street' v='Dorking Road' />
  </node>
  <node id='-106815' visible='true' lat='-33.84934535424' lon='151.11289788999'>
    <tag k='addr:housenumber' v='3' />
    <tag k='addr:street' v='Elphinstone Street' />
  </node>
  <node id='-106817' visible='true' lat='-33.85213586089' lon='151.11863938909'>
    <tag k='addr:housenumber' v='7' />
    <tag k='addr:street' v='Rosemeadow Drive' />
  </node>
  <node id='-106819' visible='true' lat='-33.84807772955' lon='151.11172971999'>
    <tag k='addr:housenumber' v='42' />
    <tag k='addr:street' v='Elphinstone Street' />
  </node>
  <node id='-106821' visible='true' lat='-33.85134993762' lon='151.11587656588'>
    <tag k='addr:housenumber' v='23' />
    <tag k='addr:street' v='Phillips Street' />
  </node>
  <node id='-106823' visible='true' lat='-33.84666079781' lon='151.11536771857'>
    <tag k='addr:housenumber' v='133A' />
    <tag k='addr:street' v='Cabarita Road' />
  </node>
  <node id='-106825' visible='true' lat='-33.84831655367' lon='151.11594782516'>
    <tag k='addr:housenumber' v='21A' />
    <tag k='addr:street' v='Dorking Road' />
  </node>
  <node id='-106827' visible='true' lat='-33.84772830126' lon='151.11633637635'>
    <tag k='addr:housenumber' v='33' />
    <tag k='addr:street' v='Dorking Road' />
  </node>
  <node id='-106829' visible='true' lat='-33.84822963987' lon='151.11240990015'>
    <tag k='addr:housenumber' v='18' />
    <tag k='addr:street' v='Stamford Avenue' />
  </node>
  <node id='-106831' visible='true' lat='-33.84764643126' lon='151.11701691951'>
    <tag k='addr:housenumber' v='1' />
    <tag k='addr:street' v='Tingara Lane' />
  </node>
  <node id='-106833' visible='true' lat='-33.85133611937' lon='151.11709004403'>
    <tag k='addr:housenumber' v='33' />
    <tag k='addr:street' v='Rosemeadow Drive' />
  </node>
  <node id='-106835' action='modify' visible='true' lat='-33.84793433629' lon='151.11357737237'>
    <tag k='addr:housenumber' v='2A' />
    <tag k='addr:street' v='Stamford Avenue' />
  </node>
  <node id='-106837' action='modify' visible='true' lat='-33.84793433629' lon='151.11353410711'>
    <tag k='addr:housenumber' v='2' />
    <tag k='addr:street' v='Stamford Avenue' />
  </node>
  <node id='-106839' visible='true' lat='-33.84710785845' lon='151.11316093482'>
    <tag k='addr:housenumber' v='4' />
    <tag k='addr:street' v='Bishop Street' />
  </node>
  <node id='-106841' visible='true' lat='-33.84455434799' lon='151.11587656349'>
    <tag k='addr:housenumber' v='132J' />
    <tag k='addr:street' v='Cabarita Road' />
  </node>
  <node id='-106843' visible='true' lat='-33.84968856788' lon='151.11381822948'>
    <tag k='addr:housenumber' v='87' />
    <tag k='addr:street' v='Cabarita Road' />
  </node>
  <node id='-106845' visible='true' lat='-33.84879429804' lon='151.11526713151'>
    <tag k='addr:housenumber' v='11' />
    <tag k='addr:street' v='Dorking Road' />
  </node>
  <node id='-106847' visible='true' lat='-33.85052062046' lon='151.11465131743'>
    <tag k='addr:housenumber' v='3' />
    <tag k='addr:street' v='Collingwood Avenue' />
  </node>
  <node id='-106849' visible='true' lat='-33.85078835865' lon='151.11425386389'>
    <tag k='addr:housenumber' v='1' />
    <tag k='addr:street' v='Phillips Street' />
  </node>
  <node id='-106851' visible='true' lat='-33.84502516994' lon='151.11703640265'>
    <tag k='addr:housenumber' v='6' />
    <tag k='addr:street' v='Correys Square' />
  </node>
  <node id='-106853' visible='true' lat='-33.84512967759' lon='151.11700140715'>
    <tag k='addr:housenumber' v='8' />
    <tag k='addr:street' v='Correys Square' />
  </node>
  <node id='-106855' visible='true' lat='-33.8459253978' lon='151.11653076389'>
    <tag k='addr:housenumber' v='2' />
    <tag k='addr:street' v='Catherine Spence Place' />
  </node>
  <node id='-106857' visible='true' lat='-33.8471652714' lon='151.11765332291'>
    <tag k='addr:housenumber' v='49B' />
    <tag k='addr:street' v='Dorking Road' />
  </node>
  <node id='-106859' visible='true' lat='-33.84397094693' lon='151.11713399837'>
    <tag k='addr:housenumber' v='2' />
    <tag k='addr:street' v='Parkside Terrace' />
  </node>
  <node id='-106861' visible='true' lat='-33.84663282044' lon='151.1173699018'>
    <tag k='addr:housenumber' v='4' />
    <tag k='addr:street' v='Strathroy Close' />
  </node>
  <node id='-106863' visible='true' lat='-33.84569622048' lon='151.11610593901'>
    <tag k='addr:housenumber' v='26' />
    <tag k='addr:street' v='Edgewood Crescent' />
  </node>
  <node id='-106865' visible='true' lat='-33.84416611505' lon='151.11664942194'>
    <tag k='addr:housenumber' v='167' />
    <tag k='addr:street' v='Cabarita Road' />
  </node>
  <node id='-106867' visible='true' lat='-33.84380523749' lon='151.11683575245'>
    <tag k='addr:housenumber' v='175' />
    <tag k='addr:street' v='Cabarita Road' />
  </node>
  <node id='-106869' visible='true' lat='-33.84523920814' lon='151.11607721472'>
    <tag k='addr:housenumber' v='155' />
    <tag k='addr:street' v='Cabarita Road' />
  </node>
  <node id='-106871' visible='true' lat='-33.85236836756' lon='151.11554543518'>
    <tag k='addr:housenumber' v='31' />
    <tag k='addr:street' v='Jacaranda Drive' />
  </node>
  <node id='-106873' visible='true' lat='-33.8455198281' lon='151.11723815108'>
    <tag k='addr:housenumber' v='33' />
    <tag k='addr:street' v='Edgewood Crescent' />
  </node>
  <node id='-106875' visible='true' lat='-33.84525671529' lon='151.11833916408'>
    <tag k='addr:housenumber' v='8' />
    <tag k='addr:street' v='Regatta Way' />
  </node>
  <node id='-106877' visible='true' lat='-33.84509645201' lon='151.1184259176'>
    <tag k='addr:housenumber' v='6' />
    <tag k='addr:street' v='Regatta Way' />
  </node>
  <node id='-106879' visible='true' lat='-33.84493665193' lon='151.11734247928'>
    <tag k='addr:housenumber' v='15' />
    <tag k='addr:street' v='Edgewood Crescent' />
  </node>
  <node id='-106881' visible='true' lat='-33.85260547855' lon='151.1154747965'>
    <tag k='addr:housenumber' v='29' />
    <tag k='addr:street' v='Jacaranda Drive' />
  </node>
  <node id='-106883' visible='true' lat='-33.84544722591' lon='151.11647425436'>
    <tag k='addr:housenumber' v='51' />
    <tag k='addr:street' v='Edgewood Crescent' />
  </node>
  <node id='-106885' visible='true' lat='-33.84485292004' lon='151.1186162943'>
    <tag k='addr:housenumber' v='3A' />
    <tag k='addr:street' v='Regatta Way' />
  </node>
  <node id='-106887' visible='true' lat='-33.84518998631' lon='151.1172808619'>
    <tag k='addr:housenumber' v='23' />
    <tag k='addr:street' v='Edgewood Crescent' />
  </node>
  <node id='-106889' visible='true' lat='-33.84623560648' lon='151.11818113668'>
    <tag k='addr:housenumber' v='18' />
    <tag k='addr:street' v='Regatta Way' />
  </node>
  <node id='-106891' visible='true' lat='-33.84474564462' lon='151.11509047374'>
    <tag k='addr:housenumber' v='9' />
    <tag k='addr:street' v='Kendall Inlet' />
  </node>
  <node id='-106893' visible='true' lat='-33.84585411434' lon='151.1145416852'>
    <tag k='addr:housenumber' v='17' />
    <tag k='addr:street' v='Medora Street' />
  </node>
  <node id='-106895' visible='true' lat='-33.84732992844' lon='151.11368153003'>
    <tag k='addr:housenumber' v='16' />
    <tag k='addr:street' v='Kendall Street' />
  </node>
  <node id='-106897' visible='true' lat='-33.85125619579' lon='151.11734034505'>
    <tag k='addr:housenumber' v='31' />
    <tag k='addr:street' v='Rosemeadow Drive' />
  </node>
  <node id='-106899' visible='true' lat='-33.84393117894' lon='151.11620278285'>
    <tag k='addr:housenumber' v='132Q' />
    <tag k='addr:street' v='Cabarita Road' />
  </node>
  <node id='-106901' visible='true' lat='-33.84744223723' lon='151.11657446769'>
    <tag k='addr:housenumber' v='39' />
    <tag k='addr:street' v='Dorking Road' />
  </node>
  <node id='-106903' visible='true' lat='-33.84948078459' lon='151.11292283817'>
    <tag k='addr:housenumber' v='1' />
    <tag k='addr:street' v='Elphinstone Street' />
  </node>
  <node id='-106905' visible='true' lat='-33.84717605687' lon='151.11734155719'>
    <tag k='addr:housenumber' v='47' />
    <tag k='addr:street' v='Dorking Road' />
  </node>
  <node id='-106907' visible='true' lat='-33.84688066991' lon='151.11354909872'>
    <tag k='addr:housenumber' v='24' />
    <tag k='addr:street' v='Kendall Street' />
  </node>
  <node id='-106909' visible='true' lat='-33.84954324101' lon='151.11313706261'>
    <tag k='addr:housenumber' v='88' />
    <tag k='addr:street' v='Cabarita Road' />
  </node>
  <node id='-106911' visible='true' lat='-33.84401192482' lon='151.11535678522'>
    <tag k='addr:housenumber' v='15' />
    <tag k='addr:street' v='Kendall Inlet' />
  </node>
  <node id='-106913' visible='true' lat='-33.8475261981' lon='151.11644607448'>
    <tag k='addr:housenumber' v='37' />
    <tag k='addr:street' v='Dorking Road' />
  </node>
  <node id='-106915' visible='true' lat='-33.85089321291' lon='151.11452207892'>
    <tag k='addr:housenumber' v='5' />
    <tag k='addr:street' v='Phillips Street' />
  </node>
  <node id='-106917' visible='true' lat='-33.85113702441' lon='151.11786921544'>
    <tag k='addr:housenumber' v='26' />
    <tag k='addr:street' v='Rosemeadow Drive' />
  </node>
  <node id='-106919' visible='true' lat='-33.84729791001' lon='151.11245167539'>
    <tag k='addr:housenumber' v='14' />
    <tag k='addr:street' v='Bishop Street' />
  </node>
  <node id='-106921' visible='true' lat='-33.84682807867' lon='151.11456543664'>
    <tag k='addr:housenumber' v='100' />
    <tag k='addr:street' v='Cabarita Road' />
  </node>
  <node id='-106923' visible='true' lat='-33.84763445802' lon='151.11254901773'>
    <tag k='addr:housenumber' v='13' />
    <tag k='addr:street' v='Stamford Avenue' />
  </node>
  <node id='-106925' visible='true' lat='-33.84725954431' lon='151.11259528729'>
    <tag k='addr:housenumber' v='12' />
    <tag k='addr:street' v='Bishop Street' />
  </node>
  <node id='-106927' visible='true' lat='-33.84888740302' lon='151.11351790546'>
    <tag k='addr:housenumber' v='96B' />
    <tag k='addr:street' v='Cabarita Road' />
  </node>
  <node id='-106929' visible='true' lat='-33.84460197657' lon='151.11516638675'>
    <tag k='addr:housenumber' v='11' />
    <tag k='addr:street' v='Kendall Inlet' />
  </node>
  <node id='-106931' visible='true' lat='-33.84904609907' lon='151.11448643433'>
    <tag k='addr:housenumber' v='4' />
    <tag k='addr:street' v='Dorking Road' />
  </node>
  <node id='-106933' visible='true' lat='-33.84773708785' lon='151.11380051143'>
    <tag k='addr:housenumber' v='12' />
    <tag k='addr:street' v='Kendall Street' />
  </node>
  <node id='-106935' visible='true' lat='-33.85075383533' lon='151.11511641091'>
    <tag k='addr:housenumber' v='11A' />
    <tag k='addr:street' v='Phillips Street' />
  </node>
  <node id='-106937' visible='true' lat='-33.84737842003' lon='151.11571029511'>
    <tag k='addr:housenumber' v='32' />
    <tag k='addr:street' v='Dorking Road' />
  </node>
  <node id='-106939' visible='true' lat='-33.85116930004' lon='151.11852932881'>
    <tag k='addr:housenumber' v='20' />
    <tag k='addr:street' v='Rosemeadow Drive' />
  </node>
  <node id='-106943' visible='true' lat='-33.8531316048' lon='151.11804355505'>
    <tag k='addr:housenumber' v='3' />
    <tag k='addr:street' v='Jacaranda Drive' />
  </node>
  <node id='-106945' visible='true' lat='-33.84999069245' lon='151.11485189169'>
    <tag k='addr:housenumber' v='9A' />
    <tag k='addr:street' v='Collingwood Avenue' />
  </node>
  <node id='-106947' visible='true' lat='-33.84469993525' lon='151.11705154326'>
    <tag k='addr:housenumber' v='2' />
    <tag k='addr:street' v='Correys Square' />
  </node>
  <node id='-106949' visible='true' lat='-33.85223838515' lon='151.11624240714'>
    <tag k='addr:housenumber' v='12' />
    <tag k='addr:street' v='Phillips Street' />
  </node>
  <node id='-106951' visible='true' lat='-33.84483351286' lon='151.11630471137'>
    <tag k='addr:housenumber' v='163' />
    <tag k='addr:street' v='Cabarita Road' />
  </node>
  <node id='-106953' visible='true' lat='-33.84524581015' lon='151.11699070379'>
    <tag k='addr:housenumber' v='10' />
    <tag k='addr:street' v='Correys Square' />
  </node>
  <node id='-106955' visible='true' lat='-33.85307873065' lon='151.11633853396'>
    <tag k='addr:housenumber' v='21' />
    <tag k='addr:street' v='Jacaranda Drive' />
  </node>
  <node id='-106957' visible='true' lat='-33.85328312684' lon='151.11725137566'>
    <tag k='addr:housenumber' v='11' />
    <tag k='addr:street' v='Jacaranda Drive' />
  </node>
  <node id='-106959' visible='true' lat='-33.84534774988' lon='151.11695613307'>
    <tag k='addr:housenumber' v='12' />
    <tag k='addr:street' v='Correys Square' />
  </node>
  <node id='-106961' visible='true' lat='-33.84646875909' lon='151.11687802438'>
    <tag k='addr:housenumber' v='6' />
    <tag k='addr:street' v='Strathroy Close' />
  </node>
  <node id='-106963' visible='true' lat='-33.84570370451' lon='151.11629233717'>
    <tag k='addr:housenumber' v='11' />
    <tag k='addr:street' v='Catherine Spence Place' />
  </node>
  <node id='-106965' visible='true' lat='-33.84541618173' lon='151.11531024757'>
    <tag k='addr:housenumber' v='128' />
    <tag k='addr:street' v='Cabarita Road' />
  </node>
  <node id='-106967' visible='true' lat='-33.84998203276' lon='151.11242335406'>
    <tag k='addr:housenumber' v='10' />
    <tag k='addr:street' v='Elphinstone Street' />
  </node>
  <node id='-106969' visible='true' lat='-33.84399680589' lon='151.11616926057'>
    <tag k='addr:housenumber' v='132P' />
    <tag k='addr:street' v='Cabarita Road' />
  </node>
  <node id='-106971' visible='true' lat='-33.84781439902' lon='151.11165075153'>
    <tag k='addr:housenumber' v='46' />
    <tag k='addr:street' v='Elphinstone Street' />
  </node>
  <node id='-106973' visible='true' lat='-33.84899870736' lon='151.11318497417'>
    <tag k='addr:housenumber' v='2' />
    <tag k='addr:street' v='Moore Street' />
  </node>
  <node id='-106975' visible='true' lat='-33.85152794427' lon='151.11691821394'>
    <tag k='addr:housenumber' v='36' />
    <tag k='addr:street' v='Rosemeadow Drive' />
  </node>
  <node id='-106977' visible='true' lat='-33.84804442022' lon='151.11312831481'>
    <tag k='addr:housenumber' v='8' />
    <tag k='addr:street' v='Stamford Avenue' />
  </node>
  <node id='-106979' visible='true' lat='-33.84696297381' lon='151.11645755036'>
    <tag k='addr:housenumber' v='1' />
    <tag k='addr:street' v='Waine Street' />
  </node>
  <node id='-106981' visible='true' lat='-33.8489610262' lon='151.11350561149'>
    <tag k='addr:housenumber' v='96A' />
    <tag k='addr:street' v='Cabarita Road' />
  </node>
  <node id='-106983' visible='true' lat='-33.85012551054' lon='151.11300738659'>
    <tag k='addr:housenumber' v='82A' />
    <tag k='addr:street' v='Cabarita Road' />
  </node>
  <node id='-106985' visible='true' lat='-33.84894840668' lon='151.11416063159'>
    <tag k='addr:housenumber' v='95A' />
    <tag k='addr:street' v='Cabarita Road' />
  </node>
  <node id='-106987' visible='true' lat='-33.84905269174' lon='151.11213224922'>
    <tag k='addr:housenumber' v='26' />
    <tag k='addr:street' v='Elphinstone Street' />
  </node>
  <node id='-106989' visible='true' lat='-33.84655785549' lon='151.11417005994'>
    <tag k='addr:housenumber' v='3' />
    <tag k='addr:street' v='Medora Street' />
  </node>
  <node id='-106991' visible='true' lat='-33.84856554011' lon='151.11250874801'>
    <tag k='addr:housenumber' v='17' />
    <tag k='addr:street' v='Moore Street' />
  </node>
  <node id='-106993' visible='true' lat='-33.85114689062' lon='151.11845541686'>
    <tag k='addr:housenumber' v='21' />
    <tag k='addr:street' v='Rosemeadow Drive' />
  </node>
  <node id='-106995' visible='true' lat='-33.84748046805' lon='151.11311636411'>
    <tag k='addr:housenumber' v='5' />
    <tag k='addr:street' v='Stamford Avenue' />
  </node>
  <node id='-106997' visible='true' lat='-33.84683269733' lon='151.11590766176'>
    <tag k='addr:housenumber' v='9' />
    <tag k='addr:street' v='Waine Street' />
  </node>
  <node id='-106999' visible='true' lat='-33.84463654245' lon='151.11543628069'>
    <tag k='addr:housenumber' v='26' />
    <tag k='addr:street' v='Kendall Inlet' />
  </node>
  <node id='-107001' visible='true' lat='-33.84951578612' lon='151.11227654351'>
    <tag k='addr:housenumber' v='18' />
    <tag k='addr:street' v='Elphinstone Street' />
  </node>
  <node id='-107003' visible='true' lat='-33.8434989931' lon='151.11569651705'>
    <tag k='addr:housenumber' v='21' />
    <tag k='addr:street' v='Kendall Inlet' />
  </node>
  <node id='-107005' visible='true' lat='-33.85038231195' lon='151.11395469866'>
    <tag k='addr:housenumber' v='8' />
    <tag k='addr:street' v='Collingwood Avenue' />
  </node>
  <node id='-107007' visible='true' lat='-33.8518799231' lon='151.11878946528'>
    <tag k='addr:housenumber' v='10' />
    <tag k='addr:street' v='Rosemeadow Drive' />
  </node>
  <node id='-107009' visible='true' lat='-33.85196020802' lon='151.11875745943'>
    <tag k='addr:housenumber' v='9' />
    <tag k='addr:street' v='Rosemeadow Drive' />
  </node>
  <node id='-107011' visible='true' lat='-33.85163582805' lon='151.11687165309'>
    <tag k='addr:housenumber' v='37' />
    <tag k='addr:street' v='Rosemeadow Drive' />
  </node>
  <node id='-107013' visible='true' lat='-33.84906706974' lon='151.11348945048'>
    <tag k='addr:housenumber' v='94' />
    <tag k='addr:street' v='Cabarita Road' />
  </node>
  <node id='-107015' visible='true' lat='-33.84649481393' lon='151.11548810055'>
    <tag k='addr:housenumber' v='135A' />
    <tag k='addr:street' v='Cabarita Road' />
  </node>
  <node id='-107017' visible='true' lat='-33.84774707819' lon='151.11540377956'>
    <tag k='addr:housenumber' v='24' />
    <tag k='addr:street' v='Dorking Road' />
  </node>
  <node id='-107019' visible='true' lat='-33.84748135128' lon='151.11501301918'>
    <tag k='addr:housenumber' v='119' />
    <tag k='addr:street' v='Cabarita Road' />
  </node>
  <node id='-107021' visible='true' lat='-33.84975002379' lon='151.11235001819'>
    <tag k='addr:housenumber' v='14' />
    <tag k='addr:street' v='Elphinstone Street' />
  </node>
  <node id='-107023' visible='true' lat='-33.84829508311' lon='151.11366063626'>
    <tag k='addr:housenumber' v='1' />
    <tag k='addr:street' v='Moore Street' />
  </node>
  <node id='-107025' visible='true' lat='-33.85151258924' lon='151.11884235985'>
    <tag k='addr:housenumber' v='14' />
    <tag k='addr:street' v='Rosemeadow Drive' />
  </node>
  <node id='-107027' visible='true' lat='-33.85210241059' lon='151.11589292802'>
    <tag k='addr:housenumber' v='6' />
    <tag k='addr:street' v='Phillips Street' />
  </node>
  <node id='-107029' visible='true' lat='-33.84485315162' lon='151.11660130968'>
    <tag k='addr:housenumber' v='7' />
    <tag k='addr:street' v='Correys Square' />
  </node>
  <node id='-107031' visible='true' lat='-33.84538753443' lon='151.11725524324'>
    <tag k='addr:housenumber' v='29' />
    <tag k='addr:street' v='Edgewood Crescent' />
  </node>
  <node id='-107033' visible='true' lat='-33.85328830194' lon='151.11735567639'>
    <tag k='addr:housenumber' v='10' />
    <tag k='addr:street' v='Jacaranda Drive' />
  </node>
  <node id='-107035' visible='true' lat='-33.84536250254' lon='151.11626141273'>
    <tag k='addr:housenumber' v='55' />
    <tag k='addr:street' v='Edgewood Crescent' />
  </node>
  <node id='-107037' visible='true' lat='-33.8456049812' lon='151.11689514272'>
    <tag k='addr:housenumber' v='45' />
    <tag k='addr:street' v='Edgewood Crescent' />
  </node>
  <node id='-107039' visible='true' lat='-33.84603297422' lon='151.11566317944'>
    <tag k='addr:housenumber' v='143' />
    <tag k='addr:street' v='Cabarita Road' />
  </node>
  <node id='-107041' visible='true' lat='-33.84444427853' lon='151.11725721614'>
    <tag k='addr:housenumber' v='10' />
    <tag k='addr:street' v='Edgewood Crescent' />
  </node>
  <node id='-107043' visible='true' lat='-33.84492424805' lon='151.1185419363'>
    <tag k='addr:housenumber' v='5' />
    <tag k='addr:street' v='Regatta Way' />
  </node>
  <node id='-107045' visible='true' lat='-33.84472651009' lon='151.11634752551'>
    <tag k='addr:housenumber' v='165' />
    <tag k='addr:street' v='Cabarita Road' />
  </node>
  <node id='-107047' visible='true' lat='-33.84578609457' lon='151.11718616163'>
    <tag k='addr:housenumber' v='41' />
    <tag k='addr:street' v='Edgewood Crescent' />
  </node>
  <node id='-107049' visible='true' lat='-33.84563601838' lon='151.11588251447'>
    <tag k='addr:housenumber' v='151' />
    <tag k='addr:street' v='Cabarita Road' />
  </node>
  <node id='-107051' visible='true' lat='-33.84483836391' lon='151.1173729114'>
    <tag k='addr:housenumber' v='13' />
    <tag k='addr:street' v='Edgewood Crescent' />
  </node>
  <node id='-107053' visible='true' lat='-33.84556326494' lon='151.11678138703'>
    <tag k='addr:housenumber' v='47' />
    <tag k='addr:street' v='Edgewood Crescent' />
  </node>
  <node id='-107055' visible='true' lat='-33.85044730644' lon='151.11341548926'>
    <tag k='addr:housenumber' v='73' />
    <tag k='addr:street' v='Cabarita Road' />
  </node>
  <node id='-107057' visible='true' lat='-33.84928212568' lon='151.11220329521'>
    <tag k='addr:housenumber' v='22' />
    <tag k='addr:street' v='Elphinstone Street' />
  </node>
  <node id='-107059' visible='true' lat='-33.84833135607' lon='151.11351505661'>
    <tag k='addr:housenumber' v='3' />
    <tag k='addr:street' v='Moore Street' />
  </node>
  <node id='-107061' visible='true' lat='-33.84771077015' lon='151.11226221435'>
    <tag k='addr:housenumber' v='17' />
    <tag k='addr:street' v='Stamford Avenue' />
  </node>
  <node id='-107063' visible='true' lat='-33.84592083751' lon='151.11504510049'>
    <tag k='addr:housenumber' v='118' />
    <tag k='addr:street' v='Cabarita Road' />
  </node>
  <node id='-107065' visible='true' lat='-33.84738376177' lon='151.11507556248'>
    <tag k='addr:housenumber' v='121' />
    <tag k='addr:street' v='Cabarita Road' />
  </node>
  <node id='-107067' visible='true' lat='-33.85242693923' lon='151.1184641602'>
    <tag k='addr:housenumber' v='2' />
    <tag k='addr:street' v='Rosemeadow Drive' />
  </node>
  <node id='-107069' visible='true' lat='-33.84838334951' lon='151.11449026401'>
    <tag k='addr:housenumber' v='105' />
    <tag k='addr:street' v='Cabarita Road' />
  </node>
  <node id='-107071' visible='true' lat='-33.84784740909' lon='151.11383671151'>
    <tag k='addr:housenumber' v='10' />
    <tag k='addr:street' v='Kendall Street' />
  </node>
  <node id='-107073' visible='true' lat='-33.84651713752' lon='151.11472770442'>
    <tag k='addr:housenumber' v='106' />
    <tag k='addr:street' v='Cabarita Road' />
  </node>
  <node id='-107075' visible='true' lat='-33.84450346305' lon='151.11522065077'>
    <tag k='addr:housenumber' v='12' />
    <tag k='addr:street' v='Kendall Inlet' />
  </node>
  <node id='-107077' visible='true' lat='-33.85012143716' lon='151.11358820932'>
    <tag k='addr:housenumber' v='79' />
    <tag k='addr:street' v='Cabarita Road' />
  </node>
  <node id='-107079' visible='true' lat='-33.85095662801' lon='151.11518929808'>
    <tag k='addr:housenumber' v='13' />
    <tag k='addr:street' v='Phillips Street' />
  </node>
  <node id='-107081' visible='true' lat='-33.84811957333' lon='151.11284139684'>
    <tag k='addr:housenumber' v='12' />
    <tag k='addr:street' v='Stamford Avenue' />
  </node>
  <node id='-107083' visible='true' lat='-33.84851474577' lon='151.11558349638'>
    <tag k='addr:housenumber' v='17' />
    <tag k='addr:street' v='Dorking Road' />
  </node>
  <node id='-107085' visible='true' lat='-33.84815379268' lon='151.11269777642'>
    <tag k='addr:housenumber' v='14' />
    <tag k='addr:street' v='Stamford Avenue' />
  </node>
  <node id='-107087' visible='true' lat='-33.84469414259' lon='151.11580308065'>
    <tag k='addr:housenumber' v='132H' />
    <tag k='addr:street' v='Cabarita Road' />
  </node>
  <node id='-107089' visible='true' lat='-33.84815628468' lon='151.11460922417'>
    <tag k='addr:housenumber' v='109' />
    <tag k='addr:street' v='Cabarita Road' />
  </node>
  <node id='-107091' visible='true' lat='-33.84995125272' lon='151.11418090573'>
    <tag k='addr:housenumber' v='14A' />
    <tag k='addr:street' v='Collingwood Avenue' />
  </node>
  <node id='-107093' visible='true' lat='-33.85231113916' lon='151.11853381563'>
    <tag k='addr:housenumber' v='4' />
    <tag k='addr:street' v='Rosemeadow Drive' />
  </node>
  <node id='-107095' visible='true' lat='-33.84622049307' lon='151.11488683881'>
    <tag k='addr:housenumber' v='112' />
    <tag k='addr:street' v='Cabarita Road' />
  </node>
  <node id='-107097' visible='true' lat='-33.84860071044' lon='151.11471997848'>
    <tag k='addr:housenumber' v='12' />
    <tag k='addr:street' v='Dorking Road' />
  </node>
  <node id='-107099' visible='true' lat='-33.84973797894' lon='151.11305467544'>
    <tag k='addr:housenumber' v='86' />
    <tag k='addr:street' v='Cabarita Road' />
  </node>
  <node id='-107101' visible='true' lat='-33.84414454571' lon='151.11525093334'>
    <tag k='addr:housenumber' v='14' />
    <tag k='addr:street' v='Kendall Inlet' />
  </node>
  <node id='-107103' visible='true' lat='-33.84884693329' lon='151.11421292483'>
    <tag k='addr:housenumber' v='97' />
    <tag k='addr:street' v='Cabarita Road' />
  </node>
  <node id='-107105' visible='true' lat='-33.85060058573' lon='151.11383981155'>
    <tag k='addr:housenumber' v='4' />
    <tag k='addr:street' v='Collingwood Avenue' />
  </node>
  <node id='-107107' visible='true' lat='-33.85191098103' lon='151.11669100896'>
    <tag k='addr:housenumber' v='41' />
    <tag k='addr:street' v='Rosemeadow Drive' />
  </node>
  <node id='-107109' visible='true' lat='-33.84808183247' lon='151.11298310567'>
    <tag k='addr:housenumber' v='10' />
    <tag k='addr:street' v='Stamford Avenue' />
  </node>
  <node id='-107111' visible='true' lat='-33.85280080427' lon='151.11539745966'>
    <tag k='addr:housenumber' v='28' />
    <tag k='addr:street' v='Jacaranda Drive' />
  </node>
  <node id='-107113' visible='true' lat='-33.84564553784' lon='151.11700216252'>
    <tag k='addr:housenumber' v='43' />
    <tag k='addr:street' v='Edgewood Crescent' />
  </node>
</osm>
