<?xml version='1.0' encoding='UTF-8'?>
<osm version='0.6' generator='JOSM'>
  <node id='-663942' action='modify' visible='true' lat='-34.22735370862' lon='150.55995344027'>
    <tag k='addr:housenumber' v='155' />
    <tag k='addr:street' v='Nattai Street' />
  </node>
  <node id='-663944' action='modify' visible='true' lat='-34.23814883601' lon='150.56102086969'>
    <tag k='addr:housenumber' v='105' />
    <tag k='addr:street' v='South Street' />
  </node>
  <node id='-663946' action='modify' visible='true' lat='-34.23711536366' lon='150.55407478377'>
    <tag k='addr:housenumber' v='55' />
    <tag k='addr:street' v='South Street' />
  </node>
  <node id='-663948' action='modify' visible='true' lat='-34.23372177396' lon='150.54848136893'>
    <tag k='addr:housenumber' v='315' />
    <tag k='addr:street' v='West Parade' />
  </node>
  <node id='-663950' action='modify' visible='true' lat='-34.23973009752' lon='150.55754232699'>
    <tag k='addr:housenumber' v='80' />
    <tag k='addr:street' v='South Street' />
  </node>
  <node id='-663952' action='modify' visible='true' lat='-34.23601399246' lon='150.55061155746'>
    <tag k='addr:housenumber' v='24' />
    <tag k='addr:street' v='Meryla Street' />
  </node>
  <node id='-663954' action='modify' visible='true' lat='-34.23755094145' lon='150.55925397355'>
    <tag k='addr:housenumber' v='95' />
    <tag k='addr:street' v='South Street' />
  </node>
  <node id='-663956' action='modify' visible='true' lat='-34.23755094145' lon='150.55929743803'>
    <tag k='addr:housenumber' v='95A' />
    <tag k='addr:street' v='South Street' />
  </node>
  <node id='-663958' action='modify' visible='true' lat='-34.23318480977' lon='150.55854753568'>
    <tag k='addr:housenumber' v='250' />
    <tag k='addr:street' v='Bargo River Road' />
  </node>
  <node id='-663960' action='modify' visible='true' lat='-34.23457420068' lon='150.55352084366'>
    <tag k='addr:housenumber' v='109' />
    <tag k='addr:street' v='Colo Street' />
  </node>
  <node id='-663962' action='modify' visible='true' lat='-34.23750108257' lon='150.5503170079'>
    <tag k='addr:housenumber' v='42' />
    <tag k='addr:street' v='Meryla Street' />
  </node>
  <node id='-663964' action='modify' visible='true' lat='-34.23758152217' lon='150.55759354523'>
    <tag k='addr:housenumber' v='85' />
    <tag k='addr:street' v='South Street' />
  </node>
  <node id='-663966' action='modify' visible='true' lat='-34.23602718136' lon='150.54951263235'>
    <tag k='addr:housenumber' v='25' />
    <tag k='addr:street' v='East Parade' />
  </node>
  <node id='-663968' action='modify' visible='true' lat='-34.23467967654' lon='150.55713497624'>
    <tag k='addr:housenumber' v='2' />
    <tag k='addr:street' v='Wilton Street' />
  </node>
  <node id='-663970' action='modify' visible='true' lat='-34.23696621607' lon='150.54909655297'>
    <tag k='addr:housenumber' v='35' />
    <tag k='addr:street' v='East Parade' />
  </node>
  <node id='-663972' action='modify' visible='true' lat='-34.226972344' lon='150.55076446729'>
    <tag k='addr:housenumber' v='240' />
    <tag k='addr:street' v='West Parade' />
  </node>
  <node id='-663974' action='modify' visible='true' lat='-34.23421891478' lon='150.55356709887'>
    <tag k='addr:housenumber' v='107' />
    <tag k='addr:street' v='Colo Street' />
  </node>
  <node id='-663976' action='modify' visible='true' lat='-34.23421891478' lon='150.55361056163'>
    <tag k='addr:housenumber' v='295' />
    <tag k='addr:street' v='Bargo River Road' />
  </node>
  <node id='-663978' action='modify' visible='true' lat='-34.23263239869' lon='150.5515808971'>
    <tag k='addr:housenumber' v='90' />
    <tag k='addr:street' v='Colo Street' />
  </node>
  <node id='-663980' action='modify' visible='true' lat='-34.23741098721' lon='150.55629974049'>
    <tag k='addr:housenumber' v='65' />
    <tag k='addr:street' v='South Street' />
  </node>
  <node id='-663982' action='modify' visible='true' lat='-34.23938745061' lon='150.55496579277'>
    <tag k='addr:housenumber' v='60' />
    <tag k='addr:street' v='South Street' />
  </node>
  <node id='-663984' action='modify' visible='true' lat='-34.23184102283' lon='150.55438225149'>
    <tag k='addr:housenumber' v='65' />
    <tag k='addr:street' v='Colo Street' />
  </node>
  <node id='-663986' action='modify' visible='true' lat='-34.22842928222' lon='150.55964637174'>
    <tag k='addr:housenumber' v='161' />
    <tag k='addr:street' v='Nattai Street' />
  </node>
  <node id='-663988' action='modify' visible='true' lat='-34.23113022105' lon='150.55857350775'>
    <tag k='addr:housenumber' v='35' />
    <tag k='addr:street' v='East Street' />
  </node>
  <node id='-663990' action='modify' visible='true' lat='-34.23460299886' lon='150.55652688784'>
    <tag k='addr:housenumber' v='3' />
    <tag k='addr:street' v='Wongawilli Street' />
  </node>
  <node id='-663992' action='modify' visible='true' lat='-34.23603003362' lon='150.55625906585'>
    <tag k='addr:housenumber' v='21' />
    <tag k='addr:street' v='Wongawilli Street' />
  </node>
  <node id='-663994' action='modify' visible='true' lat='-34.23278703376' lon='150.5555366014'>
    <tag k='addr:housenumber' v='280' />
    <tag k='addr:street' v='Bargo River Road' />
  </node>
  <node id='-663996' action='modify' visible='true' lat='-34.22954773286' lon='150.5579842989'>
    <tag k='addr:housenumber' v='35' />
    <tag k='addr:street' v='Colo Street' />
  </node>
  <node id='-663998' action='modify' visible='true' lat='-34.23512491039' lon='150.55491443431'>
    <tag k='addr:housenumber' v='9' />
    <tag k='addr:street' v='Banksia Street' />
  </node>
  <node id='-664000' action='modify' visible='true' lat='-34.22723452907' lon='150.55839681724'>
    <tag k='addr:housenumber' v='165' />
    <tag k='addr:street' v='Nattai Street' />
  </node>
  <node id='-664002' action='modify' visible='true' lat='-34.23520125381' lon='150.55340273945'>
    <tag k='addr:housenumber' v='117' />
    <tag k='addr:street' v='Colo Street' />
  </node>
  <node id='-664004' action='modify' visible='true' lat='-34.23520420038' lon='150.55552359648'>
    <tag k='addr:housenumber' v='10' />
    <tag k='addr:street' v='Wongawilli Street' />
  </node>
  <node id='-664006' action='modify' visible='true' lat='-34.23500889156' lon='150.55406103113'>
    <tag k='addr:housenumber' v='10' />
    <tag k='addr:street' v='Banksia Street' />
  </node>
  <node id='-664008' action='modify' visible='true' lat='-34.23096568364' lon='150.55640168167'>
    <tag k='addr:housenumber' v='45' />
    <tag k='addr:street' v='Colo Street' />
  </node>
  <node id='-664010' action='modify' visible='true' lat='-34.23429463691' lon='150.55419414013'>
    <tag k='addr:housenumber' v='2' />
    <tag k='addr:street' v='Banksia Street' />
  </node>
  <node id='-664012' action='modify' visible='true' lat='-34.23554519618' lon='150.55817164394'>
    <tag k='addr:housenumber' v='255' />
    <tag k='addr:street' v='Bargo River Road' />
  </node>
  <node id='-664014' action='modify' visible='true' lat='-34.23402189747' lon='150.55212096365'>
    <tag k='addr:housenumber' v='305' />
    <tag k='addr:street' v='Bargo River Road' />
  </node>
  <node id='-664016' action='modify' visible='true' lat='-34.23484642548' lon='150.55559236319'>
    <tag k='addr:housenumber' v='6' />
    <tag k='addr:street' v='Wongawilli Street' />
  </node>
  <node id='-664018' action='modify' visible='true' lat='-34.23602649958' lon='150.55174214605'>
    <tag k='addr:housenumber' v='25' />
    <tag k='addr:street' v='Meryla Street' />
  </node>
  <node id='-664020' action='modify' visible='true' lat='-34.229160576' lon='150.5536875828'>
    <tag k='addr:housenumber' v='340' />
    <tag k='addr:street' v='Station Street' />
  </node>
  <node id='-664022' action='modify' visible='true' lat='-34.23572796326' lon='150.5533040247'>
    <tag k='addr:housenumber' v='123' />
    <tag k='addr:street' v='Colo Street' />
  </node>
  <node id='-664024' action='modify' visible='true' lat='-34.23476821777' lon='150.55498124572'>
    <tag k='addr:housenumber' v='5' />
    <tag k='addr:street' v='Banksia Street' />
  </node>
  <node id='-664026' action='modify' visible='true' lat='-34.22704655104' lon='150.5550937467'>
    <tag k='addr:housenumber' v='282' />
    <tag k='addr:street' v='Station Street' />
  </node>
  <node id='-664028' action='modify' visible='true' lat='-34.2361896193' lon='150.54947182494'>
    <tag k='addr:housenumber' v='27A' />
    <tag k='addr:street' v='East Parade' />
  </node>
  <node id='-664030' action='modify' visible='true' lat='-34.23909745171' lon='150.5533378605'>
    <tag k='addr:housenumber' v='50' />
    <tag k='addr:street' v='South Street' />
  </node>
  <node id='-664032' action='modify' visible='true' lat='-34.23448962928' lon='150.55566066656'>
    <tag k='addr:housenumber' v='2' />
    <tag k='addr:street' v='Wongawilli Street' />
  </node>
  <node id='-664034' action='modify' visible='true' lat='-34.22690929979' lon='150.55667284289'>
    <tag k='addr:housenumber' v='10' />
    <tag k='addr:street' v='Colo Street' />
  </node>
  <node id='-664036' action='modify' visible='true' lat='-34.23634351671' lon='150.54875307566'>
    <tag k='addr:housenumber' v='29-31' />
    <tag k='addr:street' v='East Parade' />
  </node>
  <node id='-664038' action='modify' visible='true' lat='-34.23910103274' lon='150.55227146005'>
    <tag k='addr:housenumber' v='40' />
    <tag k='addr:street' v='South Street' />
  </node>
  <node id='-664040' action='modify' visible='true' lat='-34.23299361686' lon='150.55294728402'>
    <tag k='addr:housenumber' v='96' />
    <tag k='addr:street' v='Colo Street' />
  </node>
  <node id='-664042' action='modify' visible='true' lat='-34.23465070387' lon='150.55412827094'>
    <tag k='addr:housenumber' v='6' />
    <tag k='addr:street' v='Banksia Street' />
  </node>
  <node id='-664044' action='modify' visible='true' lat='-34.22834155591' lon='150.55058116688'>
    <tag k='addr:housenumber' v='250' />
    <tag k='addr:street' v='West Parade' />
  </node>
  <node id='-664046' action='modify' visible='true' lat='-34.23509599799' lon='150.55191509498'>
    <tag k='addr:housenumber' v='15' />
    <tag k='addr:street' v='Meryla Street' />
  </node>
  <node id='-664048' action='modify' visible='true' lat='-34.23517540202' lon='150.55252611008'>
    <tag k='addr:housenumber' v='118' />
    <tag k='addr:street' v='Colo Street' />
  </node>
  <node id='-664050' action='modify' visible='true' lat='-34.23293814854' lon='150.5566655072'>
    <tag k='addr:housenumber' v='260' />
    <tag k='addr:street' v='Bargo River Road' />
  </node>
  <node id='-664052' action='modify' visible='true' lat='-34.23474067955' lon='150.55198500647'>
    <tag k='addr:housenumber' v='9' />
    <tag k='addr:street' v='Meryla Street' />
  </node>
  <node id='-664054' action='modify' visible='true' lat='-34.2341047232' lon='150.55272687129'>
    <tag k='addr:housenumber' v='106' />
    <tag k='addr:street' v='Colo Street' />
  </node>
  <node id='-664056' action='modify' visible='true' lat='-34.23303733621' lon='150.55741761114'>
    <tag k='addr:housenumber' v='254' />
    <tag k='addr:street' v='Bargo River Road' />
  </node>
  <node id='-664058' action='modify' visible='true' lat='-34.2283938511' lon='150.55817111873'>
    <tag k='addr:housenumber' v='23' />
    <tag k='addr:street' v='Colo Street' />
  </node>
  <node id='-664060' action='modify' visible='true' lat='-34.23729667271' lon='150.5503492438'>
    <tag k='addr:housenumber' v='40' />
    <tag k='addr:street' v='Meryla Street' />
  </node>
  <node id='-664062' action='modify' visible='true' lat='-34.23495981604' lon='150.55646296026'>
    <tag k='addr:housenumber' v='5' />
    <tag k='addr:street' v='Wongawilli Street' />
  </node>
  <node id='-664064' action='modify' visible='true' lat='-34.23446108509' lon='150.55266010551'>
    <tag k='addr:housenumber' v='110' />
    <tag k='addr:street' v='Colo Street' />
  </node>
  <node id='-664066' action='modify' visible='true' lat='-34.23773981222' lon='150.56033246717'>
    <tag k='addr:housenumber' v='101' />
    <tag k='addr:street' v='South Street' />
  </node>
  <node id='-664068' action='modify' visible='true' lat='-34.23481719121' lon='150.55259277004'>
    <tag k='addr:housenumber' v='114' />
    <tag k='addr:street' v='Colo Street' />
  </node>
  <node id='-664070' action='modify' visible='true' lat='-34.23342472345' lon='150.55286774184'>
    <tag k='addr:housenumber' v='100' />
    <tag k='addr:street' v='Colo Street' />
  </node>
  <node id='-664072' action='modify' visible='true' lat='-34.22958096406' lon='150.55492359225'>
    <tag k='addr:housenumber' v='60' />
    <tag k='addr:street' v='Colo Street' />
  </node>
  <node id='-664074' action='modify' visible='true' lat='-34.23138035191' lon='150.55239814567'>
    <tag k='addr:housenumber' v='80' />
    <tag k='addr:street' v='Colo Street' />
  </node>
  <node id='-664076' action='modify' visible='true' lat='-34.23441342413' lon='150.55505038667'>
    <tag k='addr:housenumber' v='275' />
    <tag k='addr:street' v='Bargo River Road' />
  </node>
  <node id='-664078' action='modify' visible='true' lat='-34.23729858878' lon='150.55543529269'>
    <tag k='addr:housenumber' v='63' />
    <tag k='addr:street' v='South Street' />
  </node>
  <node id='-664080' action='modify' visible='true' lat='-34.22802340326' lon='150.55466033741'>
    <tag k='addr:housenumber' v='300' />
    <tag k='addr:street' v='Station Street' />
  </node>
  <node id='-664082' action='modify' visible='true' lat='-34.2395968235' lon='150.55654042461'>
    <tag k='addr:housenumber' v='74' />
    <tag k='addr:street' v='South Street' />
  </node>
  <node id='-664084' action='modify' visible='true' lat='-34.22933598716' lon='150.55625307581'>
    <tag k='addr:housenumber' v='30' />
    <tag k='addr:street' v='Colo Street' />
  </node>
  <node id='-664086' action='modify' visible='true' lat='-34.22806576491' lon='150.5564530024'>
    <tag k='addr:housenumber' v='20' />
    <tag k='addr:street' v='Colo Street' />
  </node>
  <node id='-664088' action='modify' visible='true' lat='-34.22974524626' lon='150.55947319601'>
    <tag k='addr:housenumber' v='45' />
    <tag k='addr:street' v='East Street' />
  </node>
  <node id='-664090' action='modify' visible='true' lat='-34.23536964007' lon='150.5539925526'>
    <tag k='addr:housenumber' v='14' />
    <tag k='addr:street' v='Banksia Street' />
  </node>
  <node id='-664092' action='modify' visible='true' lat='-34.23692310237' lon='150.55226358312'>
    <tag k='addr:housenumber' v='35' />
    <tag k='addr:street' v='South Street' />
  </node>
  <node id='-664094' action='modify' visible='true' lat='-34.23023563208' lon='150.55301418548'>
    <tag k='addr:housenumber' v='70' />
    <tag k='addr:street' v='Colo Street' />
  </node>
  <node id='-664096' action='modify' visible='true' lat='-34.2343822401' lon='150.5520522064'>
    <tag k='addr:housenumber' v='5' />
    <tag k='addr:street' v='Meryla Street' />
  </node>
  <node id='-664098' action='modify' visible='true' lat='-34.23584133029' lon='150.5506364656'>
    <tag k='addr:housenumber' v='22' />
    <tag k='addr:street' v='Meryla Street' />
  </node>
  <node id='-664100' action='modify' visible='true' lat='-34.2300926751' lon='150.54995072192'>
    <tag k='addr:housenumber' v='260' />
    <tag k='addr:street' v='West Parade' />
  </node>
  <node id='-664102' action='modify' visible='true' lat='-34.2300926751' lon='150.54990726128'>
    <tag k='addr:housenumber' v='264' />
    <tag k='addr:street' v='West Parade' />
  </node>
  <node id='-664104' action='modify' visible='true' lat='-34.23539811414' lon='150.55699949605'>
    <tag k='addr:housenumber' v='10' />
    <tag k='addr:street' v='Wilton Street' />
  </node>
  <node id='-664106' action='modify' visible='true' lat='-34.23312535498' lon='150.55230893338'>
    <tag k='addr:housenumber' v='310' />
    <tag k='addr:street' v='Bargo River Road' />
  </node>
  <node id='-664108' action='modify' visible='true' lat='-34.23577904032' lon='150.54957903556'>
    <tag k='addr:housenumber' v='17-19' />
    <tag k='addr:street' v='East Parade' />
  </node>
  <node id='-664110' action='modify' visible='true' lat='-34.2349314376' lon='150.55345416818'>
    <tag k='addr:housenumber' v='113' />
    <tag k='addr:street' v='Colo Street' />
  </node>
  <node id='-664112' action='modify' visible='true' lat='-34.23572282774' lon='150.55392859566'>
    <tag k='addr:housenumber' v='18' />
    <tag k='addr:street' v='Banksia Street' />
  </node>
  <node id='-664114' action='modify' visible='true' lat='-34.23546597521' lon='150.55335232712'>
    <tag k='addr:housenumber' v='119' />
    <tag k='addr:street' v='Colo Street' />
  </node>
  <node id='-664116' action='modify' visible='true' lat='-34.24141792876' lon='150.54850848498'>
    <tag k='addr:housenumber' v='155' />
    <tag k='addr:street' v='East Parade' />
  </node>
  <node id='-664162' action='modify' visible='true' lat='-34.22635035522' lon='150.55565228342'>
    <tag k='addr:housenumber' v='195' />
    <tag k='addr:street' v='Nattai Street' />
  </node>
  <node id='-664164' action='modify' visible='true' lat='-34.22627070201' lon='150.55508743095'>
    <tag k='addr:housenumber' v='199' />
    <tag k='addr:street' v='Nattai Street' />
  </node>
  <node id='-664166' action='modify' visible='true' lat='-34.23317326759' lon='150.55380848273'>
    <tag k='addr:housenumber' v='97' />
    <tag k='addr:street' v='Colo Street' />
  </node>
  <node id='-664168' action='modify' visible='true' lat='-34.23360435222' lon='150.55372576914'>
    <tag k='addr:housenumber' v='101' />
    <tag k='addr:street' v='Colo Street' />
  </node>
  <node id='-664170' action='modify' visible='true' lat='-34.23503860147' lon='150.55706714686'>
    <tag k='addr:housenumber' v='6' />
    <tag k='addr:street' v='Wilton Street' />
  </node>
  <node id='-664172' action='modify' visible='true' lat='-34.23575379784' lon='150.55693044752'>
    <tag k='addr:housenumber' v='14' />
    <tag k='addr:street' v='Wilton Street' />
  </node>
  <node id='-664174' action='modify' visible='true' lat='-34.23232060549' lon='150.54812049851'>
    <tag k='addr:housenumber' v='310' />
    <tag k='addr:street' v='West Parade' />
  </node>
</osm>
