<?xml version='1.0' encoding='UTF-8'?>
<osm version='0.6' generator='JOSM'>
  <node id='-664314' action='modify' visible='true' lat='-34.24141792876' lon='150.54850848498'>
    <tag k='addr:housenumber' v='12/155' />
    <tag k='addr:street' v='East Parade' />
  </node>
  <node id='-664315' action='modify' visible='true' lat='-34.24141792876' lon='150.54850848498'>
    <tag k='addr:housenumber' v='11/155' />
    <tag k='addr:street' v='East Parade' />
  </node>
  <node id='-664316' action='modify' visible='true' lat='-34.24141792876' lon='150.54850848498'>
    <tag k='addr:housenumber' v='14/155' />
    <tag k='addr:street' v='East Parade' />
  </node>
  <node id='-664317' action='modify' visible='true' lat='-34.24141792876' lon='150.54850848498'>
    <tag k='addr:housenumber' v='13/155' />
    <tag k='addr:street' v='East Parade' />
  </node>
  <node id='-664318' action='modify' visible='true' lat='-34.24141792876' lon='150.54850848498'>
    <tag k='addr:housenumber' v='8/155' />
    <tag k='addr:street' v='East Parade' />
  </node>
  <node id='-664319' action='modify' visible='true' lat='-34.24141792876' lon='150.54850848498'>
    <tag k='addr:housenumber' v='7/155' />
    <tag k='addr:street' v='East Parade' />
  </node>
  <node id='-664320' action='modify' visible='true' lat='-34.24141792876' lon='150.54850848498'>
    <tag k='addr:housenumber' v='10/155' />
    <tag k='addr:street' v='East Parade' />
  </node>
  <node id='-664321' action='modify' visible='true' lat='-34.24141792876' lon='150.54850848498'>
    <tag k='addr:housenumber' v='9/155' />
    <tag k='addr:street' v='East Parade' />
  </node>
  <node id='-664322' action='modify' visible='true' lat='-34.24141792876' lon='150.54850848498'>
    <tag k='addr:housenumber' v='4/155' />
    <tag k='addr:street' v='East Parade' />
  </node>
  <node id='-664323' action='modify' visible='true' lat='-34.24141792876' lon='150.54850848498'>
    <tag k='addr:housenumber' v='20/155' />
    <tag k='addr:street' v='East Parade' />
  </node>
  <node id='-664324' action='modify' visible='true' lat='-34.24141792876' lon='150.54850848498'>
    <tag k='addr:housenumber' v='3/155' />
    <tag k='addr:street' v='East Parade' />
  </node>
  <node id='-664325' action='modify' visible='true' lat='-34.24141792876' lon='150.54850848498'>
    <tag k='addr:housenumber' v='19/155' />
    <tag k='addr:street' v='East Parade' />
  </node>
  <node id='-664326' action='modify' visible='true' lat='-34.24141792876' lon='150.54850848498'>
    <tag k='addr:housenumber' v='6/155' />
    <tag k='addr:street' v='East Parade' />
  </node>
  <node id='-664327' action='modify' visible='true' lat='-34.24141792876' lon='150.54850848498'>
    <tag k='addr:housenumber' v='22/155' />
    <tag k='addr:street' v='East Parade' />
  </node>
  <node id='-664328' action='modify' visible='true' lat='-34.24141792876' lon='150.54850848498'>
    <tag k='addr:housenumber' v='5/155' />
    <tag k='addr:street' v='East Parade' />
  </node>
  <node id='-664329' action='modify' visible='true' lat='-34.24141792876' lon='150.54850848498'>
    <tag k='addr:housenumber' v='21/155' />
    <tag k='addr:street' v='East Parade' />
  </node>
  <node id='-664330' action='modify' visible='true' lat='-34.24141792876' lon='150.54850848498'>
    <tag k='addr:housenumber' v='16/155' />
    <tag k='addr:street' v='East Parade' />
  </node>
  <node id='-664331' action='modify' visible='true' lat='-34.24141792876' lon='150.54850848498'>
    <tag k='addr:housenumber' v='15/155' />
    <tag k='addr:street' v='East Parade' />
  </node>
  <node id='-664332' action='modify' visible='true' lat='-34.24141792876' lon='150.54850848498'>
    <tag k='addr:housenumber' v='2/155' />
    <tag k='addr:street' v='East Parade' />
  </node>
  <node id='-664333' action='modify' visible='true' lat='-34.24141792876' lon='150.54850848498'>
    <tag k='addr:housenumber' v='18/155' />
    <tag k='addr:street' v='East Parade' />
  </node>
  <node id='-664334' action='modify' visible='true' lat='-34.24141792876' lon='150.54850848498'>
    <tag k='addr:housenumber' v='1/155' />
    <tag k='addr:street' v='East Parade' />
  </node>
  <node id='-664335' action='modify' visible='true' lat='-34.24141792876' lon='150.54850848498'>
    <tag k='addr:housenumber' v='17/155' />
    <tag k='addr:street' v='East Parade' />
  </node>
</osm>
