<?xml version='1.0' encoding='UTF-8'?>
<osm version='0.6' generator='JOSM'>
  <node id='-466175' visible='true' lat='-34.60525871781' lon='150.38911961639'>
    <tag k='addr:housenumber' v='314' />
    <tag k='addr:street' v='Meryla Road' />
  </node>
  <node id='-466177' visible='true' lat='-34.58729609954' lon='150.40126553602'>
    <tag k='addr:housenumber' v='85' />
    <tag k='addr:street' v='Meryla Road' />
  </node>
  <node id='-466179' visible='true' lat='-34.61182018983' lon='150.40913933871'>
    <tag k='addr:housenumber' v='552' />
    <tag k='addr:street' v='Meryla Road' />
  </node>
  <node id='-466181' visible='true' lat='-34.60406228088' lon='150.38430719343'>
    <tag k='addr:housenumber' v='296' />
    <tag k='addr:street' v='Meryla Road' />
  </node>
  <node id='-466183' visible='true' lat='-34.60784081296' lon='150.39794362943'>
    <tag k='addr:housenumber' v='438' />
    <tag k='addr:street' v='Meryla Road' />
  </node>
  <node id='-466185' visible='true' lat='-34.60316646654' lon='150.3938381787'>
    <tag k='addr:housenumber' v='311' />
    <tag k='addr:street' v='Meryla Road' />
  </node>
  <node id='-466187' visible='true' lat='-34.60883309812' lon='150.41031740239'>
    <tag k='addr:housenumber' v='555' />
    <tag k='addr:street' v='Meryla Road' />
  </node>
  <node id='-466189' visible='true' lat='-34.5996384028' lon='150.40390437176'>
    <tag k='addr:housenumber' v='255' />
    <tag k='addr:street' v='Meryla Road' />
  </node>
  <node id='-466191' visible='true' lat='-34.60466398462' lon='150.40690947761'>
    <tag k='addr:housenumber' v='551' />
    <tag k='addr:street' v='Meryla Road' />
  </node>
  <node id='-466193' visible='true' lat='-34.59121003647' lon='150.39942097752'>
    <tag k='addr:housenumber' v='151' />
    <tag k='addr:street' v='Meryla Road' />
  </node>
  <node id='-466195' visible='true' lat='-34.58738368889' lon='150.39485982507'>
    <tag k='addr:housenumber' v='95' />
    <tag k='addr:street' v='Meryla Road' />
  </node>
  <node id='-466197' visible='true' lat='-34.58504530483' lon='150.39785306146'>
    <tag k='addr:housenumber' v='83' />
    <tag k='addr:street' v='Meryla Road' />
  </node>
  <node id='-466199' visible='true' lat='-34.60565157401' lon='150.41219451511'>
    <tag k='addr:housenumber' v='567' />
    <tag k='addr:street' v='Meryla Road' />
  </node>
  <node id='-466201' visible='true' lat='-34.60010419651' lon='150.39432528879'>
    <tag k='addr:housenumber' v='275' />
    <tag k='addr:street' v='Meryla Road' />
  </node>
  <node id='-466203' visible='true' lat='-34.60288563603' lon='150.39158388597'>
    <tag k='addr:housenumber' v='312' />
    <tag k='addr:street' v='Meryla Road' />
  </node>
  <node id='-466205' visible='true' lat='-34.61039525389' lon='150.41221100074'>
    <tag k='addr:housenumber' v='560' />
    <tag k='addr:street' v='Meryla Road' />
  </node>
  <node id='-466207' visible='true' lat='-34.60750638437' lon='150.38775129146'>
    <tag k='addr:housenumber' v='316' />
    <tag k='addr:street' v='Meryla Road' />
  </node>
  <node id='-466209' visible='true' lat='-34.60503295948' lon='150.40169385017'>
    <tag k='addr:housenumber' v='535' />
    <tag k='addr:street' v='Meryla Road' />
  </node>
  <node id='-466211' visible='true' lat='-34.60329913574' lon='150.39604805184'>
    <tag k='addr:housenumber' v='301' />
    <tag k='addr:street' v='Meryla Road' />
  </node>
  <node id='-466213' visible='true' lat='-34.61068904612' lon='150.39510604596'>
    <tag k='addr:housenumber' v='450' />
    <tag k='addr:street' v='Meryla Road' />
  </node>
  <node id='-466215' visible='true' lat='-34.58545907186' lon='150.39468051404'>
    <tag k='addr:housenumber' v='92' />
    <tag k='addr:street' v='Meryla Road' />
  </node>
  <node id='-466217' visible='true' lat='-34.60000701125' lon='150.38526351478'>
    <tag k='addr:housenumber' v='294' />
    <tag k='addr:street' v='Meryla Road' />
  </node>
  <node id='-466219' visible='true' lat='-34.58463026968' lon='150.39506841389'>
    <tag k='addr:housenumber' v='90' />
    <tag k='addr:street' v='Meryla Road' />
  </node>
  <node id='-466221' visible='true' lat='-34.59590663329' lon='150.40504505867'>
    <tag k='addr:housenumber' v='221' />
    <tag k='addr:street' v='Meryla Road' />
  </node>
</osm>
