<?xml version='1.0' encoding='UTF-8'?>
<osm version='0.6' generator='JOSM'>
  <node id='-467652' visible='true' lat='-34.41950253223' lon='150.32639926761'>
    <tag k='addr:housenumber' v='304' />
    <tag k='addr:street' v='Joadja Road' />
  </node>
  <node id='-467654' visible='true' lat='-34.44562381272' lon='150.26936643105'>
    <tag k='addr:housenumber' v='157' />
    <tag k='addr:street' v='Richards Lane' />
  </node>
  <node id='-467656' visible='true' lat='-34.41836073261' lon='150.32306682696'>
    <tag k='addr:housenumber' v='302' />
    <tag k='addr:street' v='Joadja Road' />
  </node>
  <node id='-467658' visible='true' lat='-34.42959042259' lon='150.29613382581'>
    <tag k='addr:housenumber' v='565' />
    <tag k='addr:street' v='Joadja Road' />
  </node>
  <node id='-467660' visible='true' lat='-34.42804415918' lon='150.28121908124'>
    <tag k='addr:housenumber' v='659' />
    <tag k='addr:street' v='Joadja Road' />
  </node>
  <node id='-467662' visible='true' lat='-34.43184995084' lon='150.31116051515'>
    <tag k='addr:housenumber' v='421' />
    <tag k='addr:street' v='Joadja Road' />
  </node>
  <node id='-467664' visible='true' lat='-34.42083575435' lon='150.32398421231'>
    <tag k='addr:housenumber' v='300' />
    <tag k='addr:street' v='Joadja Road' />
  </node>
  <node id='-467666' visible='true' lat='-34.43019264376' lon='150.32782449562'>
    <tag k='addr:housenumber' v='251' />
    <tag k='addr:street' v='Joadja Road' />
  </node>
  <node id='-467668' visible='true' lat='-34.43313179825' lon='150.27767079894'>
    <tag k='addr:housenumber' v='691' />
    <tag k='addr:street' v='Joadja Road' />
  </node>
  <node id='-467670' visible='true' lat='-34.42099540673' lon='150.31728699778'>
    <tag k='addr:housenumber' v='310' />
    <tag k='addr:street' v='Joadja Road' />
  </node>
  <node id='-467672' visible='true' lat='-34.42403978599' lon='150.28373661851'>
    <tag k='addr:housenumber' v='654' />
    <tag k='addr:street' v='Joadja Road' />
  </node>
  <node id='-467674' visible='true' lat='-34.42444232659' lon='150.3267028092'>
    <tag k='addr:housenumber' v='250' />
    <tag k='addr:street' v='Joadja Road' />
  </node>
  <node id='-467676' visible='true' lat='-34.43162399929' lon='150.31722658634'>
    <tag k='addr:housenumber' v='371' />
    <tag k='addr:street' v='Joadja Road' />
  </node>
  <node id='-467678' visible='true' lat='-34.42642711016' lon='150.2871364725'>
    <tag k='addr:housenumber' v='650' />
    <tag k='addr:street' v='Joadja Road' />
  </node>
  <node id='-467680' visible='true' lat='-34.43335503972' lon='150.27257655735'>
    <tag k='addr:housenumber' v='693' />
    <tag k='addr:street' v='Joadja Road' />
  </node>
  <node id='-467682' visible='true' lat='-34.43163698509' lon='150.33004320339'>
    <tag k='addr:housenumber' v='209' />
    <tag k='addr:street' v='Joadja Road' />
  </node>
  <node id='-467684' visible='true' lat='-34.4252028763' lon='150.33260200015'>
    <tag k='addr:housenumber' v='202' />
    <tag k='addr:street' v='Joadja Road' />
  </node>
  <node id='-467686' visible='true' lat='-34.42601215786' lon='150.33833857997'>
    <tag k='addr:housenumber' v='154' />
    <tag k='addr:street' v='Joadja Road' />
  </node>
  <node id='-467688' visible='true' lat='-34.4289979022' lon='150.31943218331'>
    <tag k='addr:housenumber' v='323' />
    <tag k='addr:street' v='Joadja Road' />
  </node>
  <node id='-467690' visible='true' lat='-34.42915902807' lon='150.31398991643'>
    <tag k='addr:housenumber' v='410' />
    <tag k='addr:street' v='Joadja Road' />
  </node>
  <node id='-467692' visible='true' lat='-34.43663843618' lon='150.27959804889'>
    <tag k='addr:housenumber' v='655' />
    <tag k='addr:street' v='Joadja Road' />
  </node>
  <node id='-467694' visible='true' lat='-34.42782339074' lon='150.27200028818'>
    <tag k='addr:housenumber' v='705' />
    <tag k='addr:street' v='Joadja Road' />
  </node>
  <node id='-467696' visible='true' lat='-34.42867846996' lon='150.32400458745'>
    <tag k='addr:housenumber' v='273' />
    <tag k='addr:street' v='Joadja Road' />
  </node>
  <node id='-467698' visible='true' lat='-34.4272135618' lon='150.28852755999'>
    <tag k='addr:housenumber' v='646' />
    <tag k='addr:street' v='Joadja Road' />
  </node>
  <node id='-467700' visible='true' lat='-34.42655424982' lon='150.31532941579'>
    <tag k='addr:housenumber' v='350' />
    <tag k='addr:street' v='Joadja Road' />
  </node>
  <node id='-467702' visible='true' lat='-34.43711164374' lon='150.30593299654'>
    <tag k='addr:housenumber' v='477' />
    <tag k='addr:street' v='Joadja Road' />
  </node>
  <node id='-467704' visible='true' lat='-34.42726465645' lon='150.31164215799'>
    <tag k='addr:housenumber' v='420' />
    <tag k='addr:street' v='Joadja Road' />
  </node>
  <node id='-467706' visible='true' lat='-34.42255952793' lon='150.32124015'>
    <tag k='addr:housenumber' v='306' />
    <tag k='addr:street' v='Joadja Road' />
  </node>
  <node id='-467708' visible='true' lat='-34.42403642865' lon='150.32360494687'>
    <tag k='addr:housenumber' v='288' />
    <tag k='addr:street' v='Joadja Road' />
  </node>
  <node id='-467710' visible='true' lat='-34.42563328924' lon='150.33550423668'>
    <tag k='addr:housenumber' v='164' />
    <tag k='addr:street' v='Joadja Road' />
  </node>
  <node id='-467712' visible='true' lat='-34.42471318837' lon='150.3174783716'>
    <tag k='addr:housenumber' v='308' />
    <tag k='addr:street' v='Joadja Road' />
  </node>
  <node id='-467714' visible='true' lat='-34.43558159677' lon='150.3024907136'>
    <tag k='addr:housenumber' v='515' />
    <tag k='addr:street' v='Joadja Road' />
  </node>
  <node id='-467716' visible='true' lat='-34.4248127952' lon='150.32956234511'>
    <tag k='addr:housenumber' v='226' />
    <tag k='addr:street' v='Joadja Road' />
  </node>
  <node id='-467718' visible='true' lat='-34.43412396498' lon='150.29858889284'>
    <tag k='addr:housenumber' v='553' />
    <tag k='addr:street' v='Joadja Road' />
  </node>
  <node id='-467720' visible='true' lat='-34.43779127558' lon='150.30910380561'>
    <tag k='addr:housenumber' v='425' />
    <tag k='addr:street' v='Joadja Road' />
  </node>
  <node id='-467722' visible='true' lat='-34.42743433073' lon='150.2934612319'>
    <tag k='addr:housenumber' v='600' />
    <tag k='addr:street' v='Joadja Road' />
  </node>
  <node id='-467724' visible='true' lat='-34.4261701657' lon='150.29359008169'>
    <tag k='addr:housenumber' v='554' />
    <tag k='addr:street' v='Joadja Road' />
  </node>
  <node id='-467726' visible='true' lat='-34.42532267649' lon='150.30566841135'>
    <tag k='addr:housenumber' v='540' />
    <tag k='addr:street' v='Joadja Road' />
  </node>
  <node id='-467728' visible='true' lat='-34.44922482302' lon='150.28277169419'>
    <tag k='addr:housenumber' v='270' />
    <tag k='addr:street' v='Mandemar Lane' />
  </node>
  <node id='-467730' visible='true' lat='-34.43020326536' lon='150.28694321495'>
    <tag k='addr:housenumber' v='24' />
    <tag k='addr:street' v='Mandemar Lane' />
  </node>
  <node id='-467732' visible='true' lat='-34.44372525953' lon='150.28948409225'>
    <tag k='addr:housenumber' v='172' />
    <tag k='addr:street' v='Mandemar Lane' />
  </node>
  <node id='-467734' visible='true' lat='-34.45098277784' lon='150.27367630753'>
    <tag k='addr:housenumber' v='300' />
    <tag k='addr:street' v='Mandemar Lane' />
  </node>
  <node id='-467736' visible='true' lat='-34.44315047353' lon='150.28080265859'>
    <tag k='addr:housenumber' v='186' />
    <tag k='addr:street' v='Mandemar Lane' />
  </node>
  <node id='-467738' visible='true' lat='-34.43328645818' lon='150.29082228374'>
    <tag k='addr:housenumber' v='38' />
    <tag k='addr:street' v='Mandemar Lane' />
  </node>
  <node id='-467740' visible='true' lat='-34.45459457093' lon='150.27398067551'>
    <tag k='addr:housenumber' v='330' />
    <tag k='addr:street' v='Mandemar Lane' />
  </node>
  <node id='-467742' visible='true' lat='-34.44597141088' lon='150.29945278482'>
    <tag k='addr:housenumber' v='131' />
    <tag k='addr:street' v='Mandemar Lane' />
  </node>
  <node id='-467744' visible='true' lat='-34.43526581491' lon='150.294520228'>
    <tag k='addr:housenumber' v='35' />
    <tag k='addr:street' v='Mandemar Lane' />
  </node>
  <node id='-467746' visible='true' lat='-34.43717414119' lon='150.28865547819'>
    <tag k='addr:housenumber' v='36' />
    <tag k='addr:street' v='Mandemar Lane' />
  </node>
</osm>
