<?xml version='1.0' encoding='UTF-8'?>
<osm version='0.6' generator='JOSM'>
  <node id='-477608' visible='true' lat='-34.49306133235' lon='150.2813403583'>
    <tag k='addr:housenumber' v='381' />
    <tag k='addr:street' v='Medway Road' />
  </node>
  <node id='-477612' visible='true' lat='-34.48509125549' lon='150.28518849364'>
    <tag k='addr:housenumber' v='106' />
    <tag k='addr:street' v='Liebman Road' />
  </node>
  <node id='-477614' visible='true' lat='-34.49053002007' lon='150.29328322246'>
    <tag k='addr:housenumber' v='66' />
    <tag k='addr:street' v='Liebman Road' />
  </node>
  <node id='-477616' visible='true' lat='-34.49622171073' lon='150.28432554258'>
    <tag k='addr:housenumber' v='339' />
    <tag k='addr:street' v='Medway Road' />
  </node>
  <node id='-477618' visible='true' lat='-34.48895090311' lon='150.28440713707'>
    <tag k='addr:housenumber' v='65' />
    <tag k='addr:street' v='Liebman Road' />
  </node>
  <node id='-477624' visible='true' lat='-34.49400598191' lon='150.29154752523'>
    <tag k='addr:housenumber' v='298' />
    <tag k='addr:street' v='Medway Road' />
  </node>
  <node id='-477626' visible='true' lat='-34.48005541551' lon='150.2885607211'>
    <tag k='addr:housenumber' v='76' />
    <tag k='addr:street' v='Liebman Road' />
  </node>
  <node id='-477628' visible='true' lat='-34.48464380886' lon='150.27980501003'>
    <tag k='addr:housenumber' v='140' />
    <tag k='addr:street' v='Liebman Road' />
  </node>
  <node id='-477632' visible='true' lat='-34.49456352267' lon='150.28731903046'>
    <tag k='addr:housenumber' v='317' />
    <tag k='addr:street' v='Medway Road' />
  </node>
  <node id='-477634' visible='true' lat='-34.48616452111' lon='150.29698479488'>
    <tag k='addr:housenumber' v='72' />
    <tag k='addr:street' v='Medway Road' />
  </node>
  <node id='-477640' visible='true' lat='-34.47507225704' lon='150.28409147044'>
    <tag k='addr:housenumber' v='78' />
    <tag k='addr:street' v='Liebman Road' />
  </node>
  <node id='-477642' visible='true' lat='-34.47662293305' lon='150.31655528755'>
    <tag k='addr:housenumber' v='200' />
    <tag k='addr:street' v='Hume Motorway' />
  </node>
  <node id='-477650' visible='true' lat='-34.49320629099' lon='150.30607123317'>
    <tag k='addr:housenumber' v='158' />
    <tag k='addr:street' v='Medway Road' />
  </node>
  <node id='-477660' visible='true' lat='-34.49453671181' lon='150.3097716488'>
    <tag k='addr:housenumber' v='124' />
    <tag k='addr:street' v='Medway Road' />
  </node>
  <node id='-477662' visible='true' lat='-34.49628820327' lon='150.28862982816'>
    <tag k='addr:housenumber' v='299' />
    <tag k='addr:street' v='Medway Road' />
  </node>
  <node id='-477664' visible='true' lat='-34.49870919505' lon='150.27539429426'>
    <tag k='addr:housenumber' v='423' />
    <tag k='addr:street' v='Medway Road' />
  </node>
  <node id='-477666' visible='true' lat='-34.49746386632' lon='150.26964276484'>
    <tag k='addr:housenumber' v='425' />
    <tag k='addr:street' v='Medway Road' />
  </node>
  <node id='-477668' visible='true' lat='-34.48194945062' lon='150.28246785303'>
    <tag k='addr:housenumber' v='136' />
    <tag k='addr:street' v='Liebman Road' />
  </node>
  <node id='-477670' visible='true' lat='-34.49234196137' lon='150.28680011135'>
    <tag k='addr:housenumber' v='334' />
    <tag k='addr:street' v='Medway Road' />
  </node>
  <node id='-477674' visible='true' lat='-34.48945746801' lon='150.27060152388'>
    <tag k='addr:housenumber' v='486' />
    <tag k='addr:street' v='Medway Road' />
  </node>
  <node id='-477676' visible='true' lat='-34.49354864865' lon='150.27750796824'>
    <tag k='addr:housenumber' v='421' />
    <tag k='addr:street' v='Medway Road' />
  </node>
  <node id='-477682' visible='true' lat='-34.49108558878' lon='150.2800772097'>
    <tag k='addr:housenumber' v='376' />
    <tag k='addr:street' v='Medway Road' />
  </node>
  <node id='-477684' visible='true' lat='-34.49129358398' lon='150.27183535488'>
    <tag k='addr:housenumber' v='465' />
    <tag k='addr:street' v='Medway Road' />
  </node>
  <node id='-477696' visible='true' lat='-34.48550936874' lon='150.29092582747'>
    <tag k='addr:housenumber' v='100' />
    <tag k='addr:street' v='Liebman Road' />
  </node>
  <node id='-477698' visible='true' lat='-34.49754947804' lon='150.30948674634'>
    <tag k='addr:housenumber' v='123' />
    <tag k='addr:street' v='Medway Road' />
  </node>
  <node id='-477704' action='modify' visible='true' lat='-34.48986907902' lon='150.26814632934'>
    <tag k='addr:housenumber' v='506' />
    <tag k='addr:street' v='Medway Road' />
  </node>
  <node id='-477706' action='modify' visible='true' lat='-34.48975577829' lon='150.26882957109'>
    <tag k='addr:housenumber' v='500' />
    <tag k='addr:street' v='Medway Road' />
  </node>
  <node id='-477710' visible='true' lat='-34.49034446851' lon='150.27296593474'>
    <tag k='addr:housenumber' v='462' />
    <tag k='addr:street' v='Medway Road' />
  </node>
  <node id='-477712' visible='true' lat='-34.48922021473' lon='150.27090039445'>
    <tag k='addr:housenumber' v='32' />
    <tag k='addr:street' v='Railway Parade' />
  </node>
  <node id='-477714' visible='true' lat='-34.48926007446' lon='150.27111621974'>
    <tag k='addr:housenumber' v='34' />
    <tag k='addr:street' v='Railway Parade' />
  </node>
  <node id='-477716' visible='true' lat='-34.49204597493' lon='150.25558278255'>
    <tag k='addr:housenumber' v='526' />
    <tag k='addr:street' v='Medway Road' />
  </node>
  <node id='-477720' visible='true' lat='-34.47987015952' lon='150.2998416802'>
    <tag k='addr:housenumber' v='74' />
    <tag k='addr:street' v='Liebman Road' />
  </node>
  <node id='-477722' visible='true' lat='-34.49824427531' lon='150.28041141196'>
    <tag k='addr:housenumber' v='393' />
    <tag k='addr:street' v='Medway Road' />
  </node>
  <node id='-477724' visible='true' lat='-34.48978190073' lon='150.27214399704'>
    <tag k='addr:housenumber' v='3' />
    <tag k='addr:street' v='Carrada Street' />
  </node>
  <node id='-477726' visible='true' lat='-34.49228321739' lon='150.29962873145'>
    <tag k='addr:housenumber' v='230' />
    <tag k='addr:street' v='Medway Road' />
  </node>
  <node id='2699788001' action='modify' timestamp='2014-03-03T12:05:33Z' uid='1211556' user='huonw' visible='true' version='1' changeset='20886818' lat='-34.4886983' lon='150.2696972' />
  <node id='2699788003' action='modify' timestamp='2014-03-03T12:05:33Z' uid='1211556' user='huonw' visible='true' version='1' changeset='20886818' lat='-34.4887139' lon='150.2689046' />
  <node id='2699788004' action='modify' timestamp='2014-03-03T12:05:33Z' uid='1211556' user='huonw' visible='true' version='1' changeset='20886818' lat='-34.4887288' lon='150.2695432' />
  <node id='2699788005' action='modify' timestamp='2014-03-03T12:05:33Z' uid='1211556' user='huonw' visible='true' version='1' changeset='20886818' lat='-34.4887292' lon='150.268838' />
  <node id='2699788006' action='modify' timestamp='2014-03-03T12:05:33Z' uid='1211556' user='huonw' visible='true' version='1' changeset='20886818' lat='-34.4887473' lon='150.2688441' />
  <node id='2699788007' action='modify' timestamp='2014-03-03T12:05:33Z' uid='1211556' user='huonw' visible='true' version='1' changeset='20886818' lat='-34.4887624' lon='150.2687782' />
  <node id='2699788008' action='modify' timestamp='2014-03-03T12:05:33Z' uid='1211556' user='huonw' visible='true' version='1' changeset='20886818' lat='-34.4887763' lon='150.2686434' />
  <node id='2699788009' action='modify' timestamp='2014-03-03T12:05:33Z' uid='1211556' user='huonw' visible='true' version='1' changeset='20886818' lat='-34.4888046' lon='150.2694236' />
  <node id='2699788010' action='modify' timestamp='2014-03-03T12:05:33Z' uid='1211556' user='huonw' visible='true' version='1' changeset='20886818' lat='-34.4888074' lon='150.2685219' />
  <node id='2699788012' action='modify' timestamp='2014-03-03T12:05:33Z' uid='1211556' user='huonw' visible='true' version='1' changeset='20886818' lat='-34.4888189' lon='150.2693626' />
  <node id='2699788013' action='modify' timestamp='2014-03-03T12:05:33Z' uid='1211556' user='huonw' visible='true' version='1' changeset='20886818' lat='-34.4888208' lon='150.2686601' />
  <node id='2699788014' action='modify' timestamp='2014-03-03T12:05:33Z' uid='1211556' user='huonw' visible='true' version='1' changeset='20886818' lat='-34.4888294' lon='150.2686269' />
  <node id='2699788015' action='modify' timestamp='2014-03-03T12:05:33Z' uid='1211556' user='huonw' visible='true' version='1' changeset='20886818' lat='-34.4888361' lon='150.268406' />
  <node id='2699788016' action='modify' timestamp='2014-03-03T12:05:33Z' uid='1211556' user='huonw' visible='true' version='1' changeset='20886818' lat='-34.4888437' lon='150.2693712' />
  <node id='2699788017' action='modify' timestamp='2014-03-03T12:05:33Z' uid='1211556' user='huonw' visible='true' version='1' changeset='20886818' lat='-34.4888659' lon='150.2692773' />
  <node id='2699788018' action='modify' timestamp='2014-03-03T12:05:33Z' uid='1211556' user='huonw' visible='true' version='1' changeset='20886818' lat='-34.4888663' lon='150.2696802' />
  <node id='2699788020' action='modify' timestamp='2014-03-03T12:05:33Z' uid='1211556' user='huonw' visible='true' version='1' changeset='20886818' lat='-34.4888831' lon='150.2682866' />
  <node id='2699788021' action='modify' timestamp='2014-03-03T12:05:33Z' uid='1211556' user='huonw' visible='true' version='1' changeset='20886818' lat='-34.4888845' lon='150.2695886' />
  <node id='2699788023' action='modify' timestamp='2014-03-03T12:05:33Z' uid='1211556' user='huonw' visible='true' version='1' changeset='20886818' lat='-34.4889055' lon='150.2689695' />
  <node id='2699788025' action='modify' timestamp='2014-03-03T12:05:33Z' uid='1211556' user='huonw' visible='true' version='1' changeset='20886818' lat='-34.4889111' lon='150.2697592' />
  <node id='2699788026' action='modify' timestamp='2014-03-03T12:05:33Z' uid='1211556' user='huonw' visible='true' version='1' changeset='20886818' lat='-34.4889235' lon='150.2696969' />
  <node id='2699788032' action='modify' timestamp='2014-03-03T12:05:33Z' uid='1211556' user='huonw' visible='true' version='1' changeset='20886818' lat='-34.488936' lon='150.2688369' />
  <node id='2699788034' action='modify' timestamp='2014-03-03T12:05:33Z' uid='1211556' user='huonw' visible='true' version='1' changeset='20886818' lat='-34.4889366' lon='150.2686673' />
  <node id='2699788036' action='modify' timestamp='2014-03-03T12:05:33Z' uid='1211556' user='huonw' visible='true' version='1' changeset='20886818' lat='-34.4889592' lon='150.2685792' />
  <node id='2699788038' action='modify' timestamp='2014-03-03T12:05:33Z' uid='1211556' user='huonw' visible='true' version='1' changeset='20886818' lat='-34.4889842' lon='150.2684918' />
  <node id='2699788041' action='modify' timestamp='2014-03-03T12:05:33Z' uid='1211556' user='huonw' visible='true' version='1' changeset='20886818' lat='-34.4889899' lon='150.2694878' />
  <node id='2699788043' action='modify' timestamp='2014-03-03T12:05:33Z' uid='1211556' user='huonw' visible='true' version='1' changeset='20886818' lat='-34.4889905' lon='150.2693748' />
  <node id='2699788045' action='modify' timestamp='2014-03-03T12:05:33Z' uid='1211556' user='huonw' visible='true' version='1' changeset='20886818' lat='-34.4890023' lon='150.2693246' />
  <node id='2699788046' action='modify' timestamp='2014-03-03T12:05:34Z' uid='1211556' user='huonw' visible='true' version='1' changeset='20886818' lat='-34.4890056' lon='150.268387' />
  <node id='2699788048' action='modify' timestamp='2014-03-03T12:05:34Z' uid='1211556' user='huonw' visible='true' version='1' changeset='20886818' lat='-34.4890145' lon='150.2693832' />
  <node id='2699788050' action='modify' timestamp='2014-03-03T12:05:34Z' uid='1211556' user='huonw' visible='true' version='1' changeset='20886818' lat='-34.489015' lon='150.268363' />
  <node id='2699788054' action='modify' timestamp='2018-04-01T13:28:30Z' uid='1434393' user='k_au' visible='true' version='2' changeset='57712358' lat='-34.4890187' lon='150.2682794' />
  <node id='2699788056' action='modify' timestamp='2014-03-03T12:05:34Z' uid='1211556' user='huonw' visible='true' version='1' changeset='20886818' lat='-34.4890217' lon='150.2683964' />
  <node id='2699788058' action='modify' timestamp='2018-04-01T13:28:30Z' uid='1434393' user='k_au' visible='true' version='2' changeset='57712358' lat='-34.4890224' lon='150.2680036' />
  <node id='2699788060' action='modify' timestamp='2018-04-01T13:28:30Z' uid='1434393' user='k_au' visible='true' version='2' changeset='57712358' lat='-34.4890706' lon='150.2679039' />
  <node id='2699788061' action='modify' timestamp='2018-04-01T13:28:30Z' uid='1434393' user='k_au' visible='true' version='2' changeset='57712358' lat='-34.4890945' lon='150.2681248' />
  <node id='2699788063' action='modify' timestamp='2014-03-03T12:05:34Z' uid='1211556' user='huonw' visible='true' version='1' changeset='20886818' lat='-34.4891052' lon='150.2715703' />
  <node id='2699788065' action='modify' timestamp='2018-04-01T13:28:30Z' uid='1434393' user='k_au' visible='true' version='2' changeset='57712358' lat='-34.489112' lon='150.2680674' />
  <node id='2699788070' action='modify' timestamp='2018-04-01T13:28:30Z' uid='1434393' user='k_au' visible='true' version='2' changeset='57712358' lat='-34.489132' lon='150.268026' />
  <node id='2699788071' action='modify' timestamp='2014-03-03T12:05:34Z' uid='1211556' user='huonw' visible='true' version='1' changeset='20886818' lat='-34.489132' lon='150.2717117' />
  <node id='2699788074' action='modify' timestamp='2018-04-01T13:28:30Z' uid='1434393' user='k_au' visible='true' version='2' changeset='57712358' lat='-34.4891526' lon='150.2679986' />
  <node id='2699788076' action='modify' timestamp='2018-04-01T13:28:30Z' uid='1434393' user='k_au' visible='true' version='2' changeset='57712358' lat='-34.4891575' lon='150.2680442' />
  <node id='2699788078' action='modify' timestamp='2018-04-01T13:28:30Z' uid='1434393' user='k_au' visible='true' version='2' changeset='57712358' lat='-34.4891657' lon='150.2679715' />
  <node id='2699788079' action='modify' timestamp='2018-04-01T13:28:30Z' uid='1434393' user='k_au' visible='true' version='2' changeset='57712358' lat='-34.489169' lon='150.2683879' />
  <node id='2699788080' action='modify' timestamp='2014-03-03T12:05:34Z' uid='1211556' user='huonw' visible='true' version='1' changeset='20886818' lat='-34.4891712' lon='150.2715518' />
  <node id='2699788081' action='modify' timestamp='2018-04-01T13:28:30Z' uid='1434393' user='k_au' visible='true' version='2' changeset='57712358' lat='-34.4891726' lon='150.2680129' />
  <node id='2699788083' action='modify' timestamp='2014-03-03T12:05:34Z' uid='1211556' user='huonw' visible='true' version='1' changeset='20886818' lat='-34.4891767' lon='150.2715805' />
  <node id='2699788103' action='modify' timestamp='2018-04-01T13:28:30Z' uid='1434393' user='k_au' visible='true' version='2' changeset='57712358' lat='-34.4892448' lon='150.2682333' />
  <node id='2699788104' action='modify' timestamp='2014-03-03T12:05:35Z' uid='1211556' user='huonw' visible='true' version='1' changeset='20886818' lat='-34.489249' lon='150.2676553' />
  <node id='2699788111' action='modify' timestamp='2014-03-03T12:05:35Z' uid='1211556' user='huonw' visible='true' version='1' changeset='20886818' lat='-34.4892835' lon='150.2715507' />
  <node id='2699788112' action='modify' timestamp='2014-03-03T12:05:35Z' uid='1211556' user='huonw' visible='true' version='1' changeset='20886818' lat='-34.4892982' lon='150.2675661' />
  <node id='2699788115' action='modify' timestamp='2014-03-03T12:05:35Z' uid='1211556' user='huonw' visible='true' version='1' changeset='20886818' lat='-34.4893049' lon='150.2716634' />
  <node id='2699788116' action='modify' timestamp='2014-03-03T12:05:35Z' uid='1211556' user='huonw' visible='true' version='1' changeset='20886818' lat='-34.4893233' lon='150.2677156' />
  <node id='2699788117' action='modify' timestamp='2014-03-03T12:05:35Z' uid='1211556' user='huonw' visible='true' version='1' changeset='20886818' lat='-34.4893318' lon='150.2677003' />
  <node id='2699788119' action='modify' timestamp='2014-03-03T12:05:35Z' uid='1211556' user='huonw' visible='true' version='1' changeset='20886818' lat='-34.4893473' lon='150.2677129' />
  <node id='2699788126' action='modify' timestamp='2014-03-03T12:05:35Z' uid='1211556' user='huonw' visible='true' version='1' changeset='20886818' lat='-34.4893881' lon='150.267639' />
  <node id='2699788134' action='modify' timestamp='2018-04-01T13:28:30Z' uid='1434393' user='k_au' visible='true' version='2' changeset='57712358' lat='-34.4894239' lon='150.2675699' />
  <node id='2699788142' action='modify' timestamp='2014-03-03T12:05:35Z' uid='1211556' user='huonw' visible='true' version='1' changeset='20886818' lat='-34.489445' lon='150.2673292' />
  <node id='2699788149' action='modify' timestamp='2018-04-01T13:28:30Z' uid='1434393' user='k_au' visible='true' version='2' changeset='57712358' lat='-34.489491' lon='150.2676166' />
  <node id='2699788150' action='modify' timestamp='2018-04-01T13:28:29Z' uid='1434393' user='k_au' visible='true' version='2' changeset='57712358' lat='-34.4894947' lon='150.2674201' />
  <node id='2699788151' action='modify' timestamp='2014-03-03T12:05:35Z' uid='1211556' user='huonw' visible='true' version='1' changeset='20886818' lat='-34.4895' lon='150.2672115' />
  <node id='2699788161' action='modify' timestamp='2018-04-01T13:28:30Z' uid='1434393' user='k_au' visible='true' version='2' changeset='57712358' lat='-34.4895619' lon='150.2674669' />
  <node id='2699788163' action='modify' timestamp='2014-03-03T12:05:36Z' uid='1211556' user='huonw' visible='true' version='1' changeset='20886818' lat='-34.4896011' lon='150.2673112' />
  <node id='2699788164' action='modify' timestamp='2014-03-03T12:05:36Z' uid='1211556' user='huonw' visible='true' version='1' changeset='20886818' lat='-34.4896118' lon='150.2672884' />
  <node id='2699788165' action='modify' timestamp='2014-03-03T12:05:36Z' uid='1211556' user='huonw' visible='true' version='1' changeset='20886818' lat='-34.4896145' lon='150.270728' />
  <node id='2699788167' action='modify' timestamp='2014-03-03T12:05:36Z' uid='1211556' user='huonw' visible='true' version='1' changeset='20886818' lat='-34.4896208' lon='150.2674502' />
  <node id='2699788168' action='modify' timestamp='2014-03-03T12:05:36Z' uid='1211556' user='huonw' visible='true' version='1' changeset='20886818' lat='-34.4896212' lon='150.2707886' />
  <node id='2699788170' action='modify' timestamp='2014-03-03T12:05:36Z' uid='1211556' user='huonw' visible='true' version='1' changeset='20886818' lat='-34.4896652' lon='150.2673553' />
  <node id='2699788171' action='modify' timestamp='2014-03-03T12:05:36Z' uid='1211556' user='huonw' visible='true' version='1' changeset='20886818' lat='-34.4896671' lon='150.2707195' />
  <node id='2699788173' action='modify' timestamp='2014-03-03T12:05:36Z' uid='1211556' user='huonw' visible='true' version='1' changeset='20886818' lat='-34.4896737' lon='150.27078' />
  <node id='2699788178' action='modify' timestamp='2018-04-01T13:28:29Z' uid='1434393' user='k_au' visible='true' version='2' changeset='57712358' lat='-34.4896924' lon='150.2673875' />
  <node id='2699788180' action='modify' timestamp='2014-03-03T12:05:36Z' uid='1211556' user='huonw' visible='true' version='1' changeset='20886818' lat='-34.4897032' lon='150.2703734' />
  <node id='2699788182' action='modify' timestamp='2014-03-03T12:05:36Z' uid='1211556' user='huonw' visible='true' version='1' changeset='20886818' lat='-34.4897235' lon='150.2684497' />
  <node id='2699788183' action='modify' timestamp='2014-03-03T12:05:36Z' uid='1211556' user='huonw' visible='true' version='1' changeset='20886818' lat='-34.489729' lon='150.270502' />
  <node id='2699788185' action='modify' timestamp='2014-03-03T12:05:36Z' uid='1211556' user='huonw' visible='true' version='1' changeset='20886818' lat='-34.4897357' lon='150.2700135' />
  <node id='2699788188' action='modify' timestamp='2014-03-03T12:05:36Z' uid='1211556' user='huonw' visible='true' version='1' changeset='20886818' lat='-34.4897466' lon='150.2683123' />
  <node id='2699788191' action='modify' timestamp='2014-03-03T12:05:36Z' uid='1211556' user='huonw' visible='true' version='1' changeset='20886818' lat='-34.4897577' lon='150.2698562' />
  <node id='2699788194' action='modify' timestamp='2014-03-03T12:05:36Z' uid='1211556' user='huonw' visible='true' version='1' changeset='20886818' lat='-34.489784' lon='150.2697889' />
  <node id='2699788195' action='modify' timestamp='2018-04-01T13:28:29Z' uid='1434393' user='k_au' visible='true' version='2' changeset='57712358' lat='-34.4897861' lon='150.2672394' />
  <node id='2699788197' action='modify' timestamp='2014-03-03T12:05:37Z' uid='1211556' user='huonw' visible='true' version='1' changeset='20886818' lat='-34.4897886' lon='150.2696964' />
  <node id='2699788198' action='modify' timestamp='2014-03-03T12:05:37Z' uid='1211556' user='huonw' visible='true' version='1' changeset='20886818' lat='-34.4897887' lon='150.2703482' />
  <node id='2699788200' action='modify' timestamp='2014-03-03T12:05:37Z' uid='1211556' user='huonw' visible='true' version='1' changeset='20886818' lat='-34.4898005' lon='150.2710671' />
  <node id='2699788203' action='modify' timestamp='2014-03-03T12:05:37Z' uid='1211556' user='huonw' visible='true' version='1' changeset='20886818' lat='-34.4898045' lon='150.2683538' />
  <node id='2699788204' action='modify' timestamp='2014-03-03T12:05:37Z' uid='1211556' user='huonw' visible='true' version='1' changeset='20886818' lat='-34.4898065' lon='150.2692389' />
  <node id='2699788205' action='modify' timestamp='2014-03-03T12:05:37Z' uid='1211556' user='huonw' visible='true' version='1' changeset='20886818' lat='-34.4898088' lon='150.2683277' />
  <node id='2699788206' action='modify' timestamp='2014-03-03T12:05:37Z' uid='1211556' user='huonw' visible='true' version='1' changeset='20886818' lat='-34.4898112' lon='150.2691795' />
  <node id='2699788207' action='modify' timestamp='2014-03-03T12:05:37Z' uid='1211556' user='huonw' visible='true' version='1' changeset='20886818' lat='-34.4898145' lon='150.2704768' />
  <node id='2699788208' action='modify' timestamp='2014-03-03T12:05:37Z' uid='1211556' user='huonw' visible='true' version='1' changeset='20886818' lat='-34.4898197' lon='150.2693721' />
  <node id='2699788210' action='modify' timestamp='2018-04-01T13:28:29Z' uid='1434393' user='k_au' visible='true' version='2' changeset='57712358' lat='-34.4898232' lon='150.2673053' />
  <node id='2699788211' action='modify' timestamp='2014-03-03T12:05:37Z' uid='1211556' user='huonw' visible='true' version='1' changeset='20886818' lat='-34.4898232' lon='150.269328' />
  <node id='2699788212' action='modify' timestamp='2014-03-03T12:05:37Z' uid='1211556' user='huonw' visible='true' version='1' changeset='20886818' lat='-34.4898261' lon='150.2691206' />
  <node id='2699788213' action='modify' timestamp='2014-03-03T12:05:37Z' uid='1211556' user='huonw' visible='true' version='1' changeset='20886818' lat='-34.4898282' lon='150.2712245' />
  <node id='2699788214' action='modify' timestamp='2014-03-03T12:05:37Z' uid='1211556' user='huonw' visible='true' version='1' changeset='20886818' lat='-34.4898309' lon='150.269015' />
  <node id='2699788215' action='modify' timestamp='2018-04-01T13:28:29Z' uid='1434393' user='k_au' visible='true' version='2' changeset='57712358' lat='-34.489831' lon='150.2675167' />
  <node id='2699788216' action='modify' timestamp='2018-04-01T13:28:29Z' uid='1434393' user='k_au' visible='true' version='2' changeset='57712358' lat='-34.4898357' lon='150.2672856' />
  <node id='2699788218' action='modify' timestamp='2014-03-03T12:05:37Z' uid='1211556' user='huonw' visible='true' version='1' changeset='20886818' lat='-34.4898377' lon='150.2713143' />
  <node id='2699788219' action='modify' timestamp='2014-03-03T12:05:37Z' uid='1211556' user='huonw' visible='true' version='1' changeset='20886818' lat='-34.4898389' lon='150.2677624' />
  <node id='2699788220' action='modify' timestamp='2014-03-03T12:05:37Z' uid='1211556' user='huonw' visible='true' version='1' changeset='20886818' lat='-34.4898409' lon='150.2700352' />
  <node id='2699788221' action='modify' timestamp='2014-03-03T12:05:37Z' uid='1211556' user='huonw' visible='true' version='1' changeset='20886818' lat='-34.4898425' lon='150.2686015' />
  <node id='2699788222' action='modify' timestamp='2014-03-03T12:05:37Z' uid='1211556' user='huonw' visible='true' version='1' changeset='20886818' lat='-34.4898492' lon='150.2699758' />
  <node id='2699788223' action='modify' timestamp='2014-03-03T12:05:37Z' uid='1211556' user='huonw' visible='true' version='1' changeset='20886818' lat='-34.4898494' lon='150.2685313' />
  <node id='2699788224' action='modify' timestamp='2014-03-03T12:05:37Z' uid='1211556' user='huonw' visible='true' version='1' changeset='20886818' lat='-34.4898532' lon='150.2683658' />
  <node id='2699788225' action='modify' timestamp='2014-03-03T12:05:37Z' uid='1211556' user='huonw' visible='true' version='1' changeset='20886818' lat='-34.4898533' lon='150.2693315' />
  <node id='2699788226' action='modify' timestamp='2014-03-03T12:05:37Z' uid='1211556' user='huonw' visible='true' version='1' changeset='20886818' lat='-34.4898578' lon='150.2683386' />
  <node id='2699788227' action='modify' timestamp='2014-03-03T12:05:37Z' uid='1211556' user='huonw' visible='true' version='1' changeset='20886818' lat='-34.4898601' lon='150.2692452' />
  <node id='2699788228' action='modify' timestamp='2014-03-03T12:05:37Z' uid='1211556' user='huonw' visible='true' version='1' changeset='20886818' lat='-34.4898615' lon='150.2692158' />
  <node id='2699788229' action='modify' timestamp='2014-03-03T12:05:37Z' uid='1211556' user='huonw' visible='true' version='1' changeset='20886818' lat='-34.4898638' lon='150.2691857' />
  <node id='2699788230' action='modify' timestamp='2014-03-03T12:05:37Z' uid='1211556' user='huonw' visible='true' version='1' changeset='20886818' lat='-34.4898667' lon='150.2714388' />
  <node id='2699788231' action='modify' timestamp='2014-03-03T12:05:37Z' uid='1211556' user='huonw' visible='true' version='1' changeset='20886818' lat='-34.4898792' lon='150.269982' />
  <node id='2699788232' action='modify' timestamp='2014-03-03T12:05:37Z' uid='1211556' user='huonw' visible='true' version='1' changeset='20886818' lat='-34.48988' lon='150.2686824' />
  <node id='2699788233' action='modify' timestamp='2014-03-03T12:05:37Z' uid='1211556' user='huonw' visible='true' version='1' changeset='20886818' lat='-34.4898827' lon='150.2697961' />
  <node id='2699788234' action='modify' timestamp='2014-03-03T12:05:37Z' uid='1211556' user='huonw' visible='true' version='1' changeset='20886818' lat='-34.4898861' lon='150.2692472' />
  <node id='2699788235' action='modify' timestamp='2014-03-03T12:05:37Z' uid='1211556' user='huonw' visible='true' version='1' changeset='20886818' lat='-34.4898873' lon='150.268608' />
  <node id='2699788236' action='modify' timestamp='2014-03-03T12:05:37Z' uid='1211556' user='huonw' visible='true' version='1' changeset='20886818' lat='-34.4898873' lon='150.2697037' />
  <node id='2699788237' action='modify' timestamp='2014-03-03T12:05:37Z' uid='1211556' user='huonw' visible='true' version='1' changeset='20886818' lat='-34.4898884' lon='150.269219' />
  <node id='2699788238' action='modify' timestamp='2014-03-03T12:05:37Z' uid='1211556' user='huonw' visible='true' version='1' changeset='20886818' lat='-34.4898929' lon='150.2698841' />
  <node id='2699788239' action='modify' timestamp='2014-03-03T12:05:37Z' uid='1211556' user='huonw' visible='true' version='1' changeset='20886818' lat='-34.4898932' lon='150.2683473' />
  <node id='2699788240' action='modify' timestamp='2014-03-03T12:05:38Z' uid='1211556' user='huonw' visible='true' version='1' changeset='20886818' lat='-34.4898947' lon='150.2679379' />
  <node id='2699788241' action='modify' timestamp='2014-03-03T12:05:38Z' uid='1211556' user='huonw' visible='true' version='1' changeset='20886818' lat='-34.4898957' lon='150.269381' />
  <node id='2699788242' action='modify' timestamp='2014-03-03T12:05:38Z' uid='1211556' user='huonw' visible='true' version='1' changeset='20886818' lat='-34.4898976' lon='150.2683207' />
  <node id='2699788243' action='modify' timestamp='2014-03-03T12:05:38Z' uid='1211556' user='huonw' visible='true' version='1' changeset='20886818' lat='-34.4898985' lon='150.2693459' />
  <node id='2699788244' action='modify' timestamp='2014-03-03T12:05:38Z' uid='1211556' user='huonw' visible='true' version='1' changeset='20886818' lat='-34.4899006' lon='150.2708321' />
  <node id='2699788245' action='modify' timestamp='2014-03-03T12:05:38Z' uid='1211556' user='huonw' visible='true' version='1' changeset='20886818' lat='-34.4899095' lon='150.2685881' />
  <node id='2699788246' action='modify' timestamp='2018-04-01T13:28:29Z' uid='1434393' user='k_au' visible='true' version='2' changeset='57712358' lat='-34.4899123' lon='150.2673883' />
  <node id='2699788247' action='modify' timestamp='2014-03-03T12:05:38Z' uid='1211556' user='huonw' visible='true' version='1' changeset='20886818' lat='-34.4899141' lon='150.2685408' />
  <node id='2699788248' action='modify' timestamp='2014-03-03T12:05:38Z' uid='1211556' user='huonw' visible='true' version='1' changeset='20886818' lat='-34.4899238' lon='150.2709751' />
  <node id='2699788249' action='modify' timestamp='2014-03-03T12:05:38Z' uid='1211556' user='huonw' visible='true' version='1' changeset='20886818' lat='-34.4899264' lon='150.2677215' />
  <node id='2699788250' action='modify' timestamp='2014-03-03T12:05:38Z' uid='1211556' user='huonw' visible='true' version='1' changeset='20886818' lat='-34.4899329' lon='150.2685014' />
  <node id='2699788251' action='modify' timestamp='2014-03-03T12:05:38Z' uid='1211556' user='huonw' visible='true' version='1' changeset='20886818' lat='-34.4899407' lon='150.2691283' />
  <node id='2699788252' action='modify' timestamp='2014-03-03T12:05:38Z' uid='1211556' user='huonw' visible='true' version='1' changeset='20886818' lat='-34.4899446' lon='150.2712777' />
  <node id='2699788253' action='modify' timestamp='2014-03-03T12:05:38Z' uid='1211556' user='huonw' visible='true' version='1' changeset='20886818' lat='-34.4899455' lon='150.2690227' />
  <node id='2699788254' action='modify' timestamp='2014-03-03T12:05:38Z' uid='1211556' user='huonw' visible='true' version='1' changeset='20886818' lat='-34.4899464' lon='150.2684215' />
  <node id='2699788255' action='modify' timestamp='2014-03-03T12:05:38Z' uid='1211556' user='huonw' visible='true' version='1' changeset='20886818' lat='-34.4899581' lon='150.2684244' />
  <node id='2699788256' action='modify' timestamp='2014-03-03T12:05:38Z' uid='1211556' user='huonw' visible='true' version='1' changeset='20886818' lat='-34.4899621' lon='150.2678856' />
  <node id='2699788258' action='modify' timestamp='2014-03-03T12:05:38Z' uid='1211556' user='huonw' visible='true' version='1' changeset='20886818' lat='-34.4899625' lon='150.2693533' />
  <node id='2699788259' action='modify' timestamp='2014-03-03T12:05:38Z' uid='1211556' user='huonw' visible='true' version='1' changeset='20886818' lat='-34.4899651' lon='150.2710245' />
  <node id='2699788260' action='modify' timestamp='2014-03-03T12:05:38Z' uid='1211556' user='huonw' visible='true' version='1' changeset='20886818' lat='-34.4899678' lon='150.2679036' />
  <node id='2699788262' action='modify' timestamp='2014-03-03T12:05:38Z' uid='1211556' user='huonw' visible='true' version='1' changeset='20886818' lat='-34.4899701' lon='150.269257' />
  <node id='2699788263' action='modify' timestamp='2014-03-03T12:05:38Z' uid='1211556' user='huonw' visible='true' version='1' changeset='20886818' lat='-34.4899724' lon='150.2683392' />
  <node id='2699788264' action='modify' timestamp='2014-03-03T12:05:38Z' uid='1211556' user='huonw' visible='true' version='1' changeset='20886818' lat='-34.4899736' lon='150.2714022' />
  <node id='2699788265' action='modify' timestamp='2014-03-03T12:05:38Z' uid='1211556' user='huonw' visible='true' version='1' changeset='20886818' lat='-34.4899765' lon='150.2678789' />
  <node id='2699788267' action='modify' timestamp='2014-03-03T12:05:38Z' uid='1211556' user='huonw' visible='true' version='1' changeset='20886818' lat='-34.4899863' lon='150.2686979' />
  <node id='2699788268' action='modify' timestamp='2014-03-03T12:05:38Z' uid='1211556' user='huonw' visible='true' version='1' changeset='20886818' lat='-34.4899928' lon='150.271182' />
  <node id='2699788269' action='modify' timestamp='2014-03-03T12:05:38Z' uid='1211556' user='huonw' visible='true' version='1' changeset='20886818' lat='-34.4899959' lon='150.2686007' />
  <node id='2699788270' action='modify' timestamp='2014-03-03T12:05:38Z' uid='1211556' user='huonw' visible='true' version='1' changeset='20886818' lat='-34.4900379' lon='150.2707993' />
  <node id='2699788272' action='modify' timestamp='2014-03-03T12:05:38Z' uid='1211556' user='huonw' visible='true' version='1' changeset='20886818' lat='-34.4900611' lon='150.2709422' />
  <node id='2699788285' action='modify' timestamp='2014-03-03T12:05:38Z' uid='1211556' user='huonw' visible='true' version='1' changeset='20886818' lat='-34.4905048' lon='150.2761392' />
  <node id='2699788286' action='modify' timestamp='2014-03-03T12:05:39Z' uid='1211556' user='huonw' visible='true' version='1' changeset='20886818' lat='-34.4905191' lon='150.2762704' />
  <node id='2699788290' action='modify' timestamp='2014-03-03T12:05:39Z' uid='1211556' user='huonw' visible='true' version='1' changeset='20886818' lat='-34.4905818' lon='150.2760538' />
  <node id='2699788291' action='modify' timestamp='2014-03-03T12:05:39Z' uid='1211556' user='huonw' visible='true' version='1' changeset='20886818' lat='-34.4905896' lon='150.2761256' />
  <node id='2699788294' action='modify' timestamp='2014-03-03T12:05:39Z' uid='1211556' user='huonw' visible='true' version='1' changeset='20886818' lat='-34.4906638' lon='150.2760407' />
  <node id='2699788296' action='modify' timestamp='2014-03-03T12:05:39Z' uid='1211556' user='huonw' visible='true' version='1' changeset='20886818' lat='-34.4906859' lon='150.2762437' />
  <node id='2699788297' action='modify' timestamp='2018-04-01T13:28:29Z' uid='1434393' user='k_au' visible='true' version='2' changeset='57712358' lat='-34.4906869' lon='150.2711986' />
  <node id='2699788298' action='modify' timestamp='2018-04-01T13:28:29Z' uid='1434393' user='k_au' visible='true' version='2' changeset='57712358' lat='-34.4907077' lon='150.2713802' />
  <node id='2699788300' action='modify' timestamp='2018-04-01T13:28:29Z' uid='1434393' user='k_au' visible='true' version='2' changeset='57712358' lat='-34.4907294' lon='150.2706272' />
  <node id='2699788301' action='modify' timestamp='2018-04-01T13:28:29Z' uid='1434393' user='k_au' visible='true' version='2' changeset='57712358' lat='-34.4907771' lon='150.2708279' />
  <node id='2699788302' action='modify' timestamp='2018-04-01T13:28:29Z' uid='1434393' user='k_au' visible='true' version='2' changeset='57712358' lat='-34.4907944' lon='150.2708218' />
  <node id='2699788303' action='modify' timestamp='2018-04-01T13:28:29Z' uid='1434393' user='k_au' visible='true' version='2' changeset='57712358' lat='-34.490804' lon='150.2708621' />
  <node id='2699788306' action='modify' timestamp='2018-04-01T13:28:29Z' uid='1434393' user='k_au' visible='true' version='2' changeset='57712358' lat='-34.490822' lon='150.2713302' />
  <node id='2699788307' action='modify' timestamp='2018-04-01T13:28:29Z' uid='1434393' user='k_au' visible='true' version='2' changeset='57712358' lat='-34.4908254' lon='150.2713603' />
  <node id='2699788310' action='modify' timestamp='2018-04-01T13:28:29Z' uid='1434393' user='k_au' visible='true' version='2' changeset='57712358' lat='-34.4908661' lon='150.2712534' />
  <node id='2699788311' action='modify' timestamp='2018-04-01T13:28:29Z' uid='1434393' user='k_au' visible='true' version='2' changeset='57712358' lat='-34.4908735' lon='150.2705767' />
  <node id='2699788312' action='modify' timestamp='2018-04-01T13:28:29Z' uid='1434393' user='k_au' visible='true' version='2' changeset='57712358' lat='-34.4908739' lon='150.2713214' />
  <node id='2699788313' action='modify' timestamp='2018-04-01T13:28:29Z' uid='1434393' user='k_au' visible='true' version='2' changeset='57712358' lat='-34.4908833' lon='150.2711655' />
  <node id='2699788314' action='modify' timestamp='2018-04-01T13:28:29Z' uid='1434393' user='k_au' visible='true' version='2' changeset='57712358' lat='-34.4908928' lon='150.2712489' />
  <node id='2699788315' action='modify' timestamp='2018-04-01T13:28:29Z' uid='1434393' user='k_au' visible='true' version='2' changeset='57712358' lat='-34.4909308' lon='150.2708176' />
  <way id='264288440' action='modify' timestamp='2018-04-01T13:28:33Z' uid='1434393' user='k_au' visible='true' version='2' changeset='57712358'>
    <nd ref='2699788188' />
    <nd ref='2699788205' />
    <nd ref='2699788203' />
    <nd ref='2699788224' />
    <nd ref='2699788226' />
    <nd ref='2699788239' />
    <nd ref='2699788242' />
    <nd ref='2699788263' />
    <nd ref='2699788255' />
    <nd ref='2699788254' />
    <nd ref='2699788250' />
    <nd ref='2699788182' />
    <nd ref='2699788188' />
    <tag k='addr:city' v='Medway' />
    <tag k='addr:housenumber' v='504' />
    <tag k='addr:postcode' v='2577' />
    <tag k='addr:province' v='New South Wales' />
    <tag k='addr:street' v='Medway Road' />
    <tag k='building' v='house' />
    <tag k='source' v='Bing' />
  </way>
  <way id='264288442' action='modify' timestamp='2014-03-03T12:06:09Z' uid='1211556' user='huonw' visible='true' version='1' changeset='20886818'>
    <nd ref='2699788234' />
    <nd ref='2699788262' />
    <nd ref='2699788258' />
    <nd ref='2699788243' />
    <nd ref='2699788241' />
    <nd ref='2699788208' />
    <nd ref='2699788211' />
    <nd ref='2699788225' />
    <nd ref='2699788227' />
    <nd ref='2699788204' />
    <nd ref='2699788206' />
    <nd ref='2699788229' />
    <nd ref='2699788228' />
    <nd ref='2699788237' />
    <nd ref='2699788234' />
    <tag k='addr:housenumber' v='496' />
    <tag k='addr:street' v='Medway Road' />
    <tag k='building' v='house' />
    <tag k='source' v='Bing' />
  </way>
  <way id='264288446' action='modify' timestamp='2018-04-01T13:28:32Z' uid='1434393' user='k_au' visible='true' version='2' changeset='57712358'>
    <nd ref='2699788270' />
    <nd ref='2699788272' />
    <nd ref='2699788248' />
    <nd ref='2699788244' />
    <nd ref='2699788270' />
    <tag k='addr:city' v='Medway' />
    <tag k='addr:housenumber' v='482' />
    <tag k='addr:postcode' v='2577' />
    <tag k='addr:province' v='New South Wales' />
    <tag k='addr:street' v='Medway Road' />
    <tag k='building' v='house' />
    <tag k='source' v='Bing' />
  </way>
  <way id='264288452' action='modify' timestamp='2018-04-01T13:28:33Z' uid='1434393' user='k_au' visible='true' version='2' changeset='57712358'>
    <nd ref='2699788150' />
    <nd ref='2699788161' />
    <nd ref='2699788149' />
    <nd ref='2699788134' />
    <nd ref='2699788150' />
    <tag k='addr:city' v='Medway' />
    <tag k='addr:housenumber' v='4' />
    <tag k='addr:postcode' v='2577' />
    <tag k='addr:province' v='New South Wales' />
    <tag k='addr:street' v='Railway Parade' />
    <tag k='building' v='house' />
    <tag k='source' v='Bing' />
  </way>
  <way id='264288455' action='modify' timestamp='2014-03-03T12:06:10Z' uid='1211556' user='huonw' visible='true' version='1' changeset='20886818'>
    <nd ref='2699788214' />
    <nd ref='2699788253' />
    <nd ref='2699788251' />
    <nd ref='2699788212' />
    <nd ref='2699788214' />
    <tag k='addr:housenumber' v='498' />
    <tag k='addr:street' v='Medway Road' />
    <tag k='building' v='house' />
    <tag k='source' v='Bing' />
  </way>
  <way id='264288457' action='modify' timestamp='2014-03-03T12:06:10Z' uid='1211556' user='huonw' visible='true' version='1' changeset='20886818'>
    <nd ref='2699788180' />
    <nd ref='2699788198' />
    <nd ref='2699788207' />
    <nd ref='2699788183' />
    <nd ref='2699788180' />
    <tag k='addr:housenumber' v='488' />
    <tag k='addr:street' v='Medway Road' />
    <tag k='building' v='house' />
    <tag k='source' v='Bing' />
  </way>
  <way id='264288463' action='modify' timestamp='2018-04-01T13:28:32Z' uid='1434393' user='k_au' visible='true' version='2' changeset='57712358'>
    <nd ref='2699788218' />
    <nd ref='2699788230' />
    <nd ref='2699788264' />
    <nd ref='2699788252' />
    <nd ref='2699788218' />
    <tag k='addr:city' v='Medway' />
    <tag k='addr:housenumber' v='478' />
    <tag k='addr:postcode' v='2577' />
    <tag k='addr:province' v='New South Wales' />
    <tag k='addr:street' v='Medway Road' />
    <tag k='building' v='house' />
    <tag k='source' v='Bing' />
  </way>
  <way id='264288469' action='modify' timestamp='2014-03-03T12:06:10Z' uid='1211556' user='huonw' visible='true' version='1' changeset='20886818'>
    <nd ref='2699788197' />
    <nd ref='2699788236' />
    <nd ref='2699788233' />
    <nd ref='2699788194' />
    <nd ref='2699788197' />
    <tag k='addr:housenumber' v='494' />
    <tag k='addr:street' v='Medway Road' />
    <tag k='building' v='yes' />
    <tag k='source' v='Bing' />
  </way>
  <way id='264288479' action='modify' timestamp='2018-04-01T13:28:32Z' uid='1434393' user='k_au' visible='true' version='2' changeset='57712358'>
    <nd ref='2699788200' />
    <nd ref='2699788259' />
    <nd ref='2699788268' />
    <nd ref='2699788213' />
    <nd ref='2699788200' />
    <tag k='addr:city' v='Medway' />
    <tag k='addr:housenumber' v='480' />
    <tag k='addr:postcode' v='2577' />
    <tag k='addr:province' v='New South Wales' />
    <tag k='addr:street' v='Medway Road' />
    <tag k='building' v='house' />
    <tag k='source' v='Bing' />
  </way>
  <way id='264288480' action='modify' timestamp='2014-03-03T12:06:11Z' uid='1211556' user='huonw' visible='true' version='1' changeset='20886818'>
    <nd ref='2699788171' />
    <nd ref='2699788173' />
    <nd ref='2699788168' />
    <nd ref='2699788165' />
    <nd ref='2699788171' />
    <tag k='addr:housenumber' v='484' />
    <tag k='addr:street' v='Medway Road' />
    <tag k='building' v='yes' />
    <tag k='source' v='Bing' />
  </way>
  <way id='264288484' action='modify' timestamp='2018-04-01T13:28:34Z' uid='1434393' user='k_au' visible='true' version='2' changeset='57712358'>
    <nd ref='2699788054' />
    <nd ref='2699788061' />
    <nd ref='2699788103' />
    <nd ref='2699788079' />
    <nd ref='2699788054' />
    <tag k='addr:housenumber' v='12' />
    <tag k='addr:street' v='Railway Parade' />
    <tag k='building' v='house' />
    <tag k='source' v='Bing' />
  </way>
  <way id='264288485' action='modify' timestamp='2018-04-01T13:28:33Z' uid='1434393' user='k_au' visible='true' version='2' changeset='57712358'>
    <nd ref='2699788151' />
    <nd ref='2699788164' />
    <nd ref='2699788163' />
    <nd ref='2699788170' />
    <nd ref='2699788167' />
    <nd ref='2699788142' />
    <nd ref='2699788151' />
    <tag k='addr:city' v='Medway' />
    <tag k='addr:housenumber' v='2' />
    <tag k='addr:postcode' v='2577' />
    <tag k='addr:province' v='New South Wales' />
    <tag k='addr:street' v='Railway Parade' />
    <tag k='building' v='house' />
    <tag k='source' v='Bing' />
  </way>
  <way id='264288488' action='modify' timestamp='2014-03-03T12:06:12Z' uid='1211556' user='huonw' visible='true' version='1' changeset='20886818'>
    <nd ref='2699788010' />
    <nd ref='2699788036' />
    <nd ref='2699788034' />
    <nd ref='2699788014' />
    <nd ref='2699788013' />
    <nd ref='2699788008' />
    <nd ref='2699788010' />
    <tag k='addr:housenumber' v='16' />
    <tag k='addr:street' v='Railway Parade' />
    <tag k='building' v='house' />
    <tag k='source' v='Bing' />
  </way>
  <way id='264288489' action='modify' timestamp='2014-03-03T12:06:12Z' uid='1211556' user='huonw' visible='true' version='1' changeset='20886818'>
    <nd ref='2699788063' />
    <nd ref='2699788071' />
    <nd ref='2699788115' />
    <nd ref='2699788111' />
    <nd ref='2699788083' />
    <nd ref='2699788080' />
    <nd ref='2699788063' />
    <tag k='addr:housenumber' v='36-38' />
    <tag k='addr:street' v='Railway Parade' />
    <tag k='building' v='house' />
    <tag k='source' v='Bing' />
  </way>
  <way id='264288490' action='modify' timestamp='2014-03-03T12:06:12Z' uid='1211556' user='huonw' visible='true' version='1' changeset='20886818'>
    <nd ref='2699788311' />
    <nd ref='2699788315' />
    <nd ref='2699788303' />
    <nd ref='2699788302' />
    <nd ref='2699788301' />
    <nd ref='2699788300' />
    <nd ref='2699788311' />
    <tag k='addr:housenumber' v='481' />
    <tag k='addr:street' v='Medway Road' />
    <tag k='building' v='house' />
    <tag k='source' v='Bing' />
  </way>
  <way id='264288491' action='modify' timestamp='2014-03-03T12:06:12Z' uid='1211556' user='huonw' visible='true' version='1' changeset='20886818'>
    <nd ref='2699788191' />
    <nd ref='2699788238' />
    <nd ref='2699788231' />
    <nd ref='2699788222' />
    <nd ref='2699788220' />
    <nd ref='2699788185' />
    <nd ref='2699788191' />
    <tag k='addr:housenumber' v='492' />
    <tag k='addr:street' v='Medway Road' />
    <tag k='building' v='house' />
    <tag k='source' v='Bing' />
  </way>
  <way id='264288492' action='modify' timestamp='2014-03-03T12:06:12Z' uid='1211556' user='huonw' visible='true' version='1' changeset='20886818'>
    <nd ref='2699788004' />
    <nd ref='2699788021' />
    <nd ref='2699788018' />
    <nd ref='2699788026' />
    <nd ref='2699788025' />
    <nd ref='2699788001' />
    <nd ref='2699788004' />
    <tag k='addr:housenumber' v='22' />
    <tag k='addr:street' v='Railway Parade' />
    <tag k='building' v='house' />
    <tag k='source' v='Bing' />
  </way>
  <way id='264288493' action='modify' timestamp='2014-03-03T12:06:12Z' uid='1211556' user='huonw' visible='true' version='1' changeset='20886818'>
    <nd ref='2699788020' />
    <nd ref='2699788050' />
    <nd ref='2699788046' />
    <nd ref='2699788056' />
    <nd ref='2699788038' />
    <nd ref='2699788015' />
    <nd ref='2699788020' />
    <tag k='addr:housenumber' v='14' />
    <tag k='addr:street' v='Railway Parade' />
    <tag k='building' v='house' />
    <tag k='source' v='Bing' />
  </way>
  <way id='264288494' action='modify' timestamp='2018-04-01T13:28:33Z' uid='1434393' user='k_au' visible='true' version='2' changeset='57712358'>
    <nd ref='2699788249' />
    <nd ref='2699788265' />
    <nd ref='2699788256' />
    <nd ref='2699788260' />
    <nd ref='2699788240' />
    <nd ref='2699788219' />
    <nd ref='2699788249' />
    <tag k='addr:city' v='Medway' />
    <tag k='addr:housenumber' v='508' />
    <tag k='addr:postcode' v='2577' />
    <tag k='addr:province' v='New South Wales' />
    <tag k='addr:street' v='Medway Road' />
    <tag k='building' v='house' />
    <tag k='source' v='Bing' />
  </way>
  <way id='264288496' action='modify' timestamp='2018-04-01T13:28:33Z' uid='1434393' user='k_au' visible='true' version='2' changeset='57712358'>
    <nd ref='2699788195' />
    <nd ref='2699788216' />
    <nd ref='2699788210' />
    <nd ref='2699788246' />
    <nd ref='2699788215' />
    <nd ref='2699788178' />
    <nd ref='2699788195' />
    <tag k='addr:city' v='Medway' />
    <tag k='addr:housenumber' v='510' />
    <tag k='addr:postcode' v='2577' />
    <tag k='addr:province' v='New South Wales' />
    <tag k='addr:street' v='Medway Road' />
    <tag k='building' v='house' />
    <tag k='source' v='Bing' />
  </way>
  <way id='264288497' action='modify' timestamp='2014-03-03T12:06:12Z' uid='1211556' user='huonw' visible='true' version='1' changeset='20886818'>
    <nd ref='2699788007' />
    <nd ref='2699788032' />
    <nd ref='2699788023' />
    <nd ref='2699788003' />
    <nd ref='2699788005' />
    <nd ref='2699788006' />
    <nd ref='2699788007' />
    <tag k='addr:housenumber' v='18' />
    <tag k='addr:street' v='Railway Parade' />
    <tag k='building' v='house' />
    <tag k='source' v='Bing' />
  </way>
  <way id='264288498' action='modify' timestamp='2014-03-03T12:06:12Z' uid='1211556' user='huonw' visible='true' version='1' changeset='20886818'>
    <nd ref='2699788290' />
    <nd ref='2699788291' />
    <nd ref='2699788285' />
    <nd ref='2699788286' />
    <nd ref='2699788296' />
    <nd ref='2699788294' />
    <nd ref='2699788290' />
    <tag k='addr:housenumber' v='440' />
    <tag k='addr:street' v='Medway Road' />
    <tag k='building' v='house' />
    <tag k='source' v='Bing' />
  </way>
  <way id='264288499' action='modify' timestamp='2014-03-03T12:06:12Z' uid='1211556' user='huonw' visible='true' version='1' changeset='20886818'>
    <nd ref='2699788112' />
    <nd ref='2699788126' />
    <nd ref='2699788119' />
    <nd ref='2699788117' />
    <nd ref='2699788116' />
    <nd ref='2699788104' />
    <nd ref='2699788112' />
    <tag k='addr:housenumber' v='6' />
    <tag k='addr:street' v='Railway Parade' />
    <tag k='building' v='house' />
    <tag k='source' v='Bing' />
  </way>
  <way id='264288500' action='modify' timestamp='2014-03-03T12:06:13Z' uid='1211556' user='huonw' visible='true' version='1' changeset='20886818'>
    <nd ref='2699788060' />
    <nd ref='2699788078' />
    <nd ref='2699788074' />
    <nd ref='2699788081' />
    <nd ref='2699788076' />
    <nd ref='2699788070' />
    <nd ref='2699788065' />
    <nd ref='2699788058' />
    <nd ref='2699788060' />
    <tag k='addr:housenumber' v='10' />
    <tag k='addr:street' v='Railway Parade' />
    <tag k='building' v='house' />
    <tag k='source' v='Bing' />
  </way>
  <way id='264288501' action='modify' timestamp='2014-03-03T12:06:13Z' uid='1211556' user='huonw' visible='true' version='1' changeset='20886818'>
    <nd ref='2699788313' />
    <nd ref='2699788314' />
    <nd ref='2699788310' />
    <nd ref='2699788312' />
    <nd ref='2699788306' />
    <nd ref='2699788307' />
    <nd ref='2699788298' />
    <nd ref='2699788297' />
    <nd ref='2699788313' />
    <tag k='addr:housenumber' v='477' />
    <tag k='addr:street' v='Medway Road' />
    <tag k='building' v='house' />
    <tag k='source' v='Bing' />
  </way>
  <way id='264288503' action='modify' timestamp='2014-03-03T12:06:13Z' uid='1211556' user='huonw' visible='true' version='1' changeset='20886818'>
    <nd ref='2699788017' />
    <nd ref='2699788045' />
    <nd ref='2699788043' />
    <nd ref='2699788048' />
    <nd ref='2699788041' />
    <nd ref='2699788009' />
    <nd ref='2699788012' />
    <nd ref='2699788016' />
    <nd ref='2699788017' />
    <tag k='addr:housenumber' v='20' />
    <tag k='addr:street' v='Railway Parade' />
    <tag k='building' v='house' />
    <tag k='source' v='Bing' />
  </way>
  <way id='264288505' action='modify' timestamp='2014-03-03T12:06:13Z' uid='1211556' user='huonw' visible='true' version='1' changeset='20886818'>
    <nd ref='2699788223' />
    <nd ref='2699788247' />
    <nd ref='2699788245' />
    <nd ref='2699788269' />
    <nd ref='2699788267' />
    <nd ref='2699788232' />
    <nd ref='2699788235' />
    <nd ref='2699788221' />
    <nd ref='2699788223' />
    <tag k='addr:housenumber' v='502' />
    <tag k='addr:street' v='Medway Road' />
    <tag k='building' v='house' />
    <tag k='source' v='Bing' />
  </way>
</osm>
