<?xml version='1.0' encoding='UTF-8'?>
<osm version='0.6' generator='JOSM'>
  <node id='-191017' visible='true' lat='-33.84338320463' lon='151.10599933382'>
    <tag k='addr:housenumber' v='34' />
    <tag k='addr:street' v='Bertram Street' />
  </node>
  <node id='-191019' visible='true' lat='-33.83700428798' lon='151.1053798012'>
    <tag k='addr:housenumber' v='43' />
    <tag k='addr:street' v='Hilly Street' />
  </node>
  <node id='-191021' visible='true' lat='-33.84586494225' lon='151.10892945082'>
    <tag k='addr:housenumber' v='2' />
    <tag k='addr:street' v='Emily Street' />
  </node>
  <node id='-191023' visible='true' lat='-33.83908876389' lon='151.10609396726'>
    <tag k='addr:housenumber' v='25' />
    <tag k='addr:street' v='Hilly Street' />
  </node>
  <node id='-191025' visible='true' lat='-33.84414266123' lon='151.10754323899'>
    <tag k='addr:housenumber' v='1' />
    <tag k='addr:street' v='Bertram Street' />
  </node>
  <node id='-191027' action='modify' visible='true' lat='-33.84219802002' lon='151.10583885046'>
    <tag k='addr:housenumber' v='30' />
    <tag k='addr:street' v='Edwin Street' />
  </node>
  <node id='-191029' action='modify' visible='true' lat='-33.84219802002' lon='151.1057955881'>
    <tag k='addr:housenumber' v='32' />
    <tag k='addr:street' v='Edwin Street' />
  </node>
  <node id='-191031' visible='true' lat='-33.84114067269' lon='151.10501235785'>
    <tag k='addr:housenumber' v='1-9' />
    <tag k='addr:street' v='Bennett Street' />
  </node>
  <node id='-191033' visible='true' lat='-33.84526514062' lon='151.10786145223'>
    <tag k='addr:housenumber' v='28' />
    <tag k='addr:street' v='Herbert Street' />
  </node>
  <node id='-191035' visible='true' lat='-33.83928376675' lon='151.10653930609'>
    <tag k='addr:housenumber' v='122' />
    <tag k='addr:street' v='Tennyson Road' />
  </node>
  <node id='-191037' visible='true' lat='-33.83920858922' lon='151.10651661518'>
    <tag k='addr:housenumber' v='124' />
    <tag k='addr:street' v='Tennyson Road' />
  </node>
  <node id='-191039' visible='true' lat='-33.83805742944' lon='151.10525244158'>
    <tag k='addr:housenumber' v='26D' />
    <tag k='addr:street' v='Hilly Street' />
  </node>
  <node id='-191041' visible='true' lat='-33.83587324766' lon='151.10535220221'>
    <tag k='addr:housenumber' v='67' />
    <tag k='addr:street' v='Hilly Street' />
  </node>
  <node id='-191043' visible='true' lat='-33.84568910383' lon='151.10887040488'>
    <tag k='addr:housenumber' v='4' />
    <tag k='addr:street' v='Emily Street' />
  </node>
  <node id='-191045' action='modify' visible='true' lat='-33.83941934204' lon='151.10660440295'>
    <tag k='addr:housenumber' v='118' />
    <tag k='addr:street' v='Tennyson Road' />
  </node>
  <node id='-191047' action='modify' visible='true' lat='-33.83941934204' lon='151.106561142'>
    <tag k='addr:housenumber' v='120' />
    <tag k='addr:street' v='Tennyson Road' />
  </node>
  <node id='-191049' visible='true' lat='-33.84290477204' lon='151.10618102576'>
    <tag k='addr:housenumber' v='47' />
    <tag k='addr:street' v='Bertram Street' />
  </node>
  <node id='-191051' visible='true' lat='-33.84227548383' lon='151.10519875117'>
    <tag k='addr:housenumber' v='42' />
    <tag k='addr:street' v='Edwin Street' />
  </node>
  <node id='-191053' visible='true' lat='-33.83610062807' lon='151.10507877306'>
    <tag k='addr:housenumber' v='81' />
    <tag k='addr:street' v='Hilly Street' />
  </node>
  <node id='-191055' visible='true' lat='-33.84332914926' lon='151.10561016564'>
    <tag k='addr:housenumber' v='42' />
    <tag k='addr:street' v='Bertram Street' />
  </node>
  <node id='-191057' visible='true' lat='-33.8357453805' lon='151.10496223856'>
    <tag k='addr:housenumber' v='89' />
    <tag k='addr:street' v='Hilly Street' />
  </node>
  <node id='-191059' visible='true' lat='-33.83903294893' lon='151.10645040231'>
    <tag k='addr:housenumber' v='128' />
    <tag k='addr:street' v='Tennyson Road' />
  </node>
  <node id='-191061' visible='true' lat='-33.84574260066' lon='151.10800778431'>
    <tag k='addr:housenumber' v='16' />
    <tag k='addr:street' v='Herbert Street' />
  </node>
  <node id='-191063' visible='true' lat='-33.84286311167' lon='151.10722752252'>
    <tag k='addr:housenumber' v='1' />
    <tag k='addr:street' v='Hilly Street' />
  </node>
  <node id='-191065' visible='true' lat='-33.84301104943' lon='151.10683616298'>
    <tag k='addr:housenumber' v='31' />
    <tag k='addr:street' v='Bertram Street' />
  </node>
  <node id='-191067' visible='true' lat='-33.84146737029' lon='151.10721506175'>
    <tag k='addr:housenumber' v='78' />
    <tag k='addr:street' v='Tennyson Road' />
  </node>
  <node id='-191069' visible='true' lat='-33.84397000943' lon='151.10648617291'>
    <tag k='addr:housenumber' v='1' />
    <tag k='addr:street' v='Bayard Street' />
  </node>
  <node id='-191071' visible='true' lat='-33.84191870994' lon='151.1070388378'>
    <tag k='addr:housenumber' v='6' />
    <tag k='addr:street' v='Edwin Street' />
  </node>
  <node id='-191073' visible='true' lat='-33.83566401666' lon='151.10490989312'>
    <tag k='addr:housenumber' v='91' />
    <tag k='addr:street' v='Hilly Street' />
  </node>
  <node id='-191075' visible='true' lat='-33.8426946402' lon='151.10672290754'>
    <tag k='addr:housenumber' v='2' />
    <tag k='addr:street' v='Mcdonald Street' />
  </node>
  <node id='-191077' visible='true' lat='-33.84156006176' lon='151.10489859789'>
    <tag k='addr:housenumber' v='4' />
    <tag k='addr:street' v='Bennett Street' />
  </node>
  <node id='-191079' visible='true' lat='-33.84283628401' lon='151.10569544134'>
    <tag k='addr:housenumber' v='57' />
    <tag k='addr:street' v='Bertram Street' />
  </node>
  <node id='-191081' visible='true' lat='-33.83591745216' lon='151.10503424041'>
    <tag k='addr:housenumber' v='85' />
    <tag k='addr:street' v='Hilly Street' />
  </node>
  <node id='-191083' visible='true' lat='-33.83764291529' lon='151.10588592954'>
    <tag k='addr:housenumber' v='33W' />
    <tag k='addr:street' v='Hilly Street' />
  </node>
  <node id='-191085' visible='true' lat='-33.84357702712' lon='151.10739061826'>
    <tag k='addr:housenumber' v='11-15' />
    <tag k='addr:street' v='Bertram Street' />
  </node>
  <node id='-191087' visible='true' lat='-33.84559942595' lon='151.1086808635'>
    <tag k='addr:housenumber' v='11' />
    <tag k='addr:street' v='Herbert Street' />
  </node>
  <node id='-191089' visible='true' lat='-33.83636284469' lon='151.10528977376'>
    <tag k='addr:housenumber' v='57' />
    <tag k='addr:street' v='Hilly Street' />
  </node>
  <node id='-191091' visible='true' lat='-33.83798589766' lon='151.10522603934'>
    <tag k='addr:housenumber' v='26C' />
    <tag k='addr:street' v='Hilly Street' />
  </node>
  <node id='-191093' visible='true' lat='-33.84348439838' lon='151.10779107107'>
    <tag k='addr:housenumber' v='42' />
    <tag k='addr:street' v='Tennyson Road' />
  </node>
  <node id='-191095' visible='true' lat='-33.83600603506' lon='151.10506709013'>
    <tag k='addr:housenumber' v='83' />
    <tag k='addr:street' v='Hilly Street' />
  </node>
  <node id='-191097' visible='true' lat='-33.84279571972' lon='151.10540228655'>
    <tag k='addr:housenumber' v='63' />
    <tag k='addr:street' v='Bertram Street' />
  </node>
  <node id='-191099' action='modify' visible='true' lat='-33.84543062564' lon='151.10864765855'>
    <tag k='addr:housenumber' v='15' />
    <tag k='addr:street' v='Herbert Street' />
  </node>
  <node id='-191101' action='modify' visible='true' lat='-33.84543062564' lon='151.10860439456'>
    <tag k='addr:housenumber' v='10' />
    <tag k='addr:street' v='Emily Street' />
  </node>
  <node id='-191103' visible='true' lat='-33.84289014144' lon='151.10608356643'>
    <tag k='addr:housenumber' v='49' />
    <tag k='addr:street' v='Bertram Street' />
  </node>
  <node id='-191105' visible='true' lat='-33.84226166643' lon='151.10509067752'>
    <tag k='addr:housenumber' v='44' />
    <tag k='addr:street' v='Edwin Street' />
  </node>
  <node id='-191107' visible='true' lat='-33.83835884316' lon='151.10498302478'>
    <tag k='addr:housenumber' v='28I' />
    <tag k='addr:street' v='Hilly Street' />
  </node>
  <node id='-191109' visible='true' lat='-33.83721149489' lon='151.10539063741'>
    <tag k='addr:housenumber' v='39' />
    <tag k='addr:street' v='Hilly Street' />
  </node>
  <node id='-191111' visible='true' lat='-33.84265939458' lon='151.10652339981'>
    <tag k='addr:housenumber' v='4' />
    <tag k='addr:street' v='Mcdonald Street' />
  </node>
  <node id='-191113' action='modify' visible='true' lat='-33.83855894404' lon='151.10614725665'>
    <tag k='addr:housenumber' v='134' />
    <tag k='addr:street' v='Tennyson Road' />
  </node>
  <node id='-191115' action='modify' visible='true' lat='-33.83854338476' lon='151.10611481126'>
    <tag k='addr:housenumber' v='1/31' />
    <tag k='addr:street' v='Hilly Street' />
  </node>
  <node id='-191117' action='modify' visible='true' lat='-33.83857450331' lon='151.10611481126'>
    <tag k='addr:housenumber' v='31' />
    <tag k='addr:street' v='Hilly Street' />
  </node>
  <node id='-191119' visible='true' lat='-33.83781838793' lon='151.10482822779'>
    <tag k='addr:housenumber' v='28A' />
    <tag k='addr:street' v='Hilly Street' />
  </node>
  <node id='-191121' visible='true' lat='-33.838200117' lon='151.10643883367'>
    <tag k='addr:housenumber' v='134A' />
    <tag k='addr:street' v='Tennyson Road' />
  </node>
  <node id='-191123' action='modify' visible='true' lat='-33.84346101267' lon='151.10655906875'>
    <tag k='addr:housenumber' v='22' />
    <tag k='addr:street' v='Bertram Street' />
  </node>
  <node id='-191125' action='modify' visible='true' lat='-33.84346101267' lon='151.10651580576'>
    <tag k='addr:housenumber' v='24' />
    <tag k='addr:street' v='Bertram Street' />
  </node>
  <node id='-191127' visible='true' lat='-33.83578553823' lon='151.10528333225'>
    <tag k='addr:housenumber' v='69' />
    <tag k='addr:street' v='Hilly Street' />
  </node>
  <node id='-191129' visible='true' lat='-33.83791271648' lon='151.10520283138'>
    <tag k='addr:housenumber' v='26B' />
    <tag k='addr:street' v='Hilly Street' />
  </node>
  <node id='-191131' visible='true' lat='-33.83815032054' lon='151.1049250371'>
    <tag k='addr:housenumber' v='28F' />
    <tag k='addr:street' v='Hilly Street' />
  </node>
  <node id='-191133' visible='true' lat='-33.84287735997' lon='151.10598634807'>
    <tag k='addr:housenumber' v='51' />
    <tag k='addr:street' v='Bertram Street' />
  </node>
  <node id='-191135' visible='true' lat='-33.84326629935' lon='151.10542371665'>
    <tag k='addr:housenumber' v='46' />
    <tag k='addr:street' v='Bertram Street' />
  </node>
  <node id='-191137' visible='true' lat='-33.83788426761' lon='151.10484905279'>
    <tag k='addr:housenumber' v='28B' />
    <tag k='addr:street' v='Hilly Street' />
  </node>
  <node id='-191139' action='modify' visible='true' lat='-33.84122593446' lon='151.10696038056'>
    <tag k='addr:housenumber' v='82' />
    <tag k='addr:street' v='Tennyson Road' />
  </node>
  <node id='-191141' action='modify' visible='true' lat='-33.84122593446' lon='151.1069171187'>
    <tag k='addr:housenumber' v='84' />
    <tag k='addr:street' v='Tennyson Road' />
  </node>
  <node id='-191143' visible='true' lat='-33.8435329727' lon='151.10680040517'>
    <tag k='addr:housenumber' v='18' />
    <tag k='addr:street' v='Bertram Street' />
  </node>
  <node id='-191145' visible='true' lat='-33.84218112986' lon='151.10632344046'>
    <tag k='addr:housenumber' v='20' />
    <tag k='addr:street' v='Edwin Street' />
  </node>
  <node id='-191147' visible='true' lat='-33.83608590218' lon='151.1054225849'>
    <tag k='addr:housenumber' v='63' />
    <tag k='addr:street' v='Hilly Street' />
  </node>
  <node id='-191149' visible='true' lat='-33.84402784563' lon='151.10750960545'>
    <tag k='addr:housenumber' v='3' />
    <tag k='addr:street' v='Bertram Street' />
  </node>
  <node id='-191151' visible='true' lat='-33.83926178872' lon='151.10615964385'>
    <tag k='addr:housenumber' v='17-19' />
    <tag k='addr:street' v='Hilly Street' />
  </node>
  <node id='-191153' visible='true' lat='-33.84224654774' lon='151.10498366922'>
    <tag k='addr:housenumber' v='46' />
    <tag k='addr:street' v='Edwin Street' />
  </node>
  <node id='-191155' visible='true' lat='-33.84504904412' lon='151.10764197751'>
    <tag k='addr:housenumber' v='9' />
    <tag k='addr:street' v='Tennyson Road' />
  </node>
  <node id='-191157' visible='true' lat='-33.84343978828' lon='151.10639160497'>
    <tag k='addr:housenumber' v='26' />
    <tag k='addr:street' v='Bertram Street' />
  </node>
  <node id='-191159' visible='true' lat='-33.83812991399' lon='151.10527442105'>
    <tag k='addr:housenumber' v='26E' />
    <tag k='addr:street' v='Hilly Street' />
  </node>
  <node id='-191161' visible='true' lat='-33.8425699659' lon='151.10588776388'>
    <tag k='addr:housenumber' v='24' />
    <tag k='addr:street' v='Mcdonald Street' />
  </node>
  <node id='-191163' visible='true' lat='-33.84348115502' lon='151.10668385485'>
    <tag k='addr:housenumber' v='20' />
    <tag k='addr:street' v='Bertram Street' />
  </node>
  <node id='-191165' visible='true' lat='-33.83617485182' lon='151.1053353145'>
    <tag k='addr:housenumber' v='61' />
    <tag k='addr:street' v='Hilly Street' />
  </node>
  <node id='-191167' visible='true' lat='-33.84278512268' lon='151.10759352933'>
    <tag k='addr:housenumber' v='58' />
    <tag k='addr:street' v='Tennyson Road' />
  </node>
  <node id='-191169' visible='true' lat='-33.84342554348' lon='151.10629410168'>
    <tag k='addr:housenumber' v='28' />
    <tag k='addr:street' v='Bertram Street' />
  </node>
  <node id='-191171' visible='true' lat='-33.84534417388' lon='151.10788576258'>
    <tag k='addr:housenumber' v='26' />
    <tag k='addr:street' v='Herbert Street' />
  </node>
  <node id='-191173' visible='true' lat='-33.83655122901' lon='151.1052530858'>
    <tag k='addr:housenumber' v='53' />
    <tag k='addr:street' v='Hilly Street' />
  </node>
  <node id='-191175' visible='true' lat='-33.8460817785' lon='151.10867369919'>
    <tag k='addr:housenumber' v='1' />
    <tag k='addr:street' v='Herbert Street' />
  </node>
  <node id='-191177' action='modify' visible='true' lat='-33.84419305439' lon='151.10801579973'>
    <tag k='addr:housenumber' v='32' />
    <tag k='addr:street' v='Tennyson Road' />
  </node>
  <node id='-191179' action='modify' visible='true' lat='-33.84419305439' lon='151.10797253636'>
    <tag k='addr:housenumber' v='30' />
    <tag k='addr:street' v='Tennyson Road' />
  </node>
  <node id='-191181' visible='true' lat='-33.84280938928' lon='151.10549901486'>
    <tag k='addr:housenumber' v='61' />
    <tag k='addr:street' v='Bertram Street' />
  </node>
  <node id='-191183' visible='true' lat='-33.83776213185' lon='151.10513211878'>
    <tag k='addr:housenumber' v='26' />
    <tag k='addr:street' v='Hilly Street' />
  </node>
  <node id='-191185' visible='true' lat='-33.84558284351' lon='151.10796036045'>
    <tag k='addr:housenumber' v='20' />
    <tag k='addr:street' v='Herbert Street' />
  </node>
  <node id='-191187' visible='true' lat='-33.83691170872' lon='151.10535851539'>
    <tag k='addr:housenumber' v='45' />
    <tag k='addr:street' v='Hilly Street' />
  </node>
  <node id='-191189' visible='true' lat='-33.84183673954' lon='151.10735428223'>
    <tag k='addr:housenumber' v='74' />
    <tag k='addr:street' v='Tennyson Road' />
  </node>
  <node id='-191191' visible='true' lat='-33.84378684244' lon='151.10671342185'>
    <tag k='addr:housenumber' v='16' />
    <tag k='addr:street' v='Bertram Street' />
  </node>
  <node id='-191193' action='modify' visible='true' lat='-33.84146637047' lon='151.10695233143'>
    <tag k='addr:housenumber' v='1' />
    <tag k='addr:street' v='Edwin Street' />
  </node>
  <node id='-191195' action='modify' visible='true' lat='-33.8414508112' lon='151.10691988494'>
    <tag k='addr:housenumber' v='3' />
    <tag k='addr:street' v='Edwin Street' />
  </node>
  <node id='-191197' action='modify' visible='true' lat='-33.84148192975' lon='151.10691988494'>
    <tag k='addr:housenumber' v='5' />
    <tag k='addr:street' v='Edwin Street' />
  </node>
  <node id='-191199' visible='true' lat='-33.83795131676' lon='151.10486657483'>
    <tag k='addr:housenumber' v='28C' />
    <tag k='addr:street' v='Hilly Street' />
  </node>
  <node id='-191201' visible='true' lat='-33.8409657959' lon='151.1050571173'>
    <tag k='addr:housenumber' v='20' />
    <tag k='addr:street' v='Bennett Street' />
  </node>
  <node id='-191203' visible='true' lat='-33.84398046733' lon='151.10680122416'>
    <tag k='addr:housenumber' v='12' />
    <tag k='addr:street' v='Bertram Street' />
  </node>
  <node id='-191205' visible='true' lat='-33.8428216542' lon='151.1055974795'>
    <tag k='addr:housenumber' v='59' />
    <tag k='addr:street' v='Bertram Street' />
  </node>
  <node id='-191207' visible='true' lat='-33.8364571167' lon='151.10528540119'>
    <tag k='addr:housenumber' v='55' />
    <tag k='addr:street' v='Hilly Street' />
  </node>
  <node id='-191209' visible='true' lat='-33.84395227903' lon='151.10791636639'>
    <tag k='addr:housenumber' v='36' />
    <tag k='addr:street' v='Tennyson Road' />
  </node>
  <node id='-191211' visible='true' lat='-33.84297357871' lon='151.10666884806'>
    <tag k='addr:housenumber' v='35' />
    <tag k='addr:street' v='Bertram Street' />
  </node>
  <node id='-191213' visible='true' lat='-33.83801735368' lon='151.10488713562'>
    <tag k='addr:housenumber' v='28D' />
    <tag k='addr:street' v='Hilly Street' />
  </node>
  <node id='-191215' visible='true' lat='-33.84334396584' lon='151.1057060372'>
    <tag k='addr:housenumber' v='40' />
    <tag k='addr:street' v='Bertram Street' />
  </node>
  <node id='-191217' visible='true' lat='-33.83828302971' lon='151.1053216766'>
    <tag k='addr:housenumber' v='26G' />
    <tag k='addr:street' v='Hilly Street' />
  </node>
  <node id='-191219' visible='true' lat='-33.84390109442' lon='151.10677753771'>
    <tag k='addr:housenumber' v='14' />
    <tag k='addr:street' v='Bertram Street' />
  </node>
  <node id='-191221' visible='true' lat='-33.84550310004' lon='151.10793541707'>
    <tag k='addr:housenumber' v='22' />
    <tag k='addr:street' v='Herbert Street' />
  </node>
  <node id='-191223' visible='true' lat='-33.84492212679' lon='151.10792155975'>
    <tag k='addr:housenumber' v='15' />
    <tag k='addr:street' v='Tennyson Road' />
  </node>
  <node id='-191225' visible='true' lat='-33.84285067332' lon='151.10579218391'>
    <tag k='addr:housenumber' v='55' />
    <tag k='addr:street' v='Bertram Street' />
  </node>
  <node id='-191227' visible='true' lat='-33.84542257898' lon='151.10791010393'>
    <tag k='addr:housenumber' v='24' />
    <tag k='addr:street' v='Herbert Street' />
  </node>
  <node id='-191229' visible='true' lat='-33.83569315431' lon='151.10523551817'>
    <tag k='addr:housenumber' v='71' />
    <tag k='addr:street' v='Hilly Street' />
  </node>
  <node id='-191231' visible='true' lat='-33.84291798831' lon='151.10627959024'>
    <tag k='addr:housenumber' v='45' />
    <tag k='addr:street' v='Bertram Street' />
  </node>
  <node id='-191233' visible='true' lat='-33.83598799274' lon='151.10543426442'>
    <tag k='addr:housenumber' v='65' />
    <tag k='addr:street' v='Hilly Street' />
  </node>
  <node id='-191235' visible='true' lat='-33.84339957343' lon='151.10609607031'>
    <tag k='addr:housenumber' v='32' />
    <tag k='addr:street' v='Bertram Street' />
  </node>
  <node id='-191237' visible='true' lat='-33.83828349578' lon='151.1049627627'>
    <tag k='addr:housenumber' v='28H' />
    <tag k='addr:street' v='Hilly Street' />
  </node>
  <node id='-191239' visible='true' lat='-33.84276600293' lon='151.10721443309'>
    <tag k='addr:housenumber' v='3' />
    <tag k='addr:street' v='Hilly Street' />
  </node>
  <node id='-191241' visible='true' lat='-33.83783972655' lon='151.105167216'>
    <tag k='addr:housenumber' v='26A' />
    <tag k='addr:street' v='Hilly Street' />
  </node>
  <node id='-191243' visible='true' lat='-33.8393976951' lon='151.10620689589'>
    <tag k='addr:housenumber' v='15' />
    <tag k='addr:street' v='Hilly Street' />
  </node>
  <node id='-191245' visible='true' lat='-33.84286352075' lon='151.10588922244'>
    <tag k='addr:housenumber' v='53' />
    <tag k='addr:street' v='Bertram Street' />
  </node>
  <node id='-191247' visible='true' lat='-33.83582984436' lon='151.10499792269'>
    <tag k='addr:housenumber' v='87' />
    <tag k='addr:street' v='Hilly Street' />
  </node>
  <node id='-191249' visible='true' lat='-33.84205189028' lon='151.10741636516'>
    <tag k='addr:housenumber' v='70' />
    <tag k='addr:street' v='Tennyson Road' />
  </node>
  <node id='-191251' visible='true' lat='-33.84357159735' lon='151.10781558345'>
    <tag k='addr:housenumber' v='40' />
    <tag k='addr:street' v='Tennyson Road' />
  </node>
  <node id='-191253' visible='true' lat='-33.83709322258' lon='151.10538565626'>
    <tag k='addr:housenumber' v='41' />
    <tag k='addr:street' v='Hilly Street' />
  </node>
  <node id='-191255' visible='true' lat='-33.84335499407' lon='151.10580369336'>
    <tag k='addr:housenumber' v='38' />
    <tag k='addr:street' v='Bertram Street' />
  </node>
  <node id='-191257' visible='true' lat='-33.83821745694' lon='151.10494205938'>
    <tag k='addr:housenumber' v='28G' />
    <tag k='addr:street' v='Hilly Street' />
  </node>
  <node id='-191259' visible='true' lat='-33.83627040413' lon='151.10530473622'>
    <tag k='addr:housenumber' v='59' />
    <tag k='addr:street' v='Hilly Street' />
  </node>
  <node id='-191261' visible='true' lat='-33.84207541544' lon='151.10618866836'>
    <tag k='addr:housenumber' v='22' />
    <tag k='addr:street' v='Edwin Street' />
  </node>
  <node id='-191263' visible='true' lat='-33.83551864843' lon='151.10511939468'>
    <tag k='addr:housenumber' v='75' />
    <tag k='addr:street' v='Hilly Street' />
  </node>
  <node id='-191265' visible='true' lat='-33.84258087221' lon='151.10596981894'>
    <tag k='addr:housenumber' v='22' />
    <tag k='addr:street' v='Mcdonald Street' />
  </node>
  <node id='-191267' visible='true' lat='-33.84330426627' lon='151.10551671653'>
    <tag k='addr:housenumber' v='44' />
    <tag k='addr:street' v='Bertram Street' />
  </node>
  <node id='-191269' visible='true' lat='-33.83624252625' lon='151.10506774122'>
    <tag k='addr:housenumber' v='79' />
    <tag k='addr:street' v='Hilly Street' />
  </node>
  <node id='-191271' visible='true' lat='-33.84218903583' lon='151.10743721212'>
    <tag k='addr:housenumber' v='66' />
    <tag k='addr:street' v='Tennyson Road' />
  </node>
  <node id='-191273' visible='true' lat='-33.8433970166' lon='151.10776309333'>
    <tag k='addr:housenumber' v='44' />
    <tag k='addr:street' v='Tennyson Road' />
  </node>
  <node id='-191275' visible='true' lat='-33.83664142532' lon='151.10527657738'>
    <tag k='addr:housenumber' v='51' />
    <tag k='addr:street' v='Hilly Street' />
  </node>
  <node id='-191277' visible='true' lat='-33.84194316667' lon='151.10738361522'>
    <tag k='addr:housenumber' v='72' />
    <tag k='addr:street' v='Tennyson Road' />
  </node>
  <node id='-191279' visible='true' lat='-33.83917862885' lon='151.10612233838'>
    <tag k='addr:housenumber' v='21' />
    <tag k='addr:street' v='Hilly Street' />
  </node>
  <node id='-191281' visible='true' lat='-33.84337110145' lon='151.1059019309'>
    <tag k='addr:housenumber' v='36' />
    <tag k='addr:street' v='Bertram Street' />
  </node>
  <node id='-191283' visible='true' lat='-33.83808438227' lon='151.10490450003'>
    <tag k='addr:housenumber' v='28E' />
    <tag k='addr:street' v='Hilly Street' />
  </node>
  <node id='-191285' visible='true' lat='-33.84232429334' lon='151.10532817628'>
    <tag k='addr:housenumber' v='40' />
    <tag k='addr:street' v='Edwin Street' />
  </node>
  <node id='-191287' visible='true' lat='-33.84193919359' lon='151.10694140285'>
    <tag k='addr:housenumber' v='4' />
    <tag k='addr:street' v='Edwin Street' />
  </node>
  <node id='-191289' visible='true' lat='-33.83541890832' lon='151.1050536026'>
    <tag k='addr:housenumber' v='77' />
    <tag k='addr:street' v='Hilly Street' />
  </node>
  <node id='-191291' visible='true' lat='-33.84213423715' lon='151.10741855922'>
    <tag k='addr:housenumber' v='68' />
    <tag k='addr:street' v='Tennyson Road' />
  </node>
  <node id='-191293' visible='true' lat='-33.83820215429' lon='151.10529739916'>
    <tag k='addr:housenumber' v='26F' />
    <tag k='addr:street' v='Hilly Street' />
  </node>
  <node id='-191295' visible='true' lat='-33.84535367631' lon='151.10842925337'>
    <tag k='addr:housenumber' v='17' />
    <tag k='addr:street' v='Herbert Street' />
  </node>
  <node id='-191297' visible='true' lat='-33.84175656883' lon='151.1073040565'>
    <tag k='addr:housenumber' v='76' />
    <tag k='addr:street' v='Tennyson Road' />
  </node>
  <node id='-191299' action='modify' visible='true' lat='-33.84230765023' lon='151.10624235098'>
    <tag k='addr:housenumber' v='17' />
    <tag k='addr:street' v='Mcdonald Street' />
  </node>
  <node id='-191301' action='modify' visible='true' lat='-33.84229209095' lon='151.10627479778'>
    <tag k='addr:housenumber' v='17A' />
    <tag k='addr:street' v='Mcdonald Street' />
  </node>
  <node id='-191303' action='modify' visible='true' lat='-33.84227653167' lon='151.10624235098'>
    <tag k='addr:housenumber' v='1/17' />
    <tag k='addr:street' v='Mcdonald Street' />
  </node>
  <node id='-191305' visible='true' lat='-33.84515443363' lon='151.1084559411'>
    <tag k='addr:housenumber' v='12' />
    <tag k='addr:street' v='Emily Street' />
  </node>
  <node id='-191307' visible='true' lat='-33.84612886444' lon='151.10811908896'>
    <tag k='addr:housenumber' v='2-14' />
    <tag k='addr:street' v='Herbert Street' />
  </node>
  <node id='-191309' visible='true' lat='-33.83738871935' lon='151.10546024999'>
    <tag k='addr:housenumber' v='37P' />
    <tag k='addr:street' v='Hilly Street' />
  </node>
  <node id='-191311' visible='true' lat='-33.83957956957' lon='151.10500392669'>
    <tag k='addr:housenumber' v='18' />
    <tag k='addr:street' v='Hilly Street' />
  </node>
  <node id='-191313' visible='true' lat='-33.83560547931' lon='151.10517826387'>
    <tag k='addr:housenumber' v='73' />
    <tag k='addr:street' v='Hilly Street' />
  </node>
  <node id='-191315' visible='true' lat='-33.84496580035' lon='151.10782933646'>
    <tag k='addr:housenumber' v='13' />
    <tag k='addr:street' v='Tennyson Road' />
  </node>
  <node id='-191317' visible='true' lat='-33.83672842402' lon='151.10531219767'>
    <tag k='addr:housenumber' v='49' />
    <tag k='addr:street' v='Hilly Street' />
  </node>
  <node id='-191319' visible='true' lat='-33.84190149456' lon='151.10712054263'>
    <tag k='addr:housenumber' v='2' />
    <tag k='addr:street' v='Edwin Street' />
  </node>
  <node id='-191321' visible='true' lat='-33.84566263113' lon='151.10798379234'>
    <tag k='addr:housenumber' v='18' />
    <tag k='addr:street' v='Herbert Street' />
  </node>
  <node id='-191323' action='modify' visible='true' lat='-33.83875759661' lon='151.10639550226'>
    <tag k='addr:housenumber' v='1/130' />
    <tag k='addr:street' v='Tennyson Road' />
  </node>
  <node id='-191325' action='modify' visible='true' lat='-33.83874203733' lon='151.1063630568'>
    <tag k='addr:housenumber' v='2/130' />
    <tag k='addr:street' v='Tennyson Road' />
  </node>
  <node id='-191327' action='modify' visible='true' lat='-33.83877315588' lon='151.1063630568'>
    <tag k='addr:housenumber' v='130' />
    <tag k='addr:street' v='Tennyson Road' />
  </node>
  <node id='-191329' visible='true' lat='-33.84197213262' lon='151.10683364762'>
    <tag k='addr:housenumber' v='10' />
    <tag k='addr:street' v='Edwin Street' />
  </node>
  <node id='-191331' visible='true' lat='-33.83555704345' lon='151.10485381113'>
    <tag k='addr:housenumber' v='93' />
    <tag k='addr:street' v='Hilly Street' />
  </node>
  <node id='-191333' visible='true' lat='-33.83883079296' lon='151.10602714608'>
    <tag k='addr:housenumber' v='27' />
    <tag k='addr:street' v='Hilly Street' />
  </node>
  <node id='-191335' visible='true' lat='-33.84500796711' lon='151.10773766155'>
    <tag k='addr:housenumber' v='11' />
    <tag k='addr:street' v='Tennyson Road' />
  </node>
  <node id='-191337' visible='true' lat='-33.83682303373' lon='151.10532125295'>
    <tag k='addr:housenumber' v='47' />
    <tag k='addr:street' v='Hilly Street' />
  </node>
  <node id='-191339' action='modify' visible='true' lat='-33.84231095234' lon='151.10656137155'>
    <tag k='addr:housenumber' v='15' />
    <tag k='addr:street' v='Mcdonald Street' />
  </node>
  <node id='-191341' action='modify' visible='true' lat='-33.84231095234' lon='151.10651810913'>
    <tag k='addr:housenumber' v='13' />
    <tag k='addr:street' v='Mcdonald Street' />
  </node>
  <node id='-191343' visible='true' lat='-33.83775112949' lon='151.10480714973'>
    <tag k='addr:housenumber' v='28' />
    <tag k='addr:street' v='Hilly Street' />
  </node>
  <node id='-191345' visible='true' lat='-33.83794408954' lon='151.10569143211'>
    <tag k='addr:housenumber' v='33R' />
    <tag k='addr:street' v='Hilly Street' />
  </node>
  <node id='-191347' visible='true' lat='-33.8449854251' lon='151.10837133333'>
    <tag k='addr:housenumber' v='17C' />
    <tag k='addr:street' v='Tennyson Road' />
  </node>
  <node id='-191349' action='modify' visible='true' lat='-33.84053139899' lon='151.10693166697'>
    <tag k='addr:housenumber' v='94' />
    <tag k='addr:street' v='Tennyson Road' />
  </node>
  <node id='-191351' action='modify' visible='true' lat='-33.84053139899' lon='151.10688840546'>
    <tag k='addr:housenumber' v='92' />
    <tag k='addr:street' v='Tennyson Road' />
  </node>
  <node id='-191353' visible='true' lat='-33.84384190249' lon='151.10746793963'>
    <tag k='addr:housenumber' v='5' />
    <tag k='addr:street' v='Bertram Street' />
  </node>
  <node id='-191355' visible='true' lat='-33.84171342534' lon='151.10485578824'>
    <tag k='addr:housenumber' v='2' />
    <tag k='addr:street' v='Bennett Street' />
  </node>
  <node id='-191357' visible='true' lat='-33.84202997523' lon='151.10651324867'>
    <tag k='addr:housenumber' v='12-16' />
    <tag k='addr:street' v='Edwin Street' />
  </node>
  <node id='-191359' visible='true' lat='-33.84133204279' lon='151.10717232079'>
    <tag k='addr:housenumber' v='80' />
    <tag k='addr:street' v='Tennyson Road' />
  </node>
  <node id='-191361' action='modify' visible='true' lat='-33.84382951427' lon='151.10634143937'>
    <tag k='addr:housenumber' v='5' />
    <tag k='addr:street' v='Bayard Street' />
  </node>
  <node id='-191363' action='modify' visible='true' lat='-33.84382951427' lon='151.10638470256'>
    <tag k='addr:housenumber' v='3' />
    <tag k='addr:street' v='Bayard Street' />
  </node>
  <node id='-191365' visible='true' lat='-33.83536237237' lon='151.10437825358'>
    <tag k='addr:housenumber' v='38A' />
    <tag k='addr:street' v='Hilly Street' />
  </node>
  <node id='-191367' visible='true' lat='-33.84302506331' lon='151.10692433772'>
    <tag k='addr:housenumber' v='3' />
    <tag k='addr:street' v='Bennett Lane' />
  </node>
  <node id='-191369' visible='true' lat='-33.84227933591' lon='151.10746077937'>
    <tag k='addr:housenumber' v='64' />
    <tag k='addr:street' v='Tennyson Road' />
  </node>
  <node id='-191371' visible='true' lat='-33.83829775956' lon='151.10583802229'>
    <tag k='addr:housenumber' v='33' />
    <tag k='addr:street' v='Hilly Street' />
  </node>
  <node id='-191373' visible='true' lat='-33.84307087601' lon='151.10688702888'>
    <tag k='addr:housenumber' v='29' />
    <tag k='addr:street' v='Bertram Street' />
  </node>
  <node id='-191375' visible='true' lat='-33.84206178349' lon='151.10638912676'>
    <tag k='addr:housenumber' v='18' />
    <tag k='addr:street' v='Edwin Street' />
  </node>
  <node id='-191377' visible='true' lat='-33.83913456588' lon='151.10610944396'>
    <tag k='addr:housenumber' v='23' />
    <tag k='addr:street' v='Hilly Street' />
  </node>
  <node id='-191379' visible='true' lat='-33.8426924182' lon='151.10757443636'>
    <tag k='addr:housenumber' v='60' />
    <tag k='addr:street' v='Tennyson Road' />
  </node>
  <node id='-191381' visible='true' lat='-33.83813879769' lon='151.10626532335'>
    <tag k='addr:housenumber' v='140' />
    <tag k='addr:street' v='Tennyson Road' />
  </node>
  <node id='-191383' action='modify' visible='true' lat='-33.84298727151' lon='151.10678772693'>
    <tag k='addr:housenumber' v='33' />
    <tag k='addr:street' v='Bennett Lane' />
  </node>
  <node id='-191385' action='modify' visible='true' lat='-33.84298727151' lon='151.10674446417'>
    <tag k='addr:housenumber' v='33' />
    <tag k='addr:street' v='Bertram Street' />
  </node>
  <node id='-191387' visible='true' lat='-33.84296072713' lon='151.10657203537'>
    <tag k='addr:housenumber' v='37-39' />
    <tag k='addr:street' v='Bertram Street' />
  </node>
  <node id='-191389' action='modify' visible='true' lat='-33.84031053813' lon='151.10686198479'>
    <tag k='addr:housenumber' v='98' />
    <tag k='addr:street' v='Tennyson Road' />
  </node>
  <node id='-191391' action='modify' visible='true' lat='-33.84031053813' lon='151.10681872339'>
    <tag k='addr:housenumber' v='96' />
    <tag k='addr:street' v='Tennyson Road' />
  </node>
  <node id='-191393' visible='true' lat='-33.83912427067' lon='151.10646826609'>
    <tag k='addr:housenumber' v='126' />
    <tag k='addr:street' v='Tennyson Road' />
  </node>
  <node id='-191395' visible='true' lat='-33.84259156053' lon='151.10733582627'>
    <tag k='addr:housenumber' v='62' />
    <tag k='addr:street' v='Tennyson Road' />
  </node>
  <node id='-191397' action='modify' visible='true' lat='-33.84341051576' lon='151.10621679624'>
    <tag k='addr:housenumber' v='30' />
    <tag k='addr:street' v='Bertram Street' />
  </node>
  <node id='-191399' action='modify' visible='true' lat='-33.84339495648' lon='151.10618434901'>
    <tag k='addr:housenumber' v='2/30' />
    <tag k='addr:street' v='Bertram Street' />
  </node>
  <node id='-191401' action='modify' visible='true' lat='-33.84342607504' lon='151.10618434901'>
    <tag k='addr:housenumber' v='1/30' />
    <tag k='addr:street' v='Bertram Street' />
  </node>
  <node id='-191403' visible='true' lat='-33.84462637446' lon='151.1081942593'>
    <tag k='addr:housenumber' v='17A' />
    <tag k='addr:street' v='Tennyson Road' />
  </node>
  <node id='-191405' visible='true' lat='-33.84483500941' lon='151.10829563131'>
    <tag k='addr:housenumber' v='17B' />
    <tag k='addr:street' v='Tennyson Road' />
  </node>
  <node id='-191407' visible='true' lat='-33.84067252526' lon='151.10495724396'>
    <tag k='addr:housenumber' v='16' />
    <tag k='addr:street' v='Northcote Street' />
  </node>
  <node id='-191409' visible='true' lat='-33.84079091794' lon='151.1049304756'>
    <tag k='addr:housenumber' v='14' />
    <tag k='addr:street' v='Northcote Street' />
  </node>
  <node id='-191411' visible='true' lat='-33.84130781469' lon='151.10654414084'>
    <tag k='addr:housenumber' v='2' />
    <tag k='addr:street' v='Hilly Street' />
  </node>
  <node id='-191417' visible='true' lat='-33.84230418176' lon='151.10668111164'>
    <tag k='addr:housenumber' v='11' />
    <tag k='addr:street' v='Mcdonald Street' />
  </node>
  <node id='-191423' visible='true' lat='-33.84260156111' lon='151.10613198025'>
    <tag k='addr:housenumber' v='18' />
    <tag k='addr:street' v='Mcdonald Street' />
  </node>
  <node id='-191425' visible='true' lat='-33.84259487884' lon='151.10604937859'>
    <tag k='addr:housenumber' v='20' />
    <tag k='addr:street' v='Mcdonald Street' />
  </node>
  <node id='-191427' action='modify' visible='true' lat='-33.84318601067' lon='151.10524146543'>
    <tag k='addr:housenumber' v='48' />
    <tag k='addr:street' v='Bertram Street' />
  </node>
  <node id='-191429' action='modify' visible='true' lat='-33.84318601067' lon='151.10519820257'>
    <tag k='addr:housenumber' v='48A' />
    <tag k='addr:street' v='Bertram Street' />
  </node>
  <node id='-191431' visible='true' lat='-33.84263269458' lon='151.10633834443'>
    <tag k='addr:housenumber' v='12' />
    <tag k='addr:street' v='Mcdonald Street' />
  </node>
  <node id='-191433' visible='true' lat='-33.84261613786' lon='151.1062162058'>
    <tag k='addr:housenumber' v='12A' />
    <tag k='addr:street' v='Mcdonald Street' />
  </node>
</osm>
