<?xml version='1.0' encoding='UTF-8'?>
<osm version='0.6' generator='JOSM'>
  <node id='-530078' visible='true' lat='-34.62499277039' lon='150.13886126064'>
    <tag k='addr:housenumber' v='635' />
    <tag k='addr:street' v='Hanging Rock Road' />
  </node>
  <node id='-530080' visible='true' lat='-34.61961675872' lon='150.15063463852'>
    <tag k='addr:housenumber' v='636' />
    <tag k='addr:street' v='Hanging Rock Road' />
  </node>
  <node id='-530082' visible='true' lat='-34.62801787529' lon='150.10180746283'>
    <tag k='addr:housenumber' v='281' />
    <tag k='addr:street' v='Inverary Road' />
  </node>
  <node id='-530084' visible='true' lat='-34.63634590403' lon='150.10143245108'>
    <tag k='addr:housenumber' v='201' />
    <tag k='addr:street' v='Inverary Road' />
  </node>
  <node id='-530086' visible='true' lat='-34.63412371555' lon='150.16231543847'>
    <tag k='addr:housenumber' v='13731' />
    <tag k='addr:street' v='Hume Highway' />
  </node>
  <node id='-530088' visible='true' lat='-34.6412230428' lon='150.1003687896'>
    <tag k='addr:housenumber' v='300' />
    <tag k='addr:street' v='Uringalla Lane' />
  </node>
  <node id='-530090' visible='true' lat='-34.61434789438' lon='150.09604460714'>
    <tag k='addr:housenumber' v='445' />
    <tag k='addr:street' v='Inverary Road' />
  </node>
  <node id='-530092' visible='true' lat='-34.64051813584' lon='150.12713055151'>
    <tag k='addr:housenumber' v='14093' />
    <tag k='addr:street' v='Hume Highway' />
  </node>
  <node id='-530094' visible='true' lat='-34.65059163946' lon='150.10673086061'>
    <tag k='addr:housenumber' v='141' />
    <tag k='addr:street' v='Uringalla Lane' />
  </node>
  <node id='-530096' visible='true' lat='-34.63284285828' lon='150.10837641568'>
    <tag k='addr:housenumber' v='252' />
    <tag k='addr:street' v='Inverary Road' />
  </node>
  <node id='-530098' visible='true' lat='-34.63434359775' lon='150.13730536112'>
    <tag k='addr:housenumber' v='631' />
    <tag k='addr:street' v='Hanging Rock Road' />
  </node>
  <node id='-530100' action='modify' visible='true' lat='-34.60746268501' lon='150.09904922869'>
    <tag k='addr:housenumber' v='545' />
    <tag k='addr:street' v='Inverary Road' />
  </node>
  <node id='-530102' action='modify' visible='true' lat='-34.60746268501' lon='150.09900557147'>
    <tag k='addr:housenumber' v='545B' />
    <tag k='addr:street' v='Inverary Road' />
  </node>
  <node id='-530104' visible='true' lat='-34.63588370089' lon='150.12077226029'>
    <tag k='addr:housenumber' v='14074' />
    <tag k='addr:street' v='Hume Highway' />
  </node>
  <node id='-530106' visible='true' lat='-34.61087277445' lon='150.09722665392'>
    <tag k='addr:housenumber' v='485' />
    <tag k='addr:street' v='Inverary Road' />
  </node>
  <node id='-530108' visible='true' lat='-34.61629909072' lon='150.10080276223'>
    <tag k='addr:housenumber' v='425' />
    <tag k='addr:street' v='Inverary Road' />
  </node>
  <node id='-530110' visible='true' lat='-34.63822162843' lon='150.10885185157'>
    <tag k='addr:housenumber' v='96' />
    <tag k='addr:street' v='Inverary Road' />
  </node>
  <node id='-530112' visible='true' lat='-34.63676901462' lon='150.11492055961'>
    <tag k='addr:housenumber' v='270' />
    <tag k='addr:street' v='Inverary Road' />
  </node>
  <node id='-530114' visible='true' lat='-34.63140654114' lon='150.10274783772'>
    <tag k='addr:housenumber' v='261' />
    <tag k='addr:street' v='Inverary Road' />
  </node>
  <node id='-530116' visible='true' lat='-34.60468722172' lon='150.10172536468'>
    <tag k='addr:housenumber' v='551' />
    <tag k='addr:street' v='Inverary Road' />
  </node>
  <node id='-530118' visible='true' lat='-34.63392442807' lon='150.10189205235'>
    <tag k='addr:housenumber' v='221' />
    <tag k='addr:street' v='Inverary Road' />
  </node>
  <node id='-530120' visible='true' lat='-34.64537567338' lon='150.1219894143'>
    <tag k='addr:housenumber' v='14153' />
    <tag k='addr:street' v='Hume Highway' />
  </node>
  <node id='-530122' visible='true' lat='-34.64579879251' lon='150.10423851098'>
    <tag k='addr:housenumber' v='85' />
    <tag k='addr:street' v='Inverary Road' />
  </node>
  <node id='-530124' visible='true' lat='-34.64890341396' lon='150.11936551935'>
    <tag k='addr:housenumber' v='2' />
    <tag k='addr:street' v='Murrimba Road' />
  </node>
  <node id='-530126' visible='true' lat='-34.61273768798' lon='150.10378618268'>
    <tag k='addr:housenumber' v='478' />
    <tag k='addr:street' v='Inverary Road' />
  </node>
  <node id='-530128' visible='true' lat='-34.64181096979' lon='150.09075420839'>
    <tag k='addr:housenumber' v='223' />
    <tag k='addr:street' v='Uringalla Lane' />
  </node>
  <node id='-530130' visible='true' lat='-34.64735723936' lon='150.08392354047'>
    <tag k='addr:housenumber' v='221' />
    <tag k='addr:street' v='Uringalla Lane' />
  </node>
  <node id='-530132' visible='true' lat='-34.62819224517' lon='150.14669754511'>
    <tag k='addr:housenumber' v='620' />
    <tag k='addr:street' v='Hanging Rock Road' />
  </node>
  <node id='-530134' visible='true' lat='-34.60197439226' lon='150.1203668714'>
    <tag k='addr:housenumber' v='710' />
    <tag k='addr:street' v='Inverary Road' />
  </node>
  <node id='-530136' visible='true' lat='-34.64291335893' lon='150.12410960748'>
    <tag k='addr:housenumber' v='14101' />
    <tag k='addr:street' v='Hume Highway' />
  </node>
  <node id='-530138' visible='true' lat='-34.63683179049' lon='150.15637021846'>
    <tag k='addr:housenumber' v='13801' />
    <tag k='addr:street' v='Hume Highway' />
  </node>
  <node id='-530140' visible='true' lat='-34.6378959362' lon='150.12407036444'>
    <tag k='addr:housenumber' v='14076' />
    <tag k='addr:street' v='Hume Highway' />
  </node>
  <node id='-530142' visible='true' lat='-34.64542972567' lon='150.14464575685'>
    <tag k='addr:housenumber' v='13939' />
    <tag k='addr:street' v='Hume Highway' />
  </node>
  <node id='-530144' visible='true' lat='-34.64170826879' lon='150.12592374128'>
    <tag k='addr:housenumber' v='14125' />
    <tag k='addr:street' v='Hume Highway' />
  </node>
  <node id='-530146' visible='true' lat='-34.63317624912' lon='150.09654807747'>
    <tag k='addr:housenumber' v='302' />
    <tag k='addr:street' v='Uringalla Lane' />
  </node>
  <node id='-530148' visible='true' lat='-34.62985863284' lon='150.11606062435'>
    <tag k='addr:housenumber' v='272' />
    <tag k='addr:street' v='Inverary Road' />
  </node>
  <node id='-530150' visible='true' lat='-34.61527016242' lon='150.13807783366'>
    <tag k='addr:housenumber' v='637' />
    <tag k='addr:street' v='Hanging Rock Road' />
  </node>
  <node id='-530152' visible='true' lat='-34.63420708946' lon='150.12974688138'>
    <tag k='addr:housenumber' v='14072' />
    <tag k='addr:street' v='Hume Highway' />
  </node>
  <node id='-530154' visible='true' lat='-34.62819308443' lon='150.13106117286'>
    <tag k='addr:housenumber' v='633' />
    <tag k='addr:street' v='Hanging Rock Road' />
  </node>
  <node id='-530156' visible='true' lat='-34.62291998284' lon='150.1035136005'>
    <tag k='addr:housenumber' v='372' />
    <tag k='addr:street' v='Inverary Road' />
  </node>
  <node id='-530158' visible='true' lat='-34.62196503047' lon='150.10833309525'>
    <tag k='addr:housenumber' v='374' />
    <tag k='addr:street' v='Inverary Road' />
  </node>
  <node id='-530160' visible='true' lat='-34.61798365568' lon='150.10764200831'>
    <tag k='addr:housenumber' v='472' />
    <tag k='addr:street' v='Inverary Road' />
  </node>
  <node id='-530162' visible='true' lat='-34.62643637238' lon='150.10744243573'>
    <tag k='addr:housenumber' v='276' />
    <tag k='addr:street' v='Inverary Road' />
  </node>
  <node id='-530164' visible='true' lat='-34.62393981253' lon='150.10175474629'>
    <tag k='addr:housenumber' v='352' />
    <tag k='addr:street' v='Inverary Road' />
  </node>
  <node id='-530166' visible='true' lat='-34.6262978065' lon='150.10410571124'>
    <tag k='addr:housenumber' v='278' />
    <tag k='addr:street' v='Inverary Road' />
  </node>
  <node id='-530168' visible='true' lat='-34.64548216478' lon='150.11513592906'>
    <tag k='addr:housenumber' v='41' />
    <tag k='addr:street' v='Inverary Road' />
  </node>
  <node id='-530170' visible='true' lat='-34.59797374992' lon='150.11327107995'>
    <tag k='addr:housenumber' v='663' />
    <tag k='addr:street' v='Inverary Road' />
  </node>
  <node id='-530172' visible='true' lat='-34.59690746669' lon='150.10300658025'>
    <tag k='addr:housenumber' v='611' />
    <tag k='addr:street' v='Inverary Road' />
  </node>
</osm>
