<?xml version='1.0' encoding='UTF-8'?>
<osm version='0.6' generator='JOSM'>
  <node id='-214490' visible='true' lat='-33.83554843159' lon='151.11667237339'>
    <tag k='addr:housenumber' v='83' />
    <tag k='addr:street' v='Champion Road' />
  </node>
  <node id='-214492' visible='true' lat='-33.83107747712' lon='151.11908632846'>
    <tag k='addr:housenumber' v='28A' />
    <tag k='addr:street' v='Champion Road' />
  </node>
  <node id='-214494' action='modify' visible='true' lat='-33.83479088757' lon='151.11855456845'>
    <tag k='addr:housenumber' v='70A' />
    <tag k='addr:street' v='Champion Road' />
  </node>
  <node id='-214496' action='modify' visible='true' lat='-33.83479088757' lon='151.11851130984'>
    <tag k='addr:housenumber' v='1A' />
    <tag k='addr:street' v='Deeble Street' />
  </node>
  <node id='-214498' visible='true' lat='-33.82981539434' lon='151.11909012739'>
    <tag k='addr:housenumber' v='10' />
    <tag k='addr:street' v='Champion Road' />
  </node>
  <node id='-214500' action='modify' visible='true' lat='-33.8334128989' lon='151.11855844863'>
    <tag k='addr:housenumber' v='54' />
    <tag k='addr:street' v='Champion Road' />
  </node>
  <node id='-214502' action='modify' visible='true' lat='-33.8334128989' lon='151.11851519072'>
    <tag k='addr:housenumber' v='2/54' />
    <tag k='addr:street' v='Champion Road' />
  </node>
  <node id='-214504' visible='true' lat='-33.83171839338' lon='151.11625032191'>
    <tag k='addr:housenumber' v='30' />
    <tag k='addr:street' v='Kemp Street' />
  </node>
  <node id='-214506' visible='true' lat='-33.83147044201' lon='151.11558300108'>
    <tag k='addr:housenumber' v='27' />
    <tag k='addr:street' v='Kemp Street' />
  </node>
  <node id='-214508' action='modify' visible='true' lat='-33.82734957698' lon='151.11531673905'>
    <tag k='addr:housenumber' v='7' />
    <tag k='addr:street' v='Bayview Street' />
  </node>
  <node id='-214510' action='modify' visible='true' lat='-33.8273340177' lon='151.11528429792'>
    <tag k='addr:housenumber' v='7A' />
    <tag k='addr:street' v='Bayview Street' />
  </node>
  <node id='-214512' action='modify' visible='true' lat='-33.82736513626' lon='151.11528429792'>
    <tag k='addr:housenumber' v='9' />
    <tag k='addr:street' v='Bayview Street' />
  </node>
  <node id='-214514' visible='true' lat='-33.8312350073' lon='151.11434161472'>
    <tag k='addr:housenumber' v='1' />
    <tag k='addr:street' v='Beach Street' />
  </node>
  <node id='-214516' visible='true' lat='-33.82930660021' lon='151.117013402'>
    <tag k='addr:housenumber' v='81A' />
    <tag k='addr:street' v='Tennyson Road' />
  </node>
  <node id='-214518' visible='true' lat='-33.83362217203' lon='151.11731863743'>
    <tag k='addr:housenumber' v='140' />
    <tag k='addr:street' v='Tennyson Road' />
  </node>
  <node id='-214520' visible='true' lat='-33.83241710634' lon='151.11539593581'>
    <tag k='addr:housenumber' v='17' />
    <tag k='addr:street' v='Beach Street' />
  </node>
  <node id='-214522' visible='true' lat='-33.82893577247' lon='151.11613826304'>
    <tag k='addr:housenumber' v='11' />
    <tag k='addr:street' v='Kemp Street' />
  </node>
  <node id='-214524' visible='true' lat='-33.83111542321' lon='151.11647480639'>
    <tag k='addr:housenumber' v='22A' />
    <tag k='addr:street' v='Kemp Street' />
  </node>
  <node id='-214526' visible='true' lat='-33.83536424148' lon='151.11528395916'>
    <tag k='addr:housenumber' v='143' />
    <tag k='addr:street' v='Tennyson Road' />
  </node>
  <node id='-214528' visible='true' lat='-33.82953531848' lon='151.11788480188'>
    <tag k='addr:housenumber' v='94A' />
    <tag k='addr:street' v='Tennyson Road' />
  </node>
  <node id='-214530' visible='true' lat='-33.83359340728' lon='151.11850695719'>
    <tag k='addr:housenumber' v='56' />
    <tag k='addr:street' v='Champion Road' />
  </node>
  <node id='-214532' visible='true' lat='-33.83410418097' lon='151.11647316167'>
    <tag k='addr:housenumber' v='121A-123' />
    <tag k='addr:street' v='Tennyson Road' />
  </node>
  <node id='-214534' visible='true' lat='-33.82956450212' lon='151.11661021872'>
    <tag k='addr:housenumber' v='9' />
    <tag k='addr:street' v='Teemer Street' />
  </node>
  <node id='-214536' visible='true' lat='-33.83458287135' lon='151.1169784962'>
    <tag k='addr:housenumber' v='150' />
    <tag k='addr:street' v='Tennyson Road' />
  </node>
  <node id='-214538' visible='true' lat='-33.83390279425' lon='151.11771821052'>
    <tag k='addr:housenumber' v='63' />
    <tag k='addr:street' v='Champion Road' />
  </node>
  <node id='-214540' visible='true' lat='-33.83243865647' lon='151.11882684407'>
    <tag k='addr:housenumber' v='42A' />
    <tag k='addr:street' v='Champion Road' />
  </node>
  <node id='-214542' visible='true' lat='-33.83040005146' lon='151.11569966962'>
    <tag k='addr:housenumber' v='15' />
    <tag k='addr:street' v='Kemp Street' />
  </node>
  <node id='-214544' visible='true' lat='-33.82675480368' lon='151.11541665628'>
    <tag k='addr:housenumber' v='132' />
    <tag k='addr:street' v='Morrison Road' />
  </node>
  <node id='-214546' visible='true' lat='-33.83254313128' lon='151.11484155408'>
    <tag k='addr:housenumber' v='15A' />
    <tag k='addr:street' v='Beach Street' />
  </node>
  <node id='-214548' visible='true' lat='-33.83041017342' lon='151.11716563446'>
    <tag k='addr:housenumber' v='85' />
    <tag k='addr:street' v='Tennyson Road' />
  </node>
  <node id='-214550' visible='true' lat='-33.83347780861' lon='151.11733845048'>
    <tag k='addr:housenumber' v='138' />
    <tag k='addr:street' v='Tennyson Road' />
  </node>
  <node id='-214552' visible='true' lat='-33.83627066053' lon='151.11681480553'>
    <tag k='addr:housenumber' v='94' />
    <tag k='addr:street' v='Champion Road' />
  </node>
  <node id='-214554' visible='true' lat='-33.83099209339' lon='151.11623613449'>
    <tag k='addr:housenumber' v='22' />
    <tag k='addr:street' v='Kemp Street' />
  </node>
  <node id='-214556' visible='true' lat='-33.82958911933' lon='151.11719056725'>
    <tag k='addr:housenumber' v='83' />
    <tag k='addr:street' v='Tennyson Road' />
  </node>
  <node id='-214558' visible='true' lat='-33.83189439883' lon='151.11562106999'>
    <tag k='addr:housenumber' v='16' />
    <tag k='addr:street' v='Beach Street' />
  </node>
  <node id='-214560' visible='true' lat='-33.83086340508' lon='151.11878901623'>
    <tag k='addr:housenumber' v='26' />
    <tag k='addr:street' v='Champion Road' />
  </node>
  <node id='-214562' visible='true' lat='-33.83286074536' lon='151.11573650627'>
    <tag k='addr:housenumber' v='25' />
    <tag k='addr:street' v='Beach Street' />
  </node>
  <node id='-214564' visible='true' lat='-33.83244997952' lon='151.11621115505'>
    <tag k='addr:housenumber' v='18' />
    <tag k='addr:street' v='Beach Street' />
  </node>
  <node id='-214566' visible='true' lat='-33.82923874286' lon='151.11609643873'>
    <tag k='addr:housenumber' v='13' />
    <tag k='addr:street' v='Teemer Street' />
  </node>
  <node id='-214568' visible='true' lat='-33.82938256856' lon='151.11783383329'>
    <tag k='addr:housenumber' v='94' />
    <tag k='addr:street' v='Tennyson Road' />
  </node>
  <node id='-214570' visible='true' lat='-33.83539990555' lon='151.11629424663'>
    <tag k='addr:housenumber' v='160A' />
    <tag k='addr:street' v='Tennyson Road' />
  </node>
  <node id='-214572' visible='true' lat='-33.82894717263' lon='151.11685053836'>
    <tag k='addr:housenumber' v='10' />
    <tag k='addr:street' v='Kemp Street' />
  </node>
  <node id='-214574' visible='true' lat='-33.82987272872' lon='151.11783841963'>
    <tag k='addr:housenumber' v='98' />
    <tag k='addr:street' v='Tennyson Road' />
  </node>
  <node id='-214576' visible='true' lat='-33.82865763363' lon='151.11580091054'>
    <tag k='addr:housenumber' v='20' />
    <tag k='addr:street' v='Bayview Street' />
  </node>
  <node id='-214578' visible='true' lat='-33.82875606468' lon='151.11578008568'>
    <tag k='addr:housenumber' v='20A' />
    <tag k='addr:street' v='Bayview Street' />
  </node>
  <node id='-214580' visible='true' lat='-33.82703087118' lon='151.1153434114'>
    <tag k='addr:housenumber' v='3' />
    <tag k='addr:street' v='Bayview Street' />
  </node>
  <node id='-214582' visible='true' lat='-33.83287556542' lon='151.11863375298'>
    <tag k='addr:housenumber' v='48' />
    <tag k='addr:street' v='Champion Road' />
  </node>
  <node id='-214584' visible='true' lat='-33.82963983601' lon='151.11479092875'>
    <tag k='addr:housenumber' v='35' />
    <tag k='addr:street' v='Bayview Street' />
  </node>
  <node id='-214586' visible='true' lat='-33.82904854943' lon='151.11730289887'>
    <tag k='addr:housenumber' v='77' />
    <tag k='addr:street' v='Tennyson Road' />
  </node>
  <node id='-214588' visible='true' lat='-33.83406157562' lon='151.11769524209'>
    <tag k='addr:housenumber' v='65' />
    <tag k='addr:street' v='Champion Road' />
  </node>
  <node id='-214590' visible='true' lat='-33.82945161165' lon='151.11858167168'>
    <tag k='addr:housenumber' v='9' />
    <tag k='addr:street' v='Champion Road' />
  </node>
  <node id='-214592' visible='true' lat='-33.83307619361' lon='151.11874829976'>
    <tag k='addr:housenumber' v='50A' />
    <tag k='addr:street' v='Champion Road' />
  </node>
  <node id='-214594' visible='true' lat='-33.83257593366' lon='151.11746444347'>
    <tag k='addr:housenumber' v='128' />
    <tag k='addr:street' v='Tennyson Road' />
  </node>
  <node id='-214596' visible='true' lat='-33.83275090148' lon='151.11650531723'>
    <tag k='addr:housenumber' v='22' />
    <tag k='addr:street' v='Beach Street' />
  </node>
  <node id='-214598' visible='true' lat='-33.83642404881' lon='151.11711605032'>
    <tag k='addr:housenumber' v='92' />
    <tag k='addr:street' v='Champion Road' />
  </node>
  <node id='-214600' visible='true' lat='-33.82794564201' lon='151.11500825124'>
    <tag k='addr:housenumber' v='17A' />
    <tag k='addr:street' v='Bayview Street' />
  </node>
  <node id='-214602' visible='true' lat='-33.83207813367' lon='151.11797186884'>
    <tag k='addr:housenumber' v='41' />
    <tag k='addr:street' v='Champion Road' />
  </node>
  <node id='-214604' visible='true' lat='-33.8303282317' lon='151.11891839544'>
    <tag k='addr:housenumber' v='18' />
    <tag k='addr:street' v='Champion Road' />
  </node>
  <node id='-214606' visible='true' lat='-33.82907145791' lon='151.1166993201'>
    <tag k='addr:housenumber' v='12' />
    <tag k='addr:street' v='Kemp Street' />
  </node>
  <node id='-214608' visible='true' lat='-33.83653620439' lon='151.11535085141'>
    <tag k='addr:housenumber' v='157' />
    <tag k='addr:street' v='Tennyson Road' />
  </node>
  <node id='-214610' visible='true' lat='-33.83592281298' lon='151.11586507759'>
    <tag k='addr:housenumber' v='168' />
    <tag k='addr:street' v='Tennyson Road' />
  </node>
  <node id='-214612' visible='true' lat='-33.82874012304' lon='151.11856447738'>
    <tag k='addr:housenumber' v='108' />
    <tag k='addr:street' v='Morrison Road' />
  </node>
  <node id='-214614' visible='true' lat='-33.82846277183' lon='151.11584617269'>
    <tag k='addr:housenumber' v='18' />
    <tag k='addr:street' v='Bayview Street' />
  </node>
  <node id='-214616' visible='true' lat='-33.83107347915' lon='151.11874632353'>
    <tag k='addr:housenumber' v='30' />
    <tag k='addr:street' v='Champion Road' />
  </node>
  <node id='-214618' visible='true' lat='-33.83501478499' lon='151.11809778665'>
    <tag k='addr:housenumber' v='72' />
    <tag k='addr:street' v='Champion Road' />
  </node>
  <node id='-214620' visible='true' lat='-33.83221829076' lon='151.1159970599'>
    <tag k='addr:housenumber' v='36' />
    <tag k='addr:street' v='Kemp Street' />
  </node>
  <node id='-214622' visible='true' lat='-33.82968800127' lon='151.11435281919'>
    <tag k='addr:housenumber' v='37A' />
    <tag k='addr:street' v='Bayview Street' />
  </node>
  <node id='-214624' visible='true' lat='-33.8361801957' lon='151.1152759855'>
    <tag k='addr:housenumber' v='153' />
    <tag k='addr:street' v='Tennyson Road' />
  </node>
  <node id='-214626' visible='true' lat='-33.830395449' lon='151.11940323368'>
    <tag k='addr:housenumber' v='18A' />
    <tag k='addr:street' v='Champion Road' />
  </node>
  <node id='-214628' visible='true' lat='-33.83137374558' lon='151.11629895621'>
    <tag k='addr:housenumber' v='26' />
    <tag k='addr:street' v='Kemp Street' />
  </node>
  <node id='-214630' visible='true' lat='-33.83102419993' lon='151.11478509276'>
    <tag k='addr:housenumber' v='2' />
    <tag k='addr:street' v='Beach Street' />
  </node>
  <node id='-214632' visible='true' lat='-33.82945205964' lon='151.11727411184'>
    <tag k='addr:housenumber' v='81' />
    <tag k='addr:street' v='Tennyson Road' />
  </node>
  <node id='-214634' visible='true' lat='-33.82970802019' lon='151.11825939177'>
    <tag k='addr:housenumber' v='13' />
    <tag k='addr:street' v='Champion Road' />
  </node>
  <node id='-214636' action='modify' visible='true' lat='-33.82682079233' lon='151.11561198386'>
    <tag k='addr:housenumber' v='130' />
    <tag k='addr:street' v='Morrison Road' />
  </node>
  <node id='-214638' action='modify' visible='true' lat='-33.82682079233' lon='151.11556872929'>
    <tag k='addr:housenumber' v='1' />
    <tag k='addr:street' v='Bayview Street' />
  </node>
  <node id='-214640' visible='true' lat='-33.83224212753' lon='151.11638197552'>
    <tag k='addr:housenumber' v='105A' />
    <tag k='addr:street' v='Tennyson Road' />
  </node>
  <node id='-214642' visible='true' lat='-33.82969400934' lon='151.1178633194'>
    <tag k='addr:housenumber' v='96' />
    <tag k='addr:street' v='Tennyson Road' />
  </node>
  <node id='-214644' visible='true' lat='-33.8271942679' lon='151.11533875533'>
    <tag k='addr:housenumber' v='5' />
    <tag k='addr:street' v='Bayview Street' />
  </node>
  <node id='-214646' visible='true' lat='-33.82790148082' lon='151.1171934052'>
    <tag k='addr:housenumber' v='114' />
    <tag k='addr:street' v='Morrison Road' />
  </node>
  <node id='-214648' visible='true' lat='-33.8278487501' lon='151.1159852589'>
    <tag k='addr:housenumber' v='8' />
    <tag k='addr:street' v='Bayview Street' />
  </node>
  <node id='-214650' visible='true' lat='-33.83315989969' lon='151.11782116288'>
    <tag k='addr:housenumber' v='53' />
    <tag k='addr:street' v='Champion Road' />
  </node>
  <node id='-214652' visible='true' lat='-33.83302941409' lon='151.11674952693'>
    <tag k='addr:housenumber' v='117' />
    <tag k='addr:street' v='Tennyson Road' />
  </node>
  <node id='-214654' visible='true' lat='-33.83162944625' lon='151.11759646994'>
    <tag k='addr:housenumber' v='116' />
    <tag k='addr:street' v='Tennyson Road' />
  </node>
  <node id='-214656' visible='true' lat='-33.83115467902' lon='151.11372717343'>
    <tag k='addr:housenumber' v='55' />
    <tag k='addr:street' v='Bayview Street' />
  </node>
  <node id='-214658' visible='true' lat='-33.82996050593' lon='151.11940521824'>
    <tag k='addr:housenumber' v='10A' />
    <tag k='addr:street' v='Champion Road' />
  </node>
  <node id='-214660' visible='true' lat='-33.83297908981' lon='151.11784657574'>
    <tag k='addr:housenumber' v='51' />
    <tag k='addr:street' v='Champion Road' />
  </node>
  <node id='-214662' visible='true' lat='-33.83000365284' lon='151.1152925711'>
    <tag k='addr:housenumber' v='26' />
    <tag k='addr:street' v='Bayview Street' />
  </node>
  <node id='-214664' visible='true' lat='-33.82989563297' lon='151.11713675068'>
    <tag k='addr:housenumber' v='3' />
    <tag k='addr:street' v='Teemer Street' />
  </node>
  <node id='-214666' visible='true' lat='-33.83373124366' lon='151.11730287773'>
    <tag k='addr:housenumber' v='142' />
    <tag k='addr:street' v='Tennyson Road' />
  </node>
  <node id='-214668' visible='true' lat='-33.83472430565' lon='151.11568677478'>
    <tag k='addr:housenumber' v='135A' />
    <tag k='addr:street' v='Tennyson Road' />
  </node>
  <node id='-214670' visible='true' lat='-33.82924529914' lon='151.11793296039'>
    <tag k='addr:housenumber' v='92' />
    <tag k='addr:street' v='Tennyson Road' />
  </node>
  <node id='-214672' visible='true' lat='-33.82993966601' lon='151.11458883728'>
    <tag k='addr:housenumber' v='39' />
    <tag k='addr:street' v='Bayview Street' />
  </node>
  <node id='-214674' visible='true' lat='-33.83668471355' lon='151.11598681863'>
    <tag k='addr:housenumber' v='106' />
    <tag k='addr:street' v='Champion Road' />
  </node>
  <node id='-214676' visible='true' lat='-33.83408413064' lon='151.11737654136'>
    <tag k='addr:housenumber' v='3' />
    <tag k='addr:street' v='Deeble Street' />
  </node>
  <node id='-214678' visible='true' lat='-33.83066731291' lon='151.11634859804'>
    <tag k='addr:housenumber' v='18' />
    <tag k='addr:street' v='Kemp Street' />
  </node>
  <node id='-214680' visible='true' lat='-33.82735919323' lon='151.11601956449'>
    <tag k='addr:housenumber' v='2' />
    <tag k='addr:street' v='Bayview Street' />
  </node>
  <node id='-214682' visible='true' lat='-33.83495413052' lon='151.11716830339'>
    <tag k='addr:housenumber' v='75' />
    <tag k='addr:street' v='Champion Road' />
  </node>
  <node id='-214684' visible='true' lat='-33.83215033597' lon='151.11872058324'>
    <tag k='addr:housenumber' v='40' />
    <tag k='addr:street' v='Champion Road' />
  </node>
  <node id='-214686' visible='true' lat='-33.82857908195' lon='151.11627678583'>
    <tag k='addr:housenumber' v='7' />
    <tag k='addr:street' v='Kemp Street' />
  </node>
  <node id='-214688' visible='true' lat='-33.83113542024' lon='151.11766391885'>
    <tag k='addr:housenumber' v='112' />
    <tag k='addr:street' v='Tennyson Road' />
  </node>
  <node id='-214690' visible='true' lat='-33.8300055491' lon='151.11892790569'>
    <tag k='addr:housenumber' v='14' />
    <tag k='addr:street' v='Champion Road' />
  </node>
  <node id='-214692' visible='true' lat='-33.8309163565' lon='151.11400621167'>
    <tag k='addr:housenumber' v='53' />
    <tag k='addr:street' v='Bayview Street' />
  </node>
  <node id='-214694' visible='true' lat='-33.83361967599' lon='151.11652303558'>
    <tag k='addr:housenumber' v='37' />
    <tag k='addr:street' v='Beach Street' />
  </node>
  <node id='-214696' visible='true' lat='-33.83074218768' lon='151.11922250539'>
    <tag k='addr:housenumber' v='24' />
    <tag k='addr:street' v='Champion Road' />
  </node>
  <node id='-214698' visible='true' lat='-33.83401566578' lon='151.11717099022'>
    <tag k='addr:housenumber' v='5' />
    <tag k='addr:street' v='Deeble Street' />
  </node>
  <node id='-214700' visible='true' lat='-33.82976244411' lon='151.11589212415'>
    <tag k='addr:housenumber' v='14' />
    <tag k='addr:street' v='Teemer Street' />
  </node>
  <node id='-214702' visible='true' lat='-33.83124826396' lon='151.11691358699'>
    <tag k='addr:housenumber' v='93' />
    <tag k='addr:street' v='Tennyson Road' />
  </node>
  <node id='-214704' visible='true' lat='-33.83023373079' lon='151.11778841519'>
    <tag k='addr:housenumber' v='102' />
    <tag k='addr:street' v='Tennyson Road' />
  </node>
  <node id='-214706' visible='true' lat='-33.83327259786' lon='151.1161618769'>
    <tag k='addr:housenumber' v='31' />
    <tag k='addr:street' v='Beach Street' />
  </node>
  <node id='-214708' visible='true' lat='-33.83533427463' lon='151.11557897257'>
    <tag k='addr:housenumber' v='141' />
    <tag k='addr:street' v='Tennyson Road' />
  </node>
  <node id='-214710' visible='true' lat='-33.83163816316' lon='151.11544437638'>
    <tag k='addr:housenumber' v='12' />
    <tag k='addr:street' v='Beach Street' />
  </node>
  <node id='-214712' visible='true' lat='-33.8347550553' lon='151.1173351818'>
    <tag k='addr:housenumber' v='71' />
    <tag k='addr:street' v='Champion Road' />
  </node>
  <node id='-214714' visible='true' lat='-33.83241898899' lon='151.11900915873'>
    <tag k='addr:housenumber' v='44A' />
    <tag k='addr:street' v='Champion Road' />
  </node>
  <node id='-214716' visible='true' lat='-33.83267883876' lon='151.11681052297'>
    <tag k='addr:housenumber' v='111' />
    <tag k='addr:street' v='Tennyson Road' />
  </node>
  <node id='-214718' visible='true' lat='-33.82880492071' lon='151.11831212162'>
    <tag k='addr:housenumber' v='86' />
    <tag k='addr:street' v='Tennyson Road' />
  </node>
  <node id='-214720' visible='true' lat='-33.82796579663' lon='151.11595805777'>
    <tag k='addr:housenumber' v='10' />
    <tag k='addr:street' v='Bayview Street' />
  </node>
  <node id='-214722' visible='true' lat='-33.83014990155' lon='151.1189663843'>
    <tag k='addr:housenumber' v='16' />
    <tag k='addr:street' v='Champion Road' />
  </node>
  <node id='-214724' visible='true' lat='-33.832653254' lon='151.116300894'>
    <tag k='addr:housenumber' v='20' />
    <tag k='addr:street' v='Beach Street' />
  </node>
  <node id='-214726' visible='true' lat='-33.83363224041' lon='151.11775536135'>
    <tag k='addr:housenumber' v='59' />
    <tag k='addr:street' v='Champion Road' />
  </node>
  <node id='-214728' visible='true' lat='-33.82723315265' lon='151.11622845506'>
    <tag k='addr:housenumber' v='124' />
    <tag k='addr:street' v='Morrison Road' />
  </node>
  <node id='-214730' visible='true' lat='-33.82821261004' lon='151.11514495908'>
    <tag k='addr:housenumber' v='19' />
    <tag k='addr:street' v='Bayview Street' />
  </node>
  <node id='-214732' visible='true' lat='-33.83009632599' lon='151.11824658987'>
    <tag k='addr:housenumber' v='17' />
    <tag k='addr:street' v='Champion Road' />
  </node>
  <node id='-214734' visible='true' lat='-33.83142916621' lon='151.11688846271'>
    <tag k='addr:housenumber' v='95' />
    <tag k='addr:street' v='Tennyson Road' />
  </node>
  <node id='-214736' visible='true' lat='-33.82946577016' lon='151.11643457024'>
    <tag k='addr:housenumber' v='11' />
    <tag k='addr:street' v='Teemer Street' />
  </node>
  <node id='-214738' visible='true' lat='-33.8320357369' lon='151.11753970635'>
    <tag k='addr:housenumber' v='122' />
    <tag k='addr:street' v='Tennyson Road' />
  </node>
  <node id='-214740' visible='true' lat='-33.83431378573' lon='151.11776953785'>
    <tag k='addr:housenumber' v='67' />
    <tag k='addr:street' v='Champion Road' />
  </node>
  <node id='-214742' visible='true' lat='-33.83604462647' lon='151.11720129733'>
    <tag k='addr:housenumber' v='88' />
    <tag k='addr:street' v='Champion Road' />
  </node>
  <node id='-214744' visible='true' lat='-33.83376686976' lon='151.11773588122'>
    <tag k='addr:housenumber' v='61' />
    <tag k='addr:street' v='Champion Road' />
  </node>
  <node id='-214746' visible='true' lat='-33.83329783043' lon='151.11736377732'>
    <tag k='addr:housenumber' v='136' />
    <tag k='addr:street' v='Tennyson Road' />
  </node>
  <node id='-214748' visible='true' lat='-33.83059476045' lon='151.11773850152'>
    <tag k='addr:housenumber' v='106' />
    <tag k='addr:street' v='Tennyson Road' />
  </node>
  <node id='-214750' visible='true' lat='-33.82947306713' lon='151.11484932132'>
    <tag k='addr:housenumber' v='33' />
    <tag k='addr:street' v='Bayview Street' />
  </node>
  <node id='-214752' visible='true' lat='-33.83231771084' lon='151.118557057'>
    <tag k='addr:housenumber' v='42' />
    <tag k='addr:street' v='Champion Road' />
  </node>
  <node id='-214754' visible='true' lat='-33.82947978389' lon='151.11836286464'>
    <tag k='addr:housenumber' v='11' />
    <tag k='addr:street' v='Champion Road' />
  </node>
  <node id='-214756' visible='true' lat='-33.83668309257' lon='151.116779364'>
    <tag k='addr:housenumber' v='98' />
    <tag k='addr:street' v='Champion Road' />
  </node>
  <node id='-214758' visible='true' lat='-33.83083037498' lon='151.1163743184'>
    <tag k='addr:housenumber' v='20' />
    <tag k='addr:street' v='Kemp Street' />
  </node>
  <node id='-214760' visible='true' lat='-33.8267864753' lon='151.11523577937'>
    <tag k='addr:housenumber' v='134' />
    <tag k='addr:street' v='Morrison Road' />
  </node>
  <node id='-214762' visible='true' lat='-33.83131490047' lon='151.1176387822'>
    <tag k='addr:housenumber' v='114' />
    <tag k='addr:street' v='Tennyson Road' />
  </node>
  <node id='-214764' visible='true' lat='-33.82771035379' lon='151.11601263156'>
    <tag k='addr:housenumber' v='6' />
    <tag k='addr:street' v='Bayview Street' />
  </node>
  <node id='-214766' visible='true' lat='-33.83171683712' lon='151.1180220641'>
    <tag k='addr:housenumber' v='37' />
    <tag k='addr:street' v='Champion Road' />
  </node>
  <node id='-214768' visible='true' lat='-33.8285599035' lon='151.11582336116'>
    <tag k='addr:housenumber' v='18A' />
    <tag k='addr:street' v='Bayview Street' />
  </node>
  <node id='-214770' visible='true' lat='-33.82900295461' lon='151.11903957937'>
    <tag k='addr:housenumber' v='1' />
    <tag k='addr:street' v='Champion Road' />
  </node>
  <node id='-214772' visible='true' lat='-33.83069200889' lon='151.11497061831'>
    <tag k='addr:housenumber' v='34' />
    <tag k='addr:street' v='Bayview Street' />
  </node>
  <node id='-214774' visible='true' lat='-33.83334018388' lon='151.11779601195'>
    <tag k='addr:housenumber' v='55' />
    <tag k='addr:street' v='Champion Road' />
  </node>
  <node id='-214776' visible='true' lat='-33.8292238602' lon='151.11867239595'>
    <tag k='addr:housenumber' v='5' />
    <tag k='addr:street' v='Champion Road' />
  </node>
  <node id='-214778' visible='true' lat='-33.83172280657' lon='151.11557379108'>
    <tag k='addr:housenumber' v='14' />
    <tag k='addr:street' v='Beach Street' />
  </node>
  <node id='-214780' visible='true' lat='-33.83293743166' lon='151.11741421932'>
    <tag k='addr:housenumber' v='132' />
    <tag k='addr:street' v='Tennyson Road' />
  </node>
  <node id='-214782' visible='true' lat='-33.83202928801' lon='151.11609379906'>
    <tag k='addr:housenumber' v='34' />
    <tag k='addr:street' v='Kemp Street' />
  </node>
  <node id='-214784' visible='true' lat='-33.83099606226' lon='151.11812162036'>
    <tag k='addr:housenumber' v='27' />
    <tag k='addr:street' v='Champion Road' />
  </node>
  <node id='-214786' visible='true' lat='-33.83457592466' lon='151.11849478722'>
    <tag k='addr:housenumber' v='68A' />
    <tag k='addr:street' v='Champion Road' />
  </node>
  <node id='-214788' visible='true' lat='-33.830219773' lon='151.11572513269'>
    <tag k='addr:housenumber' v='13' />
    <tag k='addr:street' v='Kemp Street' />
  </node>
  <node id='-214790' visible='true' lat='-33.83106723012' lon='151.11693889706'>
    <tag k='addr:housenumber' v='91' />
    <tag k='addr:street' v='Tennyson Road' />
  </node>
  <node id='-214792' action='modify' visible='true' lat='-33.82750594601' lon='151.11527280593'>
    <tag k='addr:housenumber' v='11' />
    <tag k='addr:street' v='Bayview Street' />
  </node>
  <node id='-214794' action='modify' visible='true' lat='-33.82749038674' lon='151.11524036474'>
    <tag k='addr:housenumber' v='1/11' />
    <tag k='addr:street' v='Bayview Street' />
  </node>
  <node id='-214796' action='modify' visible='true' lat='-33.82752150529' lon='151.11524036474'>
    <tag k='addr:housenumber' v='2/11' />
    <tag k='addr:street' v='Bayview Street' />
  </node>
  <node id='-214798' visible='true' lat='-33.8315541431' lon='151.11627335418'>
    <tag k='addr:housenumber' v='28' />
    <tag k='addr:street' v='Kemp Street' />
  </node>
  <node id='-214800' visible='true' lat='-33.82929516579' lon='151.11860321514'>
    <tag k='addr:housenumber' v='7' />
    <tag k='addr:street' v='Champion Road' />
  </node>
  <node id='-214802' visible='true' lat='-33.83185460289' lon='151.11611829939'>
    <tag k='addr:housenumber' v='32' />
    <tag k='addr:street' v='Kemp Street' />
  </node>
  <node id='-214804' visible='true' lat='-33.8281671632' lon='151.11753235803'>
    <tag k='addr:housenumber' v='108A' />
    <tag k='addr:street' v='Morrison Road' />
  </node>
  <node id='-214806' visible='true' lat='-33.82834698955' lon='151.11587152418'>
    <tag k='addr:housenumber' v='16' />
    <tag k='addr:street' v='Bayview Street' />
  </node>
  <node id='-214808' visible='true' lat='-33.8297783186' lon='151.11538053191'>
    <tag k='addr:housenumber' v='24' />
    <tag k='addr:street' v='Bayview Street' />
  </node>
  <node id='-214810' visible='true' lat='-33.83045622507' lon='151.1181965909'>
    <tag k='addr:housenumber' v='21' />
    <tag k='addr:street' v='Champion Road' />
  </node>
  <node id='-214812' visible='true' lat='-33.83687847512' lon='151.11626159832'>
    <tag k='addr:housenumber' v='102A' />
    <tag k='addr:street' v='Champion Road' />
  </node>
  <node id='-214814' visible='true' lat='-33.83635965437' lon='151.11531135428'>
    <tag k='addr:housenumber' v='155' />
    <tag k='addr:street' v='Tennyson Road' />
  </node>
  <node id='-214816' visible='true' lat='-33.83221664539' lon='151.11751443444'>
    <tag k='addr:housenumber' v='124' />
    <tag k='addr:street' v='Tennyson Road' />
  </node>
  <node id='-214818' visible='true' lat='-33.82990308298' lon='151.11968089723'>
    <tag k='addr:housenumber' v='102' />
    <tag k='addr:street' v='Morrison Road' />
  </node>
  <node id='-214820' visible='true' lat='-33.83000608018' lon='151.11730033115'>
    <tag k='addr:housenumber' v='1' />
    <tag k='addr:street' v='Teemer Street' />
  </node>
  <node id='-214822' visible='true' lat='-33.83488151906' lon='151.11672891035'>
    <tag k='addr:housenumber' v='154' />
    <tag k='addr:street' v='Tennyson Road' />
  </node>
  <node id='-214824' visible='true' lat='-33.83354388338' lon='151.11638377676'>
    <tag k='addr:housenumber' v='35' />
    <tag k='addr:street' v='Beach Street' />
  </node>
  <node id='-214826' visible='true' lat='-33.83269191226' lon='151.11863822325'>
    <tag k='addr:housenumber' v='46' />
    <tag k='addr:street' v='Champion Road' />
  </node>
  <node id='-214828' visible='true' lat='-33.8305266514' lon='151.11503111669'>
    <tag k='addr:housenumber' v='32' />
    <tag k='addr:street' v='Bayview Street' />
  </node>
  <node id='-214830' visible='true' lat='-33.83567257587' lon='151.11656851915'>
    <tag k='addr:housenumber' v='85' />
    <tag k='addr:street' v='Champion Road' />
  </node>
  <node id='-214832' visible='true' lat='-33.83463203539' lon='151.11820328217'>
    <tag k='addr:housenumber' v='70' />
    <tag k='addr:street' v='Champion Road' />
  </node>
  <node id='-214834' visible='true' lat='-33.8295251599' lon='151.11974378002'>
    <tag k='addr:housenumber' v='106' />
    <tag k='addr:street' v='Morrison Road' />
  </node>
  <node id='-214836' visible='true' lat='-33.82928144895' lon='151.11455856785'>
    <tag k='addr:housenumber' v='20' />
    <tag k='addr:street' v='Teemer Street' />
  </node>
  <node id='-214838' visible='true' lat='-33.82757024902' lon='151.11671224989'>
    <tag k='addr:housenumber' v='118' />
    <tag k='addr:street' v='Morrison Road' />
  </node>
  <node id='-214840' visible='true' lat='-33.82808756073' lon='151.11592963879'>
    <tag k='addr:housenumber' v='12' />
    <tag k='addr:street' v='Bayview Street' />
  </node>
  <node id='-214842' visible='true' lat='-33.83342482658' lon='151.11628150741'>
    <tag k='addr:housenumber' v='33' />
    <tag k='addr:street' v='Beach Street' />
  </node>
  <node id='-214844' visible='true' lat='-33.83047767177' lon='151.11432237114'>
    <tag k='addr:housenumber' v='45' />
    <tag k='addr:street' v='Bayview Street' />
  </node>
  <node id='-214846' visible='true' lat='-33.83267963581' lon='151.11569232466'>
    <tag k='addr:housenumber' v='23' />
    <tag k='addr:street' v='Beach Street' />
  </node>
  <node id='-214848' visible='true' lat='-33.83279878961' lon='151.11787120326'>
    <tag k='addr:housenumber' v='49' />
    <tag k='addr:street' v='Champion Road' />
  </node>
  <node id='-214850' visible='true' lat='-33.83672153472' lon='151.11536579752'>
    <tag k='addr:housenumber' v='159' />
    <tag k='addr:street' v='Tennyson Road' />
  </node>
  <node id='-214852' visible='true' lat='-33.82858557662' lon='151.11833264247'>
    <tag k='addr:housenumber' v='80' />
    <tag k='addr:street' v='Tennyson Road' />
  </node>
  <node id='-214854' visible='true' lat='-33.82769901534' lon='151.1168781797'>
    <tag k='addr:housenumber' v='116' />
    <tag k='addr:street' v='Morrison Road' />
  </node>
  <node id='-214856' visible='true' lat='-33.83311772282' lon='151.11738889488'>
    <tag k='addr:housenumber' v='134' />
    <tag k='addr:street' v='Tennyson Road' />
  </node>
  <node id='-214858' visible='true' lat='-33.8296450889' lon='151.11542719022'>
    <tag k='addr:housenumber' v='22' />
    <tag k='addr:street' v='Bayview Street' />
  </node>
  <node id='-214860' visible='true' lat='-33.83016725419' lon='151.11534329137'>
    <tag k='addr:housenumber' v='28A' />
    <tag k='addr:street' v='Bayview Street' />
  </node>
  <node id='-214862' visible='true' lat='-33.83177620352' lon='151.11416672732'>
    <tag k='addr:housenumber' v='3A' />
    <tag k='addr:street' v='Beach Street' />
  </node>
  <node id='-214864' visible='true' lat='-33.83054670783' lon='151.11931006501'>
    <tag k='addr:housenumber' v='20A' />
    <tag k='addr:street' v='Champion Road' />
  </node>
  <node id='-214866' visible='true' lat='-33.82714077939' lon='151.11609075879'>
    <tag k='addr:housenumber' v='126' />
    <tag k='addr:street' v='Morrison Road' />
  </node>
  <node id='-214868' visible='true' lat='-33.83014273546' lon='151.11653492264'>
    <tag k='addr:housenumber' v='8' />
    <tag k='addr:street' v='Teemer Street' />
  </node>
  <node id='-214870' visible='true' lat='-33.83517921376' lon='151.11647981104'>
    <tag k='addr:housenumber' v='158' />
    <tag k='addr:street' v='Tennyson Road' />
  </node>
  <node id='-214872' visible='true' lat='-33.83503796862' lon='151.11548911697'>
    <tag k='addr:housenumber' v='139' />
    <tag k='addr:street' v='Tennyson Road' />
  </node>
  <node id='-214874' visible='true' lat='-33.82786578259' lon='151.11529443827'>
    <tag k='addr:housenumber' v='15' />
    <tag k='addr:street' v='Bayview Street' />
  </node>
  <node id='-214876' visible='true' lat='-33.83349742603' lon='151.1177735907'>
    <tag k='addr:housenumber' v='57' />
    <tag k='addr:street' v='Champion Road' />
  </node>
  <node id='-214878' visible='true' lat='-33.82907589395' lon='151.11897696534'>
    <tag k='addr:housenumber' v='1A' />
    <tag k='addr:street' v='Champion Road' />
  </node>
  <node id='-214880' visible='true' lat='-33.83657622172' lon='151.11699963505'>
    <tag k='addr:housenumber' v='96' />
    <tag k='addr:street' v='Champion Road' />
  </node>
  <node id='-214882' visible='true' lat='-33.82746480028' lon='151.11654282235'>
    <tag k='addr:housenumber' v='120' />
    <tag k='addr:street' v='Morrison Road' />
  </node>
  <node id='-214884' visible='true' lat='-33.83093179868' lon='151.11554629186'>
    <tag k='addr:housenumber' v='21' />
    <tag k='addr:street' v='Kemp Street' />
  </node>
  <node id='-214886' visible='true' lat='-33.83054884596' lon='151.1170721519'>
    <tag k='addr:housenumber' v='87' />
    <tag k='addr:street' v='Tennyson Road' />
  </node>
  <node id='-214888' visible='true' lat='-33.83041442646' lon='151.11776318912'>
    <tag k='addr:housenumber' v='104' />
    <tag k='addr:street' v='Tennyson Road' />
  </node>
  <node id='-214890' visible='true' lat='-33.83160964084' lon='151.11686292487'>
    <tag k='addr:housenumber' v='97' />
    <tag k='addr:street' v='Tennyson Road' />
  </node>
  <node id='-214892' visible='true' lat='-33.83521556154' lon='151.11695041333'>
    <tag k='addr:housenumber' v='79' />
    <tag k='addr:street' v='Champion Road' />
  </node>
  <node id='-214894' visible='true' lat='-33.83189710963' lon='151.11799708254'>
    <tag k='addr:housenumber' v='39' />
    <tag k='addr:street' v='Champion Road' />
  </node>
  <node id='-214896' visible='true' lat='-33.83135682822' lon='151.11807179801'>
    <tag k='addr:housenumber' v='35' />
    <tag k='addr:street' v='Champion Road' />
  </node>
  <node id='-214898' visible='true' lat='-33.83395685857' lon='151.1185065073'>
    <tag k='addr:housenumber' v='62' />
    <tag k='addr:street' v='Champion Road' />
  </node>
  <node id='-214900' visible='true' lat='-33.82828844695' lon='151.11719404096'>
    <tag k='addr:housenumber' v='2' />
    <tag k='addr:street' v='Kemp Street' />
  </node>
  <node id='-214902' visible='true' lat='-33.82904141258' lon='151.11578278622'>
    <tag k='addr:housenumber' v='17' />
    <tag k='addr:street' v='Teemer Street' />
  </node>
  <node id='-214904' visible='true' lat='-33.82857488676' lon='151.11510897801'>
    <tag k='addr:housenumber' v='23' />
    <tag k='addr:street' v='Bayview Street' />
  </node>
  <node id='-214906' visible='true' lat='-33.8350672694' lon='151.11707465481'>
    <tag k='addr:housenumber' v='77' />
    <tag k='addr:street' v='Champion Road' />
  </node>
  <node id='-214908' visible='true' lat='-33.83027614042' lon='151.11822167815'>
    <tag k='addr:housenumber' v='19' />
    <tag k='addr:street' v='Champion Road' />
  </node>
  <node id='-214910' visible='true' lat='-33.83262262932' lon='151.11503001984'>
    <tag k='addr:housenumber' v='17A' />
    <tag k='addr:street' v='Beach Street' />
  </node>
  <node id='-214912' visible='true' lat='-33.82991531139' lon='151.11827184319'>
    <tag k='addr:housenumber' v='15' />
    <tag k='addr:street' v='Champion Road' />
  </node>
  <node id='-214914' visible='true' lat='-33.83547409679' lon='151.1177475001'>
    <tag k='addr:housenumber' v='78' />
    <tag k='addr:street' v='Champion Road' />
  </node>
  <node id='-214916' visible='true' lat='-33.83699713153' lon='151.11556727128'>
    <tag k='addr:housenumber' v='163' />
    <tag k='addr:street' v='Tennyson Road' />
  </node>
  <node id='-214918' visible='true' lat='-33.83585132316' lon='151.11512881682'>
    <tag k='addr:housenumber' v='149' />
    <tag k='addr:street' v='Tennyson Road' />
  </node>
  <node id='-214920' visible='true' lat='-33.83213049058' lon='151.11678973166'>
    <tag k='addr:housenumber' v='105' />
    <tag k='addr:street' v='Tennyson Road' />
  </node>
  <node id='-214922' visible='true' lat='-33.82821614276' lon='151.11590081332'>
    <tag k='addr:housenumber' v='14' />
    <tag k='addr:street' v='Bayview Street' />
  </node>
  <node id='-214924' visible='true' lat='-33.83582166004' lon='151.11644370274'>
    <tag k='addr:housenumber' v='87' />
    <tag k='addr:street' v='Champion Road' />
  </node>
  <node id='-214926' visible='true' lat='-33.83261839789' lon='151.11789655502'>
    <tag k='addr:housenumber' v='47' />
    <tag k='addr:street' v='Champion Road' />
  </node>
  <node id='-214928' visible='true' lat='-33.8367990485' lon='151.11664830676'>
    <tag k='addr:housenumber' v='100' />
    <tag k='addr:street' v='Champion Road' />
  </node>
  <node id='-214930' visible='true' lat='-33.83597075578' lon='151.11631969666'>
    <tag k='addr:housenumber' v='89' />
    <tag k='addr:street' v='Champion Road' />
  </node>
  <node id='-214932' visible='true' lat='-33.83141515119' lon='151.11867462233'>
    <tag k='addr:housenumber' v='34' />
    <tag k='addr:street' v='Champion Road' />
  </node>
  <node id='-214934' action='modify' visible='true' lat='-33.82875755773' lon='151.11622911276'>
    <tag k='addr:housenumber' v='9' />
    <tag k='addr:street' v='Kemp Street' />
  </node>
  <node id='-214936' action='modify' visible='true' lat='-33.82875755773' lon='151.1161858572'>
    <tag k='addr:housenumber' v='2/9' />
    <tag k='addr:street' v='Kemp Street' />
  </node>
  <node id='-214938' visible='true' lat='-33.82891388797' lon='151.11485242155'>
    <tag k='addr:housenumber' v='21' />
    <tag k='addr:street' v='Teemer Street' />
  </node>
  <node id='-214940' visible='true' lat='-33.83443453563' lon='151.11710270887'>
    <tag k='addr:housenumber' v='148' />
    <tag k='addr:street' v='Tennyson Road' />
  </node>
  <node id='-214942' visible='true' lat='-33.82705307479' lon='151.11595300639'>
    <tag k='addr:housenumber' v='128' />
    <tag k='addr:street' v='Morrison Road' />
  </node>
  <node id='-214944' visible='true' lat='-33.82913974183' lon='151.11593978512'>
    <tag k='addr:housenumber' v='15' />
    <tag k='addr:street' v='Teemer Street' />
  </node>
  <node id='-214946' visible='true' lat='-33.82855148845' lon='151.11758476069'>
    <tag k='addr:housenumber' v='71' />
    <tag k='addr:street' v='Tennyson Road' />
  </node>
  <node id='-214948' visible='true' lat='-33.83510276746' lon='151.11524828035'>
    <tag k='addr:housenumber' v='141A' />
    <tag k='addr:street' v='Tennyson Road' />
  </node>
  <node id='-214950' visible='true' lat='-33.82991220007' lon='151.11900143443'>
    <tag k='addr:housenumber' v='12' />
    <tag k='addr:street' v='Champion Road' />
  </node>
  <node id='-214952' visible='true' lat='-33.82930927948' lon='151.11498868405'>
    <tag k='addr:housenumber' v='31' />
    <tag k='addr:street' v='Bayview Street' />
  </node>
  <node id='-214954' visible='true' lat='-33.83063620189' lon='151.11817182892'>
    <tag k='addr:housenumber' v='23' />
    <tag k='addr:street' v='Champion Road' />
  </node>
  <node id='-214956' visible='true' lat='-33.8364199861' lon='151.11669014284'>
    <tag k='addr:housenumber' v='96A' />
    <tag k='addr:street' v='Champion Road' />
  </node>
  <node id='-214958' visible='true' lat='-33.83430709337' lon='151.11637908734'>
    <tag k='addr:housenumber' v='127' />
    <tag k='addr:street' v='Tennyson Road' />
  </node>
  <node id='-214960' visible='true' lat='-33.83005369171' lon='151.11781324194'>
    <tag k='addr:housenumber' v='100' />
    <tag k='addr:street' v='Tennyson Road' />
  </node>
  <node id='-214962' visible='true' lat='-33.83017970145' lon='151.11511011738'>
    <tag k='addr:housenumber' v='28' />
    <tag k='addr:street' v='Bayview Street' />
  </node>
  <node id='-214964' visible='true' lat='-33.82938125234' lon='151.11944136697'>
    <tag k='addr:housenumber' v='2A' />
    <tag k='addr:street' v='Champion Road' />
  </node>
  <node id='-214966' visible='true' lat='-33.83425315641' lon='151.11756548144'>
    <tag k='addr:housenumber' v='1' />
    <tag k='addr:street' v='Deeble Street' />
  </node>
  <node id='-214968' visible='true' lat='-33.8307511596' lon='151.11557053509'>
    <tag k='addr:housenumber' v='19' />
    <tag k='addr:street' v='Kemp Street' />
  </node>
  <node id='-214970' visible='true' lat='-33.83225201212' lon='151.1152172889'>
    <tag k='addr:housenumber' v='15' />
    <tag k='addr:street' v='Beach Street' />
  </node>
  <node id='-214972' visible='true' lat='-33.8358901041' lon='151.11731608401'>
    <tag k='addr:housenumber' v='86' />
    <tag k='addr:street' v='Champion Road' />
  </node>
  <node id='-214974' visible='true' lat='-33.83144983914' lon='151.11905046284'>
    <tag k='addr:housenumber' v='1' />
    <tag k='addr:street' v='Brett Street' />
  </node>
  <node id='-214976' visible='true' lat='-33.83177958993' lon='151.11863595343'>
    <tag k='addr:housenumber' v='36' />
    <tag k='addr:street' v='Champion Road' />
  </node>
  <node id='-214978' visible='true' lat='-33.83129413965' lon='151.11549451176'>
    <tag k='addr:housenumber' v='25' />
    <tag k='addr:street' v='Kemp Street' />
  </node>
  <node id='-214980' visible='true' lat='-33.828853467' lon='151.11734658278'>
    <tag k='addr:housenumber' v='75' />
    <tag k='addr:street' v='Tennyson Road' />
  </node>
  <node id='-214982' visible='true' lat='-33.83577438991' lon='151.11598223272'>
    <tag k='addr:housenumber' v='166' />
    <tag k='addr:street' v='Tennyson Road' />
  </node>
  <node id='-214984' visible='true' lat='-33.83254008138' lon='151.1155542027'>
    <tag k='addr:housenumber' v='19' />
    <tag k='addr:street' v='Beach Street' />
  </node>
  <node id='-214986' visible='true' lat='-33.82931461824' lon='151.11951245416'>
    <tag k='addr:housenumber' v='2' />
    <tag k='addr:street' v='Champion Road' />
  </node>
  <node id='-214988' visible='true' lat='-33.83077450433' lon='151.11771359388'>
    <tag k='addr:housenumber' v='108' />
    <tag k='addr:street' v='Tennyson Road' />
  </node>
  <node id='-214990' visible='true' lat='-33.83232034784' lon='151.1167636251'>
    <tag k='addr:housenumber' v='107' />
    <tag k='addr:street' v='Tennyson Road' />
  </node>
  <node id='-214992' visible='true' lat='-33.83384648597' lon='151.11728762631'>
    <tag k='addr:housenumber' v='144' />
    <tag k='addr:street' v='Tennyson Road' />
  </node>
  <node id='-214994' visible='true' lat='-33.83300368616' lon='151.1158713635'>
    <tag k='addr:housenumber' v='27' />
    <tag k='addr:street' v='Beach Street' />
  </node>
  <node id='-214996' visible='true' lat='-33.82967962313' lon='151.11921855328'>
    <tag k='addr:housenumber' v='8' />
    <tag k='addr:street' v='Champion Road' />
  </node>
  <node id='-214998' visible='true' lat='-33.8300395347' lon='151.11575058033'>
    <tag k='addr:housenumber' v='13A' />
    <tag k='addr:street' v='Kemp Street' />
  </node>
  <node id='-215000' visible='true' lat='-33.82984061533' lon='151.11425445952'>
    <tag k='addr:housenumber' v='39A' />
    <tag k='addr:street' v='Bayview Street' />
  </node>
  <node id='-215002' visible='true' lat='-33.83113394576' lon='151.1150176445'>
    <tag k='addr:housenumber' v='4' />
    <tag k='addr:street' v='Beach Street' />
  </node>
  <node id='-215004' visible='true' lat='-33.83463084625' lon='151.11743928332'>
    <tag k='addr:housenumber' v='69' />
    <tag k='addr:street' v='Champion Road' />
  </node>
  <node id='-215006' visible='true' lat='-33.83178919341' lon='151.1168374848'>
    <tag k='addr:housenumber' v='99' />
    <tag k='addr:street' v='Tennyson Road' />
  </node>
  <node id='-215008' visible='true' lat='-33.83020853567' lon='151.11668184915'>
    <tag k='addr:housenumber' v='6' />
    <tag k='addr:street' v='Teemer Street' />
  </node>
  <node id='-215010' visible='true' lat='-33.83377718742' lon='151.11851467827'>
    <tag k='addr:housenumber' v='58' />
    <tag k='addr:street' v='Champion Road' />
  </node>
  <node id='-215012' visible='true' lat='-33.8302196099' lon='151.11945530844'>
    <tag k='addr:housenumber' v='16A' />
    <tag k='addr:street' v='Champion Road' />
  </node>
  <node id='-215014' visible='true' lat='-33.83021864581' lon='151.11429825395'>
    <tag k='addr:housenumber' v='41A' />
    <tag k='addr:street' v='Bayview Street' />
  </node>
  <node id='-215016' visible='true' lat='-33.83091995718' lon='151.11914472032'>
    <tag k='addr:housenumber' v='28' />
    <tag k='addr:street' v='Champion Road' />
  </node>
  <node id='-215018' visible='true' lat='-33.8309548183' lon='151.11768829477'>
    <tag k='addr:housenumber' v='110' />
    <tag k='addr:street' v='Tennyson Road' />
  </node>
  <node id='-215020' visible='true' lat='-33.83627035271' lon='151.1160485718'>
    <tag k='addr:housenumber' v='93' />
    <tag k='addr:street' v='Champion Road' />
  </node>
  <node id='-215022' visible='true' lat='-33.82839384426' lon='151.11512697902'>
    <tag k='addr:housenumber' v='21' />
    <tag k='addr:street' v='Bayview Street' />
  </node>
  <node id='-215024' visible='true' lat='-33.82799923003' lon='151.11727948531'>
    <tag k='addr:housenumber' v='112' />
    <tag k='addr:street' v='Morrison Road' />
  </node>
  <node id='-215026' visible='true' lat='-33.83251362953' lon='151.11853355553'>
    <tag k='addr:housenumber' v='44' />
    <tag k='addr:street' v='Champion Road' />
  </node>
  <node id='-215028' visible='true' lat='-33.83088687661' lon='151.1169641432'>
    <tag k='addr:housenumber' v='89' />
    <tag k='addr:street' v='Tennyson Road' />
  </node>
  <node id='-215030' visible='true' lat='-33.82822406295' lon='151.11641512734'>
    <tag k='addr:housenumber' v='3' />
    <tag k='addr:street' v='Kemp Street' />
  </node>
  <node id='-215032' visible='true' lat='-33.83275692012' lon='151.11743893716'>
    <tag k='addr:housenumber' v='130' />
    <tag k='addr:street' v='Tennyson Road' />
  </node>
  <node id='-215034' visible='true' lat='-33.8287557864' lon='151.11506845565'>
    <tag k='addr:housenumber' v='25' />
    <tag k='addr:street' v='Bayview Street' />
  </node>
  <node id='-215036' visible='true' lat='-33.83544906027' lon='151.11675443906'>
    <tag k='addr:housenumber' v='83A' />
    <tag k='addr:street' v='Champion Road' />
  </node>
  <node id='-215038' visible='true' lat='-33.83375065368' lon='151.11658815858'>
    <tag k='addr:housenumber' v='39' />
    <tag k='addr:street' v='Beach Street' />
  </node>
  <node id='-215040' visible='true' lat='-33.83535077778' lon='151.11683845183'>
    <tag k='addr:housenumber' v='81' />
    <tag k='addr:street' v='Champion Road' />
  </node>
  <node id='-215042' visible='true' lat='-33.83302416617' lon='151.11844382244'>
    <tag k='addr:housenumber' v='50' />
    <tag k='addr:street' v='Champion Road' />
  </node>
  <node id='-215044' visible='true' lat='-33.82879276531' lon='151.11691851524'>
    <tag k='addr:housenumber' v='8' />
    <tag k='addr:street' v='Kemp Street' />
  </node>
  <node id='-215046' visible='true' lat='-33.83004906393' lon='151.11625755978'>
    <tag k='addr:housenumber' v='12' />
    <tag k='addr:street' v='Teemer Street' />
  </node>
  <node id='-215048' visible='true' lat='-33.8327311424' lon='151.11521911577'>
    <tag k='addr:housenumber' v='19A' />
    <tag k='addr:street' v='Beach Street' />
  </node>
  <node id='-215050' visible='true' lat='-33.83180798817' lon='151.11898022559'>
    <tag k='addr:housenumber' v='2' />
    <tag k='addr:street' v='Brett Street' />
  </node>
  <node id='-215052' visible='true' lat='-33.83243843171' lon='151.11792164448'>
    <tag k='addr:housenumber' v='45' />
    <tag k='addr:street' v='Champion Road' />
  </node>
  <node id='-215054' visible='true' lat='-33.83283834495' lon='151.1154012106'>
    <tag k='addr:housenumber' v='21' />
    <tag k='addr:street' v='Beach Street' />
  </node>
  <node id='-215056' visible='true' lat='-33.82844541258' lon='151.11708142084'>
    <tag k='addr:housenumber' v='4' />
    <tag k='addr:street' v='Kemp Street' />
  </node>
  <node id='-215058' visible='true' lat='-33.82957556229' lon='151.11929389894'>
    <tag k='addr:housenumber' v='6' />
    <tag k='addr:street' v='Champion Road' />
  </node>
  <node id='-215060' visible='true' lat='-33.82826147831' lon='151.1178630043'>
    <tag k='addr:housenumber' v='67' />
    <tag k='addr:street' v='Tennyson Road' />
  </node>
  <node id='-215062' visible='true' lat='-33.83473251207' lon='151.11685319147'>
    <tag k='addr:housenumber' v='152' />
    <tag k='addr:street' v='Tennyson Road' />
  </node>
  <node id='-215064' visible='true' lat='-33.83119222221' lon='151.11620750157'>
    <tag k='addr:housenumber' v='24' />
    <tag k='addr:street' v='Kemp Street' />
  </node>
  <node id='-215066' visible='true' lat='-33.82655613666' lon='151.11524509445'>
    <tag k='addr:housenumber' v='136' />
    <tag k='addr:street' v='Morrison Road' />
  </node>
  <node id='-215068' visible='true' lat='-33.8357004806' lon='151.11512132507'>
    <tag k='addr:housenumber' v='147' />
    <tag k='addr:street' v='Tennyson Road' />
  </node>
  <node id='-215070' visible='true' lat='-33.83030428156' lon='151.11396035265'>
    <tag k='addr:housenumber' v='45A' />
    <tag k='addr:street' v='Bayview Street' />
  </node>
  <node id='-215072' visible='true' lat='-33.83086797719' lon='151.11490740782'>
    <tag k='addr:housenumber' v='36' />
    <tag k='addr:street' v='Bayview Street' />
  </node>
  <node id='-215074' visible='true' lat='-33.83149510354' lon='151.11527823545'>
    <tag k='addr:housenumber' v='10' />
    <tag k='addr:street' v='Beach Street' />
  </node>
  <node id='-215076' visible='true' lat='-33.83225903047' lon='151.11794659748'>
    <tag k='addr:housenumber' v='43' />
    <tag k='addr:street' v='Champion Road' />
  </node>
  <node id='-215078' visible='true' lat='-33.82888377576' lon='151.11877971931'>
    <tag k='addr:housenumber' v='106A' />
    <tag k='addr:street' v='Morrison Road' />
  </node>
  <node id='-215080' visible='true' lat='-33.82892028633' lon='151.11563569614'>
    <tag k='addr:housenumber' v='19' />
    <tag k='addr:street' v='Teemer Street' />
  </node>
  <node id='-215082' visible='true' lat='-33.83171978987' lon='151.11758299473'>
    <tag k='addr:housenumber' v='118' />
    <tag k='addr:street' v='Tennyson Road' />
  </node>
  <node id='-215084' visible='true' lat='-33.83035656926' lon='151.11516536431'>
    <tag k='addr:housenumber' v='30' />
    <tag k='addr:street' v='Bayview Street' />
  </node>
  <node id='-215086' visible='true' lat='-33.8368172757' lon='151.11646197211'>
    <tag k='addr:housenumber' v='102' />
    <tag k='addr:street' v='Champion Road' />
  </node>
  <node id='-215088' visible='true' lat='-33.83147401795' lon='151.11399246327'>
    <tag k='addr:housenumber' v='40' />
    <tag k='addr:street' v='Bayview Street' />
  </node>
  <node id='-215090' visible='true' lat='-33.8319657312' lon='151.11636030835'>
    <tag k='addr:housenumber' v='32A' />
    <tag k='addr:street' v='Kemp Street' />
  </node>
  <node id='-215092' visible='true' lat='-33.82945671262' lon='151.11439603015'>
    <tag k='addr:housenumber' v='22' />
    <tag k='addr:street' v='Teemer Street' />
  </node>
  <node id='-215094' visible='true' lat='-33.83062387829' lon='151.11676888495'>
    <tag k='addr:housenumber' v='87B' />
    <tag k='addr:street' v='Tennyson Road' />
  </node>
  <node id='-215096' visible='true' lat='-33.83012503863' lon='151.11393559105'>
    <tag k='addr:housenumber' v='43' />
    <tag k='addr:street' v='Bayview Street' />
  </node>
  <node id='-215098' visible='true' lat='-33.83213568314' lon='151.11473788488'>
    <tag k='addr:housenumber' v='11' />
    <tag k='addr:street' v='Beach Street' />
  </node>
  <node id='-215100' visible='true' lat='-33.83117671167' lon='151.11809714393'>
    <tag k='addr:housenumber' v='33' />
    <tag k='addr:street' v='Champion Road' />
  </node>
  <node id='-215102' visible='true' lat='-33.82861535779' lon='151.11698826046'>
    <tag k='addr:housenumber' v='6' />
    <tag k='addr:street' v='Kemp Street' />
  </node>
  <node id='-215104' visible='true' lat='-33.82972124913' lon='151.11974831015'>
    <tag k='addr:housenumber' v='104' />
    <tag k='addr:street' v='Morrison Road' />
  </node>
  <node id='-215106' visible='true' lat='-33.83686182213' lon='151.11543938701'>
    <tag k='addr:housenumber' v='161' />
    <tag k='addr:street' v='Tennyson Road' />
  </node>
  <node id='-215108' visible='true' lat='-33.83502963928' lon='151.11660473722'>
    <tag k='addr:housenumber' v='156' />
    <tag k='addr:street' v='Tennyson Road' />
  </node>
  <node id='-215110' visible='true' lat='-33.83285958118' lon='151.11678570736'>
    <tag k='addr:housenumber' v='113-115' />
    <tag k='addr:street' v='Tennyson Road' />
  </node>
  <node id='-215112' visible='true' lat='-33.82894730312' lon='151.11817670706'>
    <tag k='addr:housenumber' v='88' />
    <tag k='addr:street' v='Tennyson Road' />
  </node>
  <node id='-215114' visible='true' lat='-33.82987587836' lon='151.11535653332'>
    <tag k='addr:housenumber' v='24A' />
    <tag k='addr:street' v='Bayview Street' />
  </node>
  <node id='-215116' visible='true' lat='-33.82948025646' lon='151.11938678906'>
    <tag k='addr:housenumber' v='4' />
    <tag k='addr:street' v='Champion Road' />
  </node>
  <node id='-215118' visible='true' lat='-33.82975227192' lon='151.11464639732'>
    <tag k='addr:housenumber' v='37' />
    <tag k='addr:street' v='Bayview Street' />
  </node>
  <node id='-215120' visible='true' lat='-33.83053023749' lon='151.1163683898'>
    <tag k='addr:housenumber' v='16A' />
    <tag k='addr:street' v='Kemp Street' />
  </node>
  <node id='-215122' visible='true' lat='-33.83487283302' lon='151.1159881195'>
    <tag k='addr:housenumber' v='135' />
    <tag k='addr:street' v='Tennyson Road' />
  </node>
  <node id='-215124' visible='true' lat='-33.83530295584' lon='151.11637722789'>
    <tag k='addr:housenumber' v='160' />
    <tag k='addr:street' v='Tennyson Road' />
  </node>
  <node id='-215126' visible='true' lat='-33.82945203376' lon='151.11549208708'>
    <tag k='addr:housenumber' v='18' />
    <tag k='addr:street' v='Teemer Street' />
  </node>
  <node id='-215128' visible='true' lat='-33.83201239305' lon='151.11680691804'>
    <tag k='addr:housenumber' v='103' />
    <tag k='addr:street' v='Tennyson Road' />
  </node>
  <node id='-215130' visible='true' lat='-33.83185481537' lon='151.11756488161'>
    <tag k='addr:housenumber' v='120' />
    <tag k='addr:street' v='Tennyson Road' />
  </node>
  <node id='-215132' visible='true' lat='-33.82803297591' lon='151.11528226513'>
    <tag k='addr:housenumber' v='17' />
    <tag k='addr:street' v='Bayview Street' />
  </node>
  <node id='-215134' visible='true' lat='-33.83485513887' lon='151.11725228404'>
    <tag k='addr:housenumber' v='73' />
    <tag k='addr:street' v='Champion Road' />
  </node>
  <node id='-215136' visible='true' lat='-33.83516146569' lon='151.11796661362'>
    <tag k='addr:housenumber' v='74' />
    <tag k='addr:street' v='Champion Road' />
  </node>
  <node id='-215138' visible='true' lat='-33.8355189584' lon='151.11517124756'>
    <tag k='addr:housenumber' v='145' />
    <tag k='addr:street' v='Tennyson Road' />
  </node>
  <node id='-215140' visible='true' lat='-33.83239606383' lon='151.11748950699'>
    <tag k='addr:housenumber' v='126' />
    <tag k='addr:street' v='Tennyson Road' />
  </node>
  <node id='-215142' visible='true' lat='-33.82894980673' lon='151.11516559092'>
    <tag k='addr:housenumber' v='27' />
    <tag k='addr:street' v='Bayview Street' />
  </node>
  <node id='-215144' visible='true' lat='-33.83611845781' lon='151.11619596366'>
    <tag k='addr:housenumber' v='91' />
    <tag k='addr:street' v='Champion Road' />
  </node>
  <node id='-215146' visible='true' lat='-33.83431630578' lon='151.11843260847'>
    <tag k='addr:housenumber' v='66' />
    <tag k='addr:street' v='Champion Road' />
  </node>
  <node id='-215148' action='modify' visible='true' lat='-33.82808074081' lon='151.11742529957'>
    <tag k='addr:housenumber' v='110' />
    <tag k='addr:street' v='Morrison Road' />
  </node>
  <node id='-215150' action='modify' visible='true' lat='-33.82808074081' lon='151.11738204436'>
    <tag k='addr:housenumber' v='110B' />
    <tag k='addr:street' v='Morrison Road' />
  </node>
  <node id='-215152' visible='true' lat='-33.8275050287' lon='151.11597155827'>
    <tag k='addr:housenumber' v='4' />
    <tag k='addr:street' v='Bayview Street' />
  </node>
  <node id='-215154' visible='true' lat='-33.83663699305' lon='151.1161773481'>
    <tag k='addr:housenumber' v='104' />
    <tag k='addr:street' v='Champion Road' />
  </node>
  <node id='-215156' visible='true' lat='-33.83054176344' lon='151.11888273354'>
    <tag k='addr:housenumber' v='20' />
    <tag k='addr:street' v='Champion Road' />
  </node>
  <node id='-215158' visible='true' lat='-33.83600016668' lon='151.11523627101'>
    <tag k='addr:housenumber' v='151' />
    <tag k='addr:street' v='Tennyson Road' />
  </node>
  <node id='-215160' visible='true' lat='-33.82908916927' lon='151.11804052652'>
    <tag k='addr:housenumber' v='90' />
    <tag k='addr:street' v='Tennyson Road' />
  </node>
  <node id='-215162' visible='true' lat='-33.83192299074' lon='151.11681973374'>
    <tag k='addr:housenumber' v='101' />
    <tag k='addr:street' v='Tennyson Road' />
  </node>
  <node id='-215164' visible='true' lat='-33.83562525184' lon='151.11610637633'>
    <tag k='addr:housenumber' v='164' />
    <tag k='addr:street' v='Tennyson Road' />
  </node>
  <node id='-215166' visible='true' lat='-33.83068318342' lon='151.11881861405'>
    <tag k='addr:housenumber' v='22' />
    <tag k='addr:street' v='Champion Road' />
  </node>
  <node id='-215168' visible='true' lat='-33.83446781051' lon='151.11848627725'>
    <tag k='addr:housenumber' v='68' />
    <tag k='addr:street' v='Champion Road' />
  </node>
  <node id='-215170' visible='true' lat='-33.82840218467' lon='151.11634577494'>
    <tag k='addr:housenumber' v='5' />
    <tag k='addr:street' v='Kemp Street' />
  </node>
  <node id='-215172' visible='true' lat='-33.83389508195' lon='151.11658732164'>
    <tag k='addr:housenumber' v='121' />
    <tag k='addr:street' v='Tennyson Road' />
  </node>
  <node id='-215174' visible='true' lat='-33.83549967149' lon='151.11621149595'>
    <tag k='addr:housenumber' v='162' />
    <tag k='addr:street' v='Tennyson Road' />
  </node>
  <node id='-215176' visible='true' lat='-33.83069578208' lon='151.11704375143'>
    <tag k='addr:housenumber' v='87A' />
    <tag k='addr:street' v='Tennyson Road' />
  </node>
  <node id='-215178' visible='true' lat='-33.83320060762' lon='151.11682483935'>
    <tag k='addr:housenumber' v='119' />
    <tag k='addr:street' v='Tennyson Road' />
  </node>
  <node id='-215180' visible='true' lat='-33.83197153086' lon='151.1187582434'>
    <tag k='addr:housenumber' v='38' />
    <tag k='addr:street' v='Champion Road' />
  </node>
  <node id='-215182' visible='true' lat='-33.83614786247' lon='151.11583908151'>
    <tag k='addr:housenumber' v='170' />
    <tag k='addr:street' v='Tennyson Road' />
  </node>
  <node id='-215184' visible='true' lat='-33.83413747899' lon='151.11848826304'>
    <tag k='addr:housenumber' v='64' />
    <tag k='addr:street' v='Champion Road' />
  </node>
  <node id='-215186' visible='true' lat='-33.83111281954' lon='151.1155199798'>
    <tag k='addr:housenumber' v='23' />
    <tag k='addr:street' v='Kemp Street' />
  </node>
  <node id='-215188' visible='true' lat='-33.83039308117' lon='151.11638774873'>
    <tag k='addr:housenumber' v='16' />
    <tag k='addr:street' v='Kemp Street' />
  </node>
  <node id='-215190' visible='true' lat='-33.83028995951' lon='151.11687389925'>
    <tag k='addr:housenumber' v='2' />
    <tag k='addr:street' v='Teemer Street' />
  </node>
  <node id='-215192' visible='true' lat='-33.83009586252' lon='151.11639612478'>
    <tag k='addr:housenumber' v='10' />
    <tag k='addr:street' v='Teemer Street' />
  </node>
  <node id='-215194' visible='true' lat='-33.83013904877' lon='151.11447449059'>
    <tag k='addr:housenumber' v='41' />
    <tag k='addr:street' v='Bayview Street' />
  </node>
  <node id='-215196' visible='true' lat='-33.82998236923' lon='151.11418077604'>
    <tag k='addr:housenumber' v='41B' />
    <tag k='addr:street' v='Bayview Street' />
  </node>
  <node id='-215198' visible='true' lat='-33.83523874894' lon='151.11768372423'>
    <tag k='addr:housenumber' v='76A' />
    <tag k='addr:street' v='Champion Road' />
  </node>
  <node id='-215200' visible='true' lat='-33.83538117285' lon='151.11798942454'>
    <tag k='addr:housenumber' v='76' />
    <tag k='addr:street' v='Champion Road' />
  </node>
  <node id='-215202' visible='true' lat='-33.83504713672' lon='151.1158471729'>
    <tag k='addr:housenumber' v='137' />
    <tag k='addr:street' v='Tennyson Road' />
  </node>
  <node id='-215204' visible='true' lat='-33.83484251102' lon='151.1155412019'>
    <tag k='addr:housenumber' v='137A' />
    <tag k='addr:street' v='Tennyson Road' />
  </node>
  <node id='-215206' visible='true' lat='-33.82918013616' lon='151.11431335325'>
    <tag k='addr:housenumber' v='24' />
    <tag k='addr:street' v='Teemer Street' />
  </node>
  <node id='-215208' visible='true' lat='-33.83442883684' lon='151.11629377429'>
    <tag k='addr:housenumber' v='129' />
    <tag k='addr:street' v='Tennyson Road' />
  </node>
  <node id='-215210' visible='true' lat='-33.83208897218' lon='151.11511174529'>
    <tag k='addr:housenumber' v='13' />
    <tag k='addr:street' v='Beach Street' />
  </node>
  <node id='-215212' visible='true' lat='-33.83239120405' lon='151.11472357991'>
    <tag k='addr:housenumber' v='13A' />
    <tag k='addr:street' v='Beach Street' />
  </node>
  <node id='-215214' visible='true' lat='-33.83125377471' lon='151.11871538413'>
    <tag k='addr:housenumber' v='32' />
    <tag k='addr:street' v='Champion Road' />
  </node>
  <node id='-215216' visible='true' lat='-33.8312574198' lon='151.11905047227'>
    <tag k='addr:housenumber' v='32A' />
    <tag k='addr:street' v='Champion Road' />
  </node>
  <node id='-215218' visible='true' lat='-33.83057882949' lon='151.11418967408'>
    <tag k='addr:housenumber' v='47' />
    <tag k='addr:street' v='Bayview Street' />
  </node>
  <node id='-215220' visible='true' lat='-33.83046723698' lon='151.1138100507'>
    <tag k='addr:housenumber' v='47A' />
    <tag k='addr:street' v='Bayview Street' />
  </node>
  <node id='-215222' visible='true' lat='-33.8329943866' lon='151.11909726978'>
    <tag k='addr:housenumber' v='82D' />
    <tag k='addr:street' v='Morrison Road' />
  </node>
  <node id='-215224' visible='true' lat='-33.83076865378' lon='151.1141340718'>
    <tag k='addr:housenumber' v='49' />
    <tag k='addr:street' v='Bayview Street' />
  </node>
  <node id='-215226' visible='true' lat='-33.83316738594' lon='151.11596945428'>
    <tag k='addr:housenumber' v='29' />
    <tag k='addr:street' v='Beach Street' />
  </node>
  <node id='-215228' visible='true' lat='-33.83559736097' lon='151.11762161974'>
    <tag k='addr:housenumber' v='80' />
    <tag k='addr:street' v='Champion Road' />
  </node>
  <node id='-215230' visible='true' lat='-33.83576947184' lon='151.11741758525'>
    <tag k='addr:housenumber' v='84' />
    <tag k='addr:street' v='Champion Road' />
  </node>
  <node id='-215232' visible='true' lat='-33.83573667396' lon='151.11759165218'>
    <tag k='addr:housenumber' v='82' />
    <tag k='addr:street' v='Champion Road' />
  </node>
  <node id='-215234' visible='true' lat='-33.82968658244' lon='151.11716885767'>
    <tag k='addr:housenumber' v='83A' />
    <tag k='addr:street' v='Tennyson Road' />
  </node>
  <node id='-215236' visible='true' lat='-33.8297572475' lon='151.11691719548'>
    <tag k='addr:housenumber' v='5B' />
    <tag k='addr:street' v='Teemer Street' />
  </node>
  <node id='-215238' visible='true' lat='-33.8298127939' lon='151.11700551586'>
    <tag k='addr:housenumber' v='5A' />
    <tag k='addr:street' v='Teemer Street' />
  </node>
  <node id='-215240' visible='true' lat='-33.82964727699' lon='151.11674184892'>
    <tag k='addr:housenumber' v='7B' />
    <tag k='addr:street' v='Teemer Street' />
  </node>
  <node id='-215242' visible='true' lat='-33.82970355773' lon='151.11682896572'>
    <tag k='addr:housenumber' v='7A' />
    <tag k='addr:street' v='Teemer Street' />
  </node>
  <node id='-215244' visible='true' lat='-33.83465565581' lon='151.11597545143'>
    <tag k='addr:housenumber' v='133' />
    <tag k='addr:street' v='Tennyson Road' />
  </node>
  <node id='-215246' visible='true' lat='-33.83453967233' lon='151.11614870343'>
    <tag k='addr:housenumber' v='131' />
    <tag k='addr:street' v='Tennyson Road' />
  </node>
  <node id='-215248' action='modify' visible='true' lat='-33.83134111754' lon='151.11511806335'>
    <tag k='addr:housenumber' v='6' />
    <tag k='addr:street' v='Beach Street' />
  </node>
  <node id='-215250' action='modify' visible='true' lat='-33.83134111754' lon='151.11507480649'>
    <tag k='addr:housenumber' v='8' />
    <tag k='addr:street' v='Beach Street' />
  </node>
  <node id='-215252' action='modify' visible='true' lat='-33.83081630221' lon='151.11816850793'>
    <tag k='addr:housenumber' v='25' />
    <tag k='addr:street' v='Champion Road' />
  </node>
  <node id='-215254' action='modify' visible='true' lat='-33.83081630221' lon='151.11812525134'>
    <tag k='addr:housenumber' v='25A' />
    <tag k='addr:street' v='Champion Road' />
  </node>
</osm>
