<?xml version='1.0' encoding='UTF-8'?>
<osm version='0.6' generator='JOSM'>
  <node id='-1540976' visible='true' lat='-33.830195' lon='151.077207'>
    <tag k='addr:housenumber' v='53' />
    <tag k='addr:street' v='Baywater Drive' />
  </node>
  <node id='-1540980' visible='true' lat='-33.831124' lon='151.074634'>
    <tag k='addr:housenumber' v='1-3' />
    <tag k='addr:street' v='The Crescent' />
  </node>
  <node id='-1540982' visible='true' lat='-33.829666' lon='151.074578'>
    <tag k='addr:housenumber' v='15' />
    <tag k='addr:street' v='Corniche Drive' />
  </node>
  <node id='-1540984' action='modify' visible='true' lat='-33.827465' lon='151.07702737255'>
    <tag k='addr:housenumber' v='37-39' />
    <tag k='addr:street' v='Hill Road' />
  </node>
  <node id='-1540986' action='modify' visible='true' lat='-33.827465' lon='151.07707062745'>
    <tag k='addr:housenumber' v='39' />
    <tag k='addr:street' v='Hill Road' />
  </node>
  <node id='-1540988' visible='true' lat='-33.830883' lon='151.074231'>
    <tag k='addr:housenumber' v='9' />
    <tag k='addr:street' v='The Crescent' />
  </node>
  <node id='-1540990' visible='true' lat='-33.831151' lon='151.072664'>
    <tag k='addr:housenumber' v='23' />
    <tag k='addr:street' v='Bennelong Parkway' />
  </node>
  <node id='5120843097' action='modify' timestamp='2017-09-21T23:08:52Z' uid='1723158' user='ozhiker2' visible='true' version='1' changeset='52259692' lat='-33.8289823' lon='151.0779393' />
  <node id='5120843098' action='modify' timestamp='2017-09-21T23:08:52Z' uid='1723158' user='ozhiker2' visible='true' version='1' changeset='52259692' lat='-33.8289582' lon='151.0778982' />
  <node id='5120843099' action='modify' timestamp='2017-09-21T23:08:52Z' uid='1723158' user='ozhiker2' visible='true' version='1' changeset='52259692' lat='-33.8292289' lon='151.0776687' />
  <node id='5120843100' action='modify' timestamp='2017-09-21T23:08:52Z' uid='1723158' user='ozhiker2' visible='true' version='1' changeset='52259692' lat='-33.8292206' lon='151.0776544' />
  <node id='5120843101' action='modify' timestamp='2017-09-21T23:08:52Z' uid='1723158' user='ozhiker2' visible='true' version='1' changeset='52259692' lat='-33.8294172' lon='151.0774877' />
  <node id='5120843102' action='modify' timestamp='2017-09-21T23:08:52Z' uid='1723158' user='ozhiker2' visible='true' version='1' changeset='52259692' lat='-33.8294035' lon='151.0774642' />
  <node id='5120843103' action='modify' timestamp='2017-09-21T23:08:52Z' uid='1723158' user='ozhiker2' visible='true' version='1' changeset='52259692' lat='-33.8294344' lon='151.077438' />
  <node id='5120843104' action='modify' timestamp='2017-09-21T23:08:52Z' uid='1723158' user='ozhiker2' visible='true' version='1' changeset='52259692' lat='-33.8294009' lon='151.0773806' />
  <node id='5120843105' action='modify' timestamp='2017-09-21T23:08:52Z' uid='1723158' user='ozhiker2' visible='true' version='1' changeset='52259692' lat='-33.8293718' lon='151.0774053' />
  <node id='5120843106' action='modify' timestamp='2017-09-21T23:08:52Z' uid='1723158' user='ozhiker2' visible='true' version='1' changeset='52259692' lat='-33.8293205' lon='151.0773177' />
  <node id='5120843107' action='modify' timestamp='2017-09-21T23:08:52Z' uid='1723158' user='ozhiker2' visible='true' version='1' changeset='52259692' lat='-33.829552' lon='151.0771214' />
  <node id='5120843108' action='modify' timestamp='2017-09-21T23:08:52Z' uid='1723158' user='ozhiker2' visible='true' version='1' changeset='52259692' lat='-33.829314' lon='151.0767145' />
  <node id='5120843109' action='modify' timestamp='2017-09-21T23:08:52Z' uid='1723158' user='ozhiker2' visible='true' version='1' changeset='52259692' lat='-33.8293487' lon='151.0766851' />
  <node id='5120843110' action='modify' timestamp='2017-09-21T23:08:52Z' uid='1723158' user='ozhiker2' visible='true' version='1' changeset='52259692' lat='-33.8297579' lon='151.0773843' />
  <node id='5120843111' action='modify' timestamp='2017-09-21T23:08:52Z' uid='1723158' user='ozhiker2' visible='true' version='1' changeset='52259692' lat='-33.8299134' lon='151.0772524' />
  <node id='5120843112' action='modify' timestamp='2017-09-21T23:08:52Z' uid='1723158' user='ozhiker2' visible='true' version='1' changeset='52259692' lat='-33.829878' lon='151.0771919' />
  <node id='5120843113' action='modify' timestamp='2017-09-21T23:08:52Z' uid='1723158' user='ozhiker2' visible='true' version='1' changeset='52259692' lat='-33.8299083' lon='151.0771662' />
  <node id='5120843114' action='modify' timestamp='2017-09-21T23:08:52Z' uid='1723158' user='ozhiker2' visible='true' version='1' changeset='52259692' lat='-33.8294829' lon='151.0764393' />
  <node id='5120843115' action='modify' timestamp='2017-09-21T23:08:52Z' uid='1723158' user='ozhiker2' visible='true' version='1' changeset='52259692' lat='-33.8294997' lon='151.0764251' />
  <node id='5120843116' action='modify' timestamp='2017-09-21T23:08:52Z' uid='1723158' user='ozhiker2' visible='true' version='1' changeset='52259692' lat='-33.8293027' lon='151.0760885' />
  <node id='5120843117' action='modify' timestamp='2017-09-21T23:08:52Z' uid='1723158' user='ozhiker2' visible='true' version='1' changeset='52259692' lat='-33.8288507' lon='151.0764718' />
  <node id='5120843118' action='modify' timestamp='2017-09-21T23:08:52Z' uid='1723158' user='ozhiker2' visible='true' version='1' changeset='52259692' lat='-33.8288919' lon='151.0765423' />
  <node id='5120843119' action='modify' timestamp='2017-09-21T23:08:52Z' uid='1723158' user='ozhiker2' visible='true' version='1' changeset='52259692' lat='-33.8284001' lon='151.0769594' />
  <node id='5120843120' action='modify' timestamp='2017-09-21T23:08:52Z' uid='1723158' user='ozhiker2' visible='true' version='1' changeset='52259692' lat='-33.828361' lon='151.0769925' />
  <node id='5120846421' action='modify' timestamp='2017-09-21T23:08:52Z' uid='1723158' user='ozhiker2' visible='true' version='1' changeset='52259692' lat='-33.8283863' lon='151.0770358' />
  <node id='5120846422' action='modify' timestamp='2017-09-21T23:08:52Z' uid='1723158' user='ozhiker2' visible='true' version='1' changeset='52259692' lat='-33.8288384' lon='151.0778083' />
  <node id='5120846423' action='modify' timestamp='2017-09-21T23:08:52Z' uid='1723158' user='ozhiker2' visible='true' version='1' changeset='52259692' lat='-33.8288067' lon='151.0778351' />
  <node id='5120846424' action='modify' timestamp='2017-09-21T23:08:52Z' uid='1723158' user='ozhiker2' visible='true' version='1' changeset='52259692' lat='-33.8288622' lon='151.0779301' />
  <node id='5120846425' action='modify' timestamp='2017-09-21T23:08:52Z' uid='1723158' user='ozhiker2' visible='true' version='1' changeset='52259692' lat='-33.8288961' lon='151.0779014' />
  <node id='5120846426' action='modify' timestamp='2017-09-21T23:08:52Z' uid='1723158' user='ozhiker2' visible='true' version='1' changeset='52259692' lat='-33.8289395' lon='151.0779756' />
  <way id='526606723' action='modify' timestamp='2018-02-28T22:12:26Z' uid='3800987' user='John Bek' visible='true' version='2' changeset='56769619'>
    <nd ref='5120846426' />
    <nd ref='5120846425' />
    <nd ref='5120846424' />
    <nd ref='5120846423' />
    <nd ref='5120846422' />
    <nd ref='5120846421' />
    <nd ref='5120843120' />
    <nd ref='5120843119' />
    <nd ref='5120843118' />
    <nd ref='5120843117' />
    <nd ref='5120843116' />
    <nd ref='5120843115' />
    <nd ref='5120843114' />
    <nd ref='5120843113' />
    <nd ref='5120843112' />
    <nd ref='5120843111' />
    <nd ref='5120843110' />
    <nd ref='5120843109' />
    <nd ref='5120843108' />
    <nd ref='5120843107' />
    <nd ref='5120843106' />
    <nd ref='5120843105' />
    <nd ref='5120843104' />
    <nd ref='5120843103' />
    <nd ref='5120843102' />
    <nd ref='5120843101' />
    <nd ref='5120843100' />
    <nd ref='5120843099' />
    <nd ref='5120843098' />
    <nd ref='5120843097' />
    <nd ref='5120846426' />
    <tag k='addr:housenumber' v='6-8' />
    <tag k='addr:street' v='Baywater Drive' />
    <tag k='building' v='industrial' />
    <tag k='building:levels' v='2' />
  </way>
</osm>
