<?xml version='1.0' encoding='UTF-8'?>
<osm version='0.6' generator='JOSM'>
  <node id='-161085' action='modify' lat='-33.83611477236' lon='151.01832656218'>
    <tag k='addr:housenumber' v='3/13' />
    <tag k='addr:street' v='Berry Street' />
  </node>
  <node id='-161086' action='modify' lat='-33.83611477236' lon='151.01832656218'>
    <tag k='addr:housenumber' v='2/13' />
    <tag k='addr:street' v='Berry Street' />
  </node>
  <node id='-161087' action='modify' lat='-33.83611477236' lon='151.01832656218'>
    <tag k='addr:housenumber' v='1/13' />
    <tag k='addr:street' v='Berry Street' />
  </node>
  <node id='-161088' action='modify' lat='-33.83514166514' lon='151.01674714983'>
    <tag k='addr:housenumber' v='3' />
    <tag k='addr:street' v='Sutherland Street' />
  </node>
  <node id='-161089' action='modify' lat='-33.83514166514' lon='151.01674714983'>
    <tag k='addr:housenumber' v='4/3' />
    <tag k='addr:street' v='Sutherland Street' />
  </node>
  <node id='-161090' action='modify' lat='-33.83514166514' lon='151.01674714983'>
    <tag k='addr:housenumber' v='6/3' />
    <tag k='addr:street' v='Sutherland Street' />
  </node>
  <node id='-161091' action='modify' lat='-33.83514166514' lon='151.01674714983'>
    <tag k='addr:housenumber' v='8/3' />
    <tag k='addr:street' v='Sutherland Street' />
  </node>
  <node id='-161092' action='modify' lat='-33.83514166514' lon='151.01674714983'>
    <tag k='addr:housenumber' v='7/3' />
    <tag k='addr:street' v='Sutherland Street' />
  </node>
  <node id='-161093' action='modify' lat='-33.83514166514' lon='151.01674714983'>
    <tag k='addr:housenumber' v='5/3' />
    <tag k='addr:street' v='Sutherland Street' />
  </node>
  <node id='-161094' action='modify' lat='-33.83315094832' lon='151.02665882636'>
    <tag k='addr:housenumber' v='7/6' />
    <tag k='addr:street' v='Tennyson Street' />
  </node>
  <node id='-161095' action='modify' lat='-33.83514166514' lon='151.01674714983'>
    <tag k='addr:housenumber' v='3/3' />
    <tag k='addr:street' v='Sutherland Street' />
  </node>
  <node id='-161096' action='modify' lat='-33.83315094832' lon='151.02665882636'>
    <tag k='addr:housenumber' v='8/6' />
    <tag k='addr:street' v='Tennyson Street' />
  </node>
  <node id='-161097' action='modify' lat='-33.83514166514' lon='151.01674714983'>
    <tag k='addr:housenumber' v='2/3' />
    <tag k='addr:street' v='Sutherland Street' />
  </node>
  <node id='-161098' action='modify' lat='-33.83315094832' lon='151.02665882636'>
    <tag k='addr:housenumber' v='2/6' />
    <tag k='addr:street' v='Tennyson Street' />
  </node>
  <node id='-161099' action='modify' lat='-33.83514166514' lon='151.01674714983'>
    <tag k='addr:housenumber' v='1/3' />
    <tag k='addr:street' v='Sutherland Street' />
  </node>
  <node id='-161100' action='modify' lat='-33.83315094832' lon='151.02665882636'>
    <tag k='addr:housenumber' v='4/6' />
    <tag k='addr:street' v='Tennyson Street' />
  </node>
  <node id='-161101' action='modify' lat='-33.83366097738' lon='151.01595972828'>
    <tag k='addr:housenumber' v='12' />
    <tag k='addr:street' v='Marsh Street' />
  </node>
  <node id='-161102' action='modify' lat='-33.83315094832' lon='151.02665882636'>
    <tag k='addr:housenumber' v='5/6' />
    <tag k='addr:street' v='Tennyson Street' />
  </node>
  <node id='-161103' action='modify' lat='-33.83366097738' lon='151.01595972828'>
    <tag k='addr:housenumber' v='1/12' />
    <tag k='addr:street' v='Marsh Street' />
  </node>
  <node id='-161104' action='modify' lat='-33.83315094832' lon='151.02665882636'>
    <tag k='addr:housenumber' v='6/6' />
    <tag k='addr:street' v='Tennyson Street' />
  </node>
  <node id='-161105' action='modify' lat='-33.83366097738' lon='151.01595972828'>
    <tag k='addr:housenumber' v='2/12' />
    <tag k='addr:street' v='Marsh Street' />
  </node>
  <node id='-161106' action='modify' lat='-33.83315094832' lon='151.02665882636'>
    <tag k='addr:housenumber' v='3/6' />
    <tag k='addr:street' v='Tennyson Street' />
  </node>
  <node id='-161107' action='modify' lat='-33.83366097738' lon='151.01595972828'>
    <tag k='addr:housenumber' v='3/12' />
    <tag k='addr:street' v='Marsh Street' />
  </node>
  <node id='-161108' action='modify' lat='-33.83315094832' lon='151.02665882636'>
    <tag k='addr:housenumber' v='1/6' />
    <tag k='addr:street' v='Tennyson Street' />
  </node>
  <node id='-161109' action='modify' lat='-33.83315094832' lon='151.02665882636'>
    <tag k='addr:housenumber' v='6' />
    <tag k='addr:street' v='Tennyson Street' />
  </node>
  <node id='-161110' action='modify' lat='-33.83186254342' lon='151.01822372079'>
    <tag k='addr:housenumber' v='50' />
    <tag k='addr:street' v='George Street' />
  </node>
  <node id='-161111' action='modify' lat='-33.83186254342' lon='151.01822372079'>
    <tag k='addr:housenumber' v='1/50' />
    <tag k='addr:street' v='George Street' />
  </node>
  <node id='-161112' action='modify' lat='-33.83186254342' lon='151.01822372079'>
    <tag k='addr:housenumber' v='2/50' />
    <tag k='addr:street' v='George Street' />
  </node>
  <node id='-161113' action='modify' lat='-33.83186254342' lon='151.01822372079'>
    <tag k='addr:housenumber' v='3/50' />
    <tag k='addr:street' v='George Street' />
  </node>
  <node id='-161114' action='modify' lat='-33.83186254342' lon='151.01822372079'>
    <tag k='addr:housenumber' v='4/50' />
    <tag k='addr:street' v='George Street' />
  </node>
  <node id='-161115' action='modify' lat='-33.8348770034' lon='151.01958219082'>
    <tag k='addr:housenumber' v='19' />
    <tag k='addr:street' v='Berry Street' />
  </node>
  <node id='-161116' action='modify' lat='-33.8348770034' lon='151.01958219082'>
    <tag k='addr:housenumber' v='10/11-13' />
    <tag k='addr:street' v='Berry Street' />
  </node>
  <node id='-161117' action='modify' lat='-33.8348770034' lon='151.01958219082'>
    <tag k='addr:housenumber' v='11/11-13' />
    <tag k='addr:street' v='Berry Street' />
  </node>
  <node id='-161118' action='modify' lat='-33.8348770034' lon='151.01958219082'>
    <tag k='addr:housenumber' v='12/11-13' />
    <tag k='addr:street' v='Berry Street' />
  </node>
  <node id='-161119' action='modify' lat='-33.8348770034' lon='151.01958219082'>
    <tag k='addr:housenumber' v='13/11-13' />
    <tag k='addr:street' v='Berry Street' />
  </node>
  <node id='-161120' action='modify' lat='-33.8348770034' lon='151.01958219082'>
    <tag k='addr:housenumber' v='14/11-13' />
    <tag k='addr:street' v='Berry Street' />
  </node>
  <node id='-161121' action='modify' lat='-33.8348770034' lon='151.01958219082'>
    <tag k='addr:housenumber' v='17/11-13' />
    <tag k='addr:street' v='Berry Street' />
  </node>
  <node id='-161122' action='modify' lat='-33.8348770034' lon='151.01958219082'>
    <tag k='addr:housenumber' v='18/11-13' />
    <tag k='addr:street' v='Berry Street' />
  </node>
  <node id='-161123' action='modify' lat='-33.8348770034' lon='151.01958219082'>
    <tag k='addr:housenumber' v='1/11-13' />
    <tag k='addr:street' v='Berry Street' />
  </node>
  <node id='-161124' action='modify' lat='-33.8348770034' lon='151.01958219082'>
    <tag k='addr:housenumber' v='20/11-13' />
    <tag k='addr:street' v='Berry Street' />
  </node>
  <node id='-161125' action='modify' lat='-33.8348770034' lon='151.01958219082'>
    <tag k='addr:housenumber' v='22/11-13' />
    <tag k='addr:street' v='Berry Street' />
  </node>
  <node id='-161126' action='modify' lat='-33.8348770034' lon='151.01958219082'>
    <tag k='addr:housenumber' v='23/11-13' />
    <tag k='addr:street' v='Berry Street' />
  </node>
  <node id='-161127' action='modify' lat='-33.8348770034' lon='151.01958219082'>
    <tag k='addr:housenumber' v='25/11-13' />
    <tag k='addr:street' v='Berry Street' />
  </node>
  <node id='-161128' action='modify' lat='-33.8348770034' lon='151.01958219082'>
    <tag k='addr:housenumber' v='26/11-13' />
    <tag k='addr:street' v='Berry Street' />
  </node>
  <node id='-161129' action='modify' lat='-33.8348770034' lon='151.01958219082'>
    <tag k='addr:housenumber' v='27/11-13' />
    <tag k='addr:street' v='Berry Street' />
  </node>
  <node id='-161130' action='modify' lat='-33.8348770034' lon='151.01958219082'>
    <tag k='addr:housenumber' v='29/11-13' />
    <tag k='addr:street' v='Berry Street' />
  </node>
  <node id='-161131' action='modify' lat='-33.8348770034' lon='151.01958219082'>
    <tag k='addr:housenumber' v='30/11-13' />
    <tag k='addr:street' v='Berry Street' />
  </node>
  <node id='-161132' action='modify' lat='-33.8348770034' lon='151.01958219082'>
    <tag k='addr:housenumber' v='31/11-13' />
    <tag k='addr:street' v='Berry Street' />
  </node>
  <node id='-161133' action='modify' lat='-33.8348770034' lon='151.01958219082'>
    <tag k='addr:housenumber' v='33/11-13' />
    <tag k='addr:street' v='Berry Street' />
  </node>
  <node id='-161134' action='modify' lat='-33.8348770034' lon='151.01958219082'>
    <tag k='addr:housenumber' v='4/11-13' />
    <tag k='addr:street' v='Berry Street' />
  </node>
  <node id='-161135' action='modify' lat='-33.8348770034' lon='151.01958219082'>
    <tag k='addr:housenumber' v='5/11-13' />
    <tag k='addr:street' v='Berry Street' />
  </node>
  <node id='-161136' action='modify' lat='-33.8348770034' lon='151.01958219082'>
    <tag k='addr:housenumber' v='6/11-13' />
    <tag k='addr:street' v='Berry Street' />
  </node>
  <node id='-161137' action='modify' lat='-33.8348770034' lon='151.01958219082'>
    <tag k='addr:housenumber' v='7/11-13' />
    <tag k='addr:street' v='Berry Street' />
  </node>
  <node id='-161138' action='modify' lat='-33.8348770034' lon='151.01958219082'>
    <tag k='addr:housenumber' v='8/11-13' />
    <tag k='addr:street' v='Berry Street' />
  </node>
  <node id='-161139' action='modify' lat='-33.8348770034' lon='151.01958219082'>
    <tag k='addr:housenumber' v='16/11-13' />
    <tag k='addr:street' v='Berry Street' />
  </node>
  <node id='-161140' action='modify' lat='-33.8348770034' lon='151.01958219082'>
    <tag k='addr:housenumber' v='21/11-13' />
    <tag k='addr:street' v='Berry Street' />
  </node>
  <node id='-161141' action='modify' lat='-33.8348770034' lon='151.01958219082'>
    <tag k='addr:housenumber' v='28/11-13' />
    <tag k='addr:street' v='Berry Street' />
  </node>
  <node id='-161142' action='modify' lat='-33.8348770034' lon='151.01958219082'>
    <tag k='addr:housenumber' v='3/11-13' />
    <tag k='addr:street' v='Berry Street' />
  </node>
  <node id='-161143' action='modify' lat='-33.8348770034' lon='151.01958219082'>
    <tag k='addr:housenumber' v='9/11-13' />
    <tag k='addr:street' v='Berry Street' />
  </node>
  <node id='-161144' action='modify' lat='-33.8348770034' lon='151.01958219082'>
    <tag k='addr:housenumber' v='19/11-13' />
    <tag k='addr:street' v='Berry Street' />
  </node>
  <node id='-161145' action='modify' lat='-33.8348770034' lon='151.01958219082'>
    <tag k='addr:housenumber' v='2/11-13' />
    <tag k='addr:street' v='Berry Street' />
  </node>
  <node id='-161146' action='modify' lat='-33.8348770034' lon='151.01958219082'>
    <tag k='addr:housenumber' v='15/11-13' />
    <tag k='addr:street' v='Berry Street' />
  </node>
  <node id='-161147' action='modify' lat='-33.8348770034' lon='151.01958219082'>
    <tag k='addr:housenumber' v='24/11-13' />
    <tag k='addr:street' v='Berry Street' />
  </node>
  <node id='-161148' action='modify' lat='-33.8348770034' lon='151.01958219082'>
    <tag k='addr:housenumber' v='32/11-13' />
    <tag k='addr:street' v='Berry Street' />
  </node>
  <node id='-161149' action='modify' lat='-33.8348770034' lon='151.01958219082'>
    <tag k='addr:housenumber' v='11-13' />
    <tag k='addr:street' v='Berry Street' />
  </node>
  <node id='-161150' action='modify' lat='-33.83240604227' lon='151.01761562977'>
    <tag k='addr:housenumber' v='40' />
    <tag k='addr:street' v='George Street' />
  </node>
  <node id='-161151' action='modify' lat='-33.83240604227' lon='151.01761562977'>
    <tag k='addr:housenumber' v='1/40' />
    <tag k='addr:street' v='George Street' />
  </node>
  <node id='-161152' action='modify' lat='-33.83240604227' lon='151.01761562977'>
    <tag k='addr:housenumber' v='2/40' />
    <tag k='addr:street' v='George Street' />
  </node>
  <node id='-161153' action='modify' lat='-33.83240604227' lon='151.01761562977'>
    <tag k='addr:housenumber' v='3/40' />
    <tag k='addr:street' v='George Street' />
  </node>
  <node id='-161154' action='modify' lat='-33.83240604227' lon='151.01761562977'>
    <tag k='addr:housenumber' v='4/40' />
    <tag k='addr:street' v='George Street' />
  </node>
  <node id='-161155' action='modify' lat='-33.83240604227' lon='151.01761562977'>
    <tag k='addr:housenumber' v='5/40' />
    <tag k='addr:street' v='George Street' />
  </node>
  <node id='-161156' action='modify' lat='-33.83363894019' lon='151.02326766329'>
    <tag k='addr:housenumber' v='16' />
    <tag k='addr:street' v='Martha Street' />
  </node>
  <node id='-161157' action='modify' lat='-33.83363894019' lon='151.02326766329'>
    <tag k='addr:housenumber' v='5/16' />
    <tag k='addr:street' v='Martha Street' />
  </node>
  <node id='-161158' action='modify' lat='-33.83363894019' lon='151.02326766329'>
    <tag k='addr:housenumber' v='4/16' />
    <tag k='addr:street' v='Martha Street' />
  </node>
  <node id='-161159' action='modify' lat='-33.83611477236' lon='151.01832656218'>
    <tag k='addr:housenumber' v='13' />
    <tag k='addr:street' v='Berry Street' />
  </node>
  <node id='-161160' action='modify' lat='-33.83363894019' lon='151.02326766329'>
    <tag k='addr:housenumber' v='3/16' />
    <tag k='addr:street' v='Martha Street' />
  </node>
  <node id='-161161' action='modify' lat='-33.83611477236' lon='151.01832656218'>
    <tag k='addr:housenumber' v='4/13' />
    <tag k='addr:street' v='Berry Street' />
  </node>
  <node id='-161162' action='modify' lat='-33.83363894019' lon='151.02326766329'>
    <tag k='addr:housenumber' v='2/16' />
    <tag k='addr:street' v='Martha Street' />
  </node>
  <node id='-161163' action='modify' lat='-33.83611477236' lon='151.01832656218'>
    <tag k='addr:housenumber' v='6/13' />
    <tag k='addr:street' v='Berry Street' />
  </node>
  <node id='-161164' action='modify' lat='-33.83363894019' lon='151.02326766329'>
    <tag k='addr:housenumber' v='1/16' />
    <tag k='addr:street' v='Martha Street' />
  </node>
  <node id='-161165' action='modify' lat='-33.83611477236' lon='151.01832656218'>
    <tag k='addr:housenumber' v='8/13' />
    <tag k='addr:street' v='Berry Street' />
  </node>
  <node id='-161166' action='modify' lat='-33.83611477236' lon='151.01832656218'>
    <tag k='addr:housenumber' v='10/13' />
    <tag k='addr:street' v='Berry Street' />
  </node>
  <node id='-161167' action='modify' lat='-33.83611477236' lon='151.01832656218'>
    <tag k='addr:housenumber' v='12/13' />
    <tag k='addr:street' v='Berry Street' />
  </node>
  <node id='-161168' action='modify' lat='-33.83611477236' lon='151.01832656218'>
    <tag k='addr:housenumber' v='14/13' />
    <tag k='addr:street' v='Berry Street' />
  </node>
  <node id='-161169' action='modify' lat='-33.83611477236' lon='151.01832656218'>
    <tag k='addr:housenumber' v='25/13' />
    <tag k='addr:street' v='Berry Street' />
  </node>
  <node id='-161170' action='modify' lat='-33.83611477236' lon='151.01832656218'>
    <tag k='addr:housenumber' v='26/13' />
    <tag k='addr:street' v='Berry Street' />
  </node>
  <node id='-161171' action='modify' lat='-33.83611477236' lon='151.01832656218'>
    <tag k='addr:housenumber' v='27/13' />
    <tag k='addr:street' v='Berry Street' />
  </node>
  <node id='-161172' action='modify' lat='-33.83611477236' lon='151.01832656218'>
    <tag k='addr:housenumber' v='28/13' />
    <tag k='addr:street' v='Berry Street' />
  </node>
  <node id='-161173' action='modify' lat='-33.83611477236' lon='151.01832656218'>
    <tag k='addr:housenumber' v='29/13' />
    <tag k='addr:street' v='Berry Street' />
  </node>
  <node id='-161174' action='modify' lat='-33.83611477236' lon='151.01832656218'>
    <tag k='addr:housenumber' v='30/13' />
    <tag k='addr:street' v='Berry Street' />
  </node>
  <node id='-161175' action='modify' lat='-33.83611477236' lon='151.01832656218'>
    <tag k='addr:housenumber' v='31/13' />
    <tag k='addr:street' v='Berry Street' />
  </node>
  <node id='-161176' action='modify' lat='-33.83611477236' lon='151.01832656218'>
    <tag k='addr:housenumber' v='32/13' />
    <tag k='addr:street' v='Berry Street' />
  </node>
  <node id='-161177' action='modify' lat='-33.83611477236' lon='151.01832656218'>
    <tag k='addr:housenumber' v='33/13' />
    <tag k='addr:street' v='Berry Street' />
  </node>
  <node id='-161178' action='modify' lat='-33.83611477236' lon='151.01832656218'>
    <tag k='addr:housenumber' v='16/13' />
    <tag k='addr:street' v='Berry Street' />
  </node>
  <node id='-161179' action='modify' lat='-33.83611477236' lon='151.01832656218'>
    <tag k='addr:housenumber' v='17/13' />
    <tag k='addr:street' v='Berry Street' />
  </node>
  <node id='-161180' action='modify' lat='-33.83611477236' lon='151.01832656218'>
    <tag k='addr:housenumber' v='18/13' />
    <tag k='addr:street' v='Berry Street' />
  </node>
  <node id='-161181' action='modify' lat='-33.83611477236' lon='151.01832656218'>
    <tag k='addr:housenumber' v='19/13' />
    <tag k='addr:street' v='Berry Street' />
  </node>
  <node id='-161182' action='modify' lat='-33.83611477236' lon='151.01832656218'>
    <tag k='addr:housenumber' v='20/13' />
    <tag k='addr:street' v='Berry Street' />
  </node>
  <node id='-161183' action='modify' lat='-33.83611477236' lon='151.01832656218'>
    <tag k='addr:housenumber' v='21/13' />
    <tag k='addr:street' v='Berry Street' />
  </node>
  <node id='-161184' action='modify' lat='-33.83560900161' lon='151.02210021282'>
    <tag k='addr:housenumber' v='2' />
    <tag k='addr:street' v='Parramatta Road' />
  </node>
  <node id='-161185' action='modify' lat='-33.83611477236' lon='151.01832656218'>
    <tag k='addr:housenumber' v='22/13' />
    <tag k='addr:street' v='Berry Street' />
  </node>
  <node id='-161186' action='modify' lat='-33.83560900161' lon='151.02210021282'>
    <tag k='addr:housenumber' v='4/2' />
    <tag k='addr:street' v='Parramatta Road' />
  </node>
  <node id='-161187' action='modify' lat='-33.83611477236' lon='151.01832656218'>
    <tag k='addr:housenumber' v='23/13' />
    <tag k='addr:street' v='Berry Street' />
  </node>
  <node id='-161188' action='modify' lat='-33.83560900161' lon='151.02210021282'>
    <tag k='addr:housenumber' v='3/2' />
    <tag k='addr:street' v='Parramatta Road' />
  </node>
  <node id='-161189' action='modify' lat='-33.83611477236' lon='151.01832656218'>
    <tag k='addr:housenumber' v='24/13' />
    <tag k='addr:street' v='Berry Street' />
  </node>
  <node id='-161190' action='modify' lat='-33.83560900161' lon='151.02210021282'>
    <tag k='addr:housenumber' v='2/2' />
    <tag k='addr:street' v='Parramatta Road' />
  </node>
  <node id='-161191' action='modify' lat='-33.83611477236' lon='151.01832656218'>
    <tag k='addr:housenumber' v='15/13' />
    <tag k='addr:street' v='Berry Street' />
  </node>
  <node id='-161192' action='modify' lat='-33.83560900161' lon='151.02210021282'>
    <tag k='addr:housenumber' v='1/2' />
    <tag k='addr:street' v='Parramatta Road' />
  </node>
  <node id='-161193' action='modify' lat='-33.83611477236' lon='151.01832656218'>
    <tag k='addr:housenumber' v='13/13' />
    <tag k='addr:street' v='Berry Street' />
  </node>
  <node id='-161194' action='modify' lat='-33.83611477236' lon='151.01832656218'>
    <tag k='addr:housenumber' v='11/13' />
    <tag k='addr:street' v='Berry Street' />
  </node>
  <node id='-161195' action='modify' lat='-33.83611477236' lon='151.01832656218'>
    <tag k='addr:housenumber' v='9/13' />
    <tag k='addr:street' v='Berry Street' />
  </node>
  <node id='-161196' action='modify' lat='-33.83611477236' lon='151.01832656218'>
    <tag k='addr:housenumber' v='7/13' />
    <tag k='addr:street' v='Berry Street' />
  </node>
  <node id='-161197' action='modify' lat='-33.83611477236' lon='151.01832656218'>
    <tag k='addr:housenumber' v='5/13' />
    <tag k='addr:street' v='Berry Street' />
  </node>
</osm>
