<?xml version='1.0' encoding='UTF-8'?>
<osm version='0.6' generator='JOSM'>
  <node id='-49434' action='modify' lat='-33.825715' lon='151.112152'>
    <tag k='addr:housenumber' v='184-186' />
    <tag k='addr:street' v='Morrison Road' />
  </node>
  <node id='-49435' action='modify' lat='-33.825464' lon='151.109942'>
    <tag k='addr:housenumber' v='6/210' />
    <tag k='addr:street' v='Morrison Road' />
  </node>
  <node id='-49436' action='modify' lat='-33.825715' lon='151.112152'>
    <tag k='addr:housenumber' v='5/184-186' />
    <tag k='addr:street' v='Morrison Road' />
  </node>
  <node id='-49437' action='modify' lat='-33.825464' lon='151.109942'>
    <tag k='addr:housenumber' v='7/210' />
    <tag k='addr:street' v='Morrison Road' />
  </node>
  <node id='-49438' action='modify' lat='-33.820749' lon='151.101205'>
    <tag k='addr:housenumber' v='12' />
    <tag k='addr:street' v='Small Street' />
  </node>
  <node id='-49439' action='modify' lat='-33.825715' lon='151.112152'>
    <tag k='addr:housenumber' v='4/184-186' />
    <tag k='addr:street' v='Morrison Road' />
  </node>
  <node id='-49440' action='modify' lat='-33.825464' lon='151.109942'>
    <tag k='addr:housenumber' v='8/210' />
    <tag k='addr:street' v='Morrison Road' />
  </node>
  <node id='-49441' action='modify' lat='-33.820749' lon='151.101205'>
    <tag k='addr:housenumber' v='1/12' />
    <tag k='addr:street' v='Small Street' />
  </node>
  <node id='-49442' action='modify' lat='-33.825715' lon='151.112152'>
    <tag k='addr:housenumber' v='3/184-186' />
    <tag k='addr:street' v='Morrison Road' />
  </node>
  <node id='-49443' action='modify' lat='-33.825464' lon='151.109942'>
    <tag k='addr:housenumber' v='9/210' />
    <tag k='addr:street' v='Morrison Road' />
  </node>
  <node id='-49444' action='modify' lat='-33.820749' lon='151.101205'>
    <tag k='addr:housenumber' v='2/12' />
    <tag k='addr:street' v='Small Street' />
  </node>
  <node id='-49445' action='modify' lat='-33.825715' lon='151.112152'>
    <tag k='addr:housenumber' v='2/184-186' />
    <tag k='addr:street' v='Morrison Road' />
  </node>
  <node id='-49446' action='modify' lat='-33.825464' lon='151.109942'>
    <tag k='addr:housenumber' v='10/210' />
    <tag k='addr:street' v='Morrison Road' />
  </node>
  <node id='-49447' action='modify' lat='-33.820749' lon='151.101205'>
    <tag k='addr:housenumber' v='3/12' />
    <tag k='addr:street' v='Small Street' />
  </node>
  <node id='-49448' action='modify' lat='-33.825715' lon='151.112152'>
    <tag k='addr:housenumber' v='1/184-186' />
    <tag k='addr:street' v='Morrison Road' />
  </node>
  <node id='-49449' action='modify' lat='-33.820749' lon='151.101205'>
    <tag k='addr:housenumber' v='4/12' />
    <tag k='addr:street' v='Small Street' />
  </node>
  <node id='-49450' action='modify' lat='-33.820749' lon='151.101205'>
    <tag k='addr:housenumber' v='5/12' />
    <tag k='addr:street' v='Small Street' />
  </node>
  <node id='-49451' action='modify' lat='-33.820749' lon='151.101205'>
    <tag k='addr:housenumber' v='6/12' />
    <tag k='addr:street' v='Small Street' />
  </node>
  <node id='-49452' action='modify' lat='-33.820749' lon='151.101205'>
    <tag k='addr:housenumber' v='7/12' />
    <tag k='addr:street' v='Small Street' />
  </node>
  <node id='-49453' action='modify' lat='-33.820749' lon='151.101205'>
    <tag k='addr:housenumber' v='8/12' />
    <tag k='addr:street' v='Small Street' />
  </node>
  <node id='-49454' action='modify' lat='-33.820749' lon='151.101205'>
    <tag k='addr:housenumber' v='9/12' />
    <tag k='addr:street' v='Small Street' />
  </node>
  <node id='-49455' action='modify' lat='-33.820749' lon='151.101205'>
    <tag k='addr:housenumber' v='10/12' />
    <tag k='addr:street' v='Small Street' />
  </node>
  <node id='-49456' action='modify' lat='-33.823045' lon='151.109424'>
    <tag k='addr:housenumber' v='1/76' />
    <tag k='addr:street' v='Charles Street' />
  </node>
  <node id='-49457' action='modify' lat='-33.823045' lon='151.109424'>
    <tag k='addr:housenumber' v='76' />
    <tag k='addr:street' v='Charles Street' />
  </node>
  <node id='-49458' action='modify' lat='-33.823045' lon='151.109424'>
    <tag k='addr:housenumber' v='5/76' />
    <tag k='addr:street' v='Charles Street' />
  </node>
  <node id='-49459' action='modify' lat='-33.823045' lon='151.109424'>
    <tag k='addr:housenumber' v='4/76' />
    <tag k='addr:street' v='Charles Street' />
  </node>
  <node id='-49460' action='modify' lat='-33.823045' lon='151.109424'>
    <tag k='addr:housenumber' v='3/76' />
    <tag k='addr:street' v='Charles Street' />
  </node>
  <node id='-49461' action='modify' lat='-33.823045' lon='151.109424'>
    <tag k='addr:housenumber' v='2/76' />
    <tag k='addr:street' v='Charles Street' />
  </node>
  <node id='-49462' action='modify' lat='-33.82203' lon='151.098475'>
    <tag k='addr:housenumber' v='7' />
    <tag k='addr:street' v='Osborne Avenue' />
  </node>
  <node id='-49463' action='modify' lat='-33.82203' lon='151.098475'>
    <tag k='addr:housenumber' v='4/7' />
    <tag k='addr:street' v='Osborne Avenue' />
  </node>
  <node id='-49464' action='modify' lat='-33.82203' lon='151.098475'>
    <tag k='addr:housenumber' v='6/7' />
    <tag k='addr:street' v='Osborne Avenue' />
  </node>
  <node id='-49465' action='modify' lat='-33.82203' lon='151.098475'>
    <tag k='addr:housenumber' v='5/7' />
    <tag k='addr:street' v='Osborne Avenue' />
  </node>
  <node id='-49466' action='modify' lat='-33.82203' lon='151.098475'>
    <tag k='addr:housenumber' v='3/7' />
    <tag k='addr:street' v='Osborne Avenue' />
  </node>
  <node id='-49467' action='modify' lat='-33.82203' lon='151.098475'>
    <tag k='addr:housenumber' v='2/7' />
    <tag k='addr:street' v='Osborne Avenue' />
  </node>
  <node id='-49468' action='modify' lat='-33.82203' lon='151.098475'>
    <tag k='addr:housenumber' v='1/7' />
    <tag k='addr:street' v='Osborne Avenue' />
  </node>
  <node id='-49469' action='modify' lat='-33.822309' lon='151.097787'>
    <tag k='addr:housenumber' v='17' />
    <tag k='addr:street' v='Waterview Street' />
  </node>
  <node id='-49470' action='modify' lat='-33.822309' lon='151.097787'>
    <tag k='addr:housenumber' v='5/17' />
    <tag k='addr:street' v='Waterview Street' />
  </node>
  <node id='-49471' action='modify' lat='-33.822309' lon='151.097787'>
    <tag k='addr:housenumber' v='4/17' />
    <tag k='addr:street' v='Waterview Street' />
  </node>
  <node id='-49472' action='modify' lat='-33.822309' lon='151.097787'>
    <tag k='addr:housenumber' v='3/17' />
    <tag k='addr:street' v='Waterview Street' />
  </node>
  <node id='-49473' action='modify' lat='-33.822309' lon='151.097787'>
    <tag k='addr:housenumber' v='2/17' />
    <tag k='addr:street' v='Waterview Street' />
  </node>
  <node id='-49474' action='modify' lat='-33.822309' lon='151.097787'>
    <tag k='addr:housenumber' v='1/17' />
    <tag k='addr:street' v='Waterview Street' />
  </node>
  <node id='-49475' action='modify' lat='-33.820829' lon='151.103084'>
    <tag k='addr:housenumber' v='8' />
    <tag k='addr:street' v='Regent Street' />
  </node>
  <node id='-49476' action='modify' lat='-33.823179' lon='151.109275'>
    <tag k='addr:housenumber' v='78-80' />
    <tag k='addr:street' v='Charles Street' />
  </node>
  <node id='-49477' action='modify' lat='-33.820829' lon='151.103084'>
    <tag k='addr:housenumber' v='1/8' />
    <tag k='addr:street' v='Regent Street' />
  </node>
  <node id='-49478' action='modify' lat='-33.823179' lon='151.109275'>
    <tag k='addr:housenumber' v='78A' />
    <tag k='addr:street' v='Charles Street' />
  </node>
  <node id='-49479' action='modify' lat='-33.820829' lon='151.103084'>
    <tag k='addr:housenumber' v='2/8' />
    <tag k='addr:street' v='Regent Street' />
  </node>
  <node id='-49480' action='modify' lat='-33.823179' lon='151.109275'>
    <tag k='addr:housenumber' v='78B' />
    <tag k='addr:street' v='Charles Street' />
  </node>
  <node id='-49481' action='modify' lat='-33.820829' lon='151.103084'>
    <tag k='addr:housenumber' v='3/8' />
    <tag k='addr:street' v='Regent Street' />
  </node>
  <node id='-49482' action='modify' lat='-33.823179' lon='151.109275'>
    <tag k='addr:housenumber' v='78C' />
    <tag k='addr:street' v='Charles Street' />
  </node>
  <node id='-49483' action='modify' lat='-33.820829' lon='151.103084'>
    <tag k='addr:housenumber' v='4/8' />
    <tag k='addr:street' v='Regent Street' />
  </node>
  <node id='-49484' action='modify' lat='-33.823179' lon='151.109275'>
    <tag k='addr:housenumber' v='80A' />
    <tag k='addr:street' v='Charles Street' />
  </node>
  <node id='-49485' action='modify' lat='-33.823179' lon='151.109275'>
    <tag k='addr:housenumber' v='80B' />
    <tag k='addr:street' v='Charles Street' />
  </node>
  <node id='-49486' action='modify' lat='-33.823179' lon='151.109275'>
    <tag k='addr:housenumber' v='80C' />
    <tag k='addr:street' v='Charles Street' />
  </node>
  <node id='-49487' action='modify' lat='-33.823179' lon='151.109275'>
    <tag k='addr:housenumber' v='80D' />
    <tag k='addr:street' v='Charles Street' />
  </node>
  <node id='-49488' action='modify' lat='-33.82346' lon='151.108971'>
    <tag k='addr:housenumber' v='88' />
    <tag k='addr:street' v='Charles Street' />
  </node>
  <node id='-49489' action='modify' lat='-33.826092' lon='151.101701'>
    <tag k='addr:housenumber' v='63A' />
    <tag k='addr:street' v='Waterview Street' />
  </node>
  <node id='-49490' action='modify' lat='-33.82346' lon='151.108971'>
    <tag k='addr:housenumber' v='2/88' />
    <tag k='addr:street' v='Charles Street' />
  </node>
  <node id='-49491' action='modify' lat='-33.826092' lon='151.101701'>
    <tag k='addr:housenumber' v='1/63A' />
    <tag k='addr:street' v='Waterview Street' />
  </node>
  <node id='-49492' action='modify' lat='-33.82346' lon='151.108971'>
    <tag k='addr:housenumber' v='3/88' />
    <tag k='addr:street' v='Charles Street' />
  </node>
  <node id='-49493' action='modify' lat='-33.826092' lon='151.101701'>
    <tag k='addr:housenumber' v='2/63A' />
    <tag k='addr:street' v='Waterview Street' />
  </node>
  <node id='-49494' action='modify' lat='-33.82346' lon='151.108971'>
    <tag k='addr:housenumber' v='1/88' />
    <tag k='addr:street' v='Charles Street' />
  </node>
  <node id='-49495' action='modify' lat='-33.826092' lon='151.101701'>
    <tag k='addr:housenumber' v='3/63A' />
    <tag k='addr:street' v='Waterview Street' />
  </node>
  <node id='-49496' action='modify' lat='-33.827971' lon='151.106273'>
    <tag k='addr:housenumber' v='4A' />
    <tag k='addr:street' v='Pellisier Road' />
  </node>
  <node id='-49497' action='modify' lat='-33.827971' lon='151.106273'>
    <tag k='addr:housenumber' v='1/4A' />
    <tag k='addr:street' v='Pellisier Road' />
  </node>
  <node id='-49498' action='modify' lat='-33.827971' lon='151.106273'>
    <tag k='addr:housenumber' v='2/4A' />
    <tag k='addr:street' v='Pellisier Road' />
  </node>
  <node id='-49499' action='modify' lat='-33.827971' lon='151.106273'>
    <tag k='addr:housenumber' v='3/4A' />
    <tag k='addr:street' v='Pellisier Road' />
  </node>
  <node id='-49500' action='modify' lat='-33.827971' lon='151.106273'>
    <tag k='addr:housenumber' v='4/4A' />
    <tag k='addr:street' v='Pellisier Road' />
  </node>
  <node id='-49501' action='modify' lat='-33.825617' lon='151.101897'>
    <tag k='addr:housenumber' v='14' />
    <tag k='addr:street' v='Watson Street' />
  </node>
  <node id='-49502' action='modify' lat='-33.825617' lon='151.101897'>
    <tag k='addr:housenumber' v='3/14' />
    <tag k='addr:street' v='Watson Street' />
  </node>
  <node id='-49503' action='modify' lat='-33.825617' lon='151.101897'>
    <tag k='addr:housenumber' v='2/14' />
    <tag k='addr:street' v='Watson Street' />
  </node>
  <node id='-49504' action='modify' lat='-33.8231' lon='151.102783'>
    <tag k='addr:housenumber' v='190-192' />
    <tag k='addr:street' v='Princes Street' />
  </node>
  <node id='-49505' action='modify' lat='-33.825617' lon='151.101897'>
    <tag k='addr:housenumber' v='1/14' />
    <tag k='addr:street' v='Watson Street' />
  </node>
  <node id='-49506' action='modify' lat='-33.8231' lon='151.102783'>
    <tag k='addr:housenumber' v='6/190-192' />
    <tag k='addr:street' v='Princes Street' />
  </node>
  <node id='-49507' action='modify' lat='-33.8231' lon='151.102783'>
    <tag k='addr:housenumber' v='5/190-192' />
    <tag k='addr:street' v='Princes Street' />
  </node>
  <node id='-49508' action='modify' lat='-33.8231' lon='151.102783'>
    <tag k='addr:housenumber' v='4/190-192' />
    <tag k='addr:street' v='Princes Street' />
  </node>
  <node id='-49509' action='modify' lat='-33.821005' lon='151.100704'>
    <tag k='addr:housenumber' v='38' />
    <tag k='addr:street' v='Osborne Avenue' />
  </node>
  <node id='-49510' action='modify' lat='-33.8231' lon='151.102783'>
    <tag k='addr:housenumber' v='3/190-192' />
    <tag k='addr:street' v='Princes Street' />
  </node>
  <node id='-49511' action='modify' lat='-33.821005' lon='151.100704'>
    <tag k='addr:housenumber' v='1/38' />
    <tag k='addr:street' v='Osborne Avenue' />
  </node>
  <node id='-49512' action='modify' lat='-33.8231' lon='151.102783'>
    <tag k='addr:housenumber' v='2/190-192' />
    <tag k='addr:street' v='Princes Street' />
  </node>
  <node id='-49513' action='modify' lat='-33.821005' lon='151.100704'>
    <tag k='addr:housenumber' v='2/38' />
    <tag k='addr:street' v='Osborne Avenue' />
  </node>
  <node id='-49514' action='modify' lat='-33.825878' lon='151.111976'>
    <tag k='addr:housenumber' v='188-190' />
    <tag k='addr:street' v='Morrison Road' />
  </node>
  <node id='-49515' action='modify' lat='-33.8231' lon='151.102783'>
    <tag k='addr:housenumber' v='1/190-192' />
    <tag k='addr:street' v='Princes Street' />
  </node>
  <node id='-49516' action='modify' lat='-33.821005' lon='151.100704'>
    <tag k='addr:housenumber' v='3/38' />
    <tag k='addr:street' v='Osborne Avenue' />
  </node>
  <node id='-49517' action='modify' lat='-33.821598' lon='151.104374'>
    <tag k='addr:housenumber' v='162' />
    <tag k='addr:street' v='Princes Street' />
  </node>
  <node id='-49518' action='modify' lat='-33.825878' lon='151.111976'>
    <tag k='addr:housenumber' v='1/188-190' />
    <tag k='addr:street' v='Morrison Road' />
  </node>
  <node id='-49519' action='modify' lat='-33.821598' lon='151.104374'>
    <tag k='addr:housenumber' v='3/162' />
    <tag k='addr:street' v='Princes Street' />
  </node>
  <node id='-49520' action='modify' lat='-33.825878' lon='151.111976'>
    <tag k='addr:housenumber' v='2/188-190' />
    <tag k='addr:street' v='Morrison Road' />
  </node>
  <node id='-49521' action='modify' lat='-33.824133' lon='151.108226'>
    <tag k='addr:housenumber' v='1/98' />
    <tag k='addr:street' v='Charles Street' />
  </node>
  <node id='-49522' action='modify' lat='-33.821598' lon='151.104374'>
    <tag k='addr:housenumber' v='1/162' />
    <tag k='addr:street' v='Princes Street' />
  </node>
  <node id='-49523' action='modify' lat='-33.825878' lon='151.111976'>
    <tag k='addr:housenumber' v='3/188-190' />
    <tag k='addr:street' v='Morrison Road' />
  </node>
  <node id='-49524' action='modify' lat='-33.824133' lon='151.108226'>
    <tag k='addr:housenumber' v='98' />
    <tag k='addr:street' v='Charles Street' />
  </node>
  <node id='-49525' action='modify' lat='-33.821598' lon='151.104374'>
    <tag k='addr:housenumber' v='2/162' />
    <tag k='addr:street' v='Princes Street' />
  </node>
  <node id='-49526' action='modify' lat='-33.825878' lon='151.111976'>
    <tag k='addr:housenumber' v='4/188-190' />
    <tag k='addr:street' v='Morrison Road' />
  </node>
  <node id='-49527' action='modify' lat='-33.830496' lon='151.108139'>
    <tag k='addr:housenumber' v='10/45-49' />
    <tag k='addr:street' v='Pellisier Road' />
  </node>
  <node id='-49528' action='modify' lat='-33.824133' lon='151.108226'>
    <tag k='addr:housenumber' v='2/98' />
    <tag k='addr:street' v='Charles Street' />
  </node>
  <node id='-49529' action='modify' lat='-33.821598' lon='151.104374'>
    <tag k='addr:housenumber' v='4/162' />
    <tag k='addr:street' v='Princes Street' />
  </node>
  <node id='-49530' action='modify' lat='-33.825878' lon='151.111976'>
    <tag k='addr:housenumber' v='5/188-190' />
    <tag k='addr:street' v='Morrison Road' />
  </node>
  <node id='-49531' action='modify' lat='-33.830496' lon='151.108139'>
    <tag k='addr:housenumber' v='11/45-49' />
    <tag k='addr:street' v='Pellisier Road' />
  </node>
  <node id='-49532' action='modify' lat='-33.824133' lon='151.108226'>
    <tag k='addr:housenumber' v='3/98' />
    <tag k='addr:street' v='Charles Street' />
  </node>
  <node id='-49533' action='modify' lat='-33.830496' lon='151.108139'>
    <tag k='addr:housenumber' v='4/45-49' />
    <tag k='addr:street' v='Pellisier Road' />
  </node>
  <node id='-49534' action='modify' lat='-33.824133' lon='151.108226'>
    <tag k='addr:housenumber' v='4/98' />
    <tag k='addr:street' v='Charles Street' />
  </node>
  <node id='-49535' action='modify' lat='-33.830496' lon='151.108139'>
    <tag k='addr:housenumber' v='5/45-49' />
    <tag k='addr:street' v='Pellisier Road' />
  </node>
  <node id='-49536' action='modify' lat='-33.830496' lon='151.108139'>
    <tag k='addr:housenumber' v='6/45-49' />
    <tag k='addr:street' v='Pellisier Road' />
  </node>
  <node id='-49537' action='modify' lat='-33.830496' lon='151.108139'>
    <tag k='addr:housenumber' v='8/45-49' />
    <tag k='addr:street' v='Pellisier Road' />
  </node>
  <node id='-49538' action='modify' lat='-33.830496' lon='151.108139'>
    <tag k='addr:housenumber' v='9/45-49' />
    <tag k='addr:street' v='Pellisier Road' />
  </node>
  <node id='-49539' action='modify' lat='-33.830496' lon='151.108139'>
    <tag k='addr:housenumber' v='1/45-49' />
    <tag k='addr:street' v='Pellisier Road' />
  </node>
  <node id='-49540' action='modify' lat='-33.830496' lon='151.108139'>
    <tag k='addr:housenumber' v='7/45-49' />
    <tag k='addr:street' v='Pellisier Road' />
  </node>
  <node id='-49541' action='modify' lat='-33.830496' lon='151.108139'>
    <tag k='addr:housenumber' v='3/45-49' />
    <tag k='addr:street' v='Pellisier Road' />
  </node>
  <node id='-49542' action='modify' lat='-33.830496' lon='151.108139'>
    <tag k='addr:housenumber' v='2/45-49' />
    <tag k='addr:street' v='Pellisier Road' />
  </node>
  <node id='-49543' action='modify' lat='-33.830496' lon='151.108139'>
    <tag k='addr:housenumber' v='45-49' />
    <tag k='addr:street' v='Pellisier Road' />
  </node>
  <node id='-49544' action='modify' lat='-33.827353' lon='151.108051'>
    <tag k='addr:housenumber' v='70' />
    <tag k='addr:street' v='Phillip Road' />
  </node>
  <node id='-49545' action='modify' lat='-33.827353' lon='151.108051'>
    <tag k='addr:housenumber' v='11/70' />
    <tag k='addr:street' v='Phillip Road' />
  </node>
  <node id='-49546' action='modify' lat='-33.823573' lon='151.10885'>
    <tag k='addr:housenumber' v='90' />
    <tag k='addr:street' v='Charles Street' />
  </node>
  <node id='-49547' action='modify' lat='-33.827353' lon='151.108051'>
    <tag k='addr:housenumber' v='10/70' />
    <tag k='addr:street' v='Phillip Road' />
  </node>
  <node id='-49548' action='modify' lat='-33.823573' lon='151.10885'>
    <tag k='addr:housenumber' v='1/90' />
    <tag k='addr:street' v='Charles Street' />
  </node>
  <node id='-49549' action='modify' lat='-33.827353' lon='151.108051'>
    <tag k='addr:housenumber' v='9/70' />
    <tag k='addr:street' v='Phillip Road' />
  </node>
  <node id='-49550' action='modify' lat='-33.823573' lon='151.10885'>
    <tag k='addr:housenumber' v='2/90' />
    <tag k='addr:street' v='Charles Street' />
  </node>
  <node id='-49551' action='modify' lat='-33.827353' lon='151.108051'>
    <tag k='addr:housenumber' v='8/70' />
    <tag k='addr:street' v='Phillip Road' />
  </node>
  <node id='-49552' action='modify' lat='-33.823573' lon='151.10885'>
    <tag k='addr:housenumber' v='3/90' />
    <tag k='addr:street' v='Charles Street' />
  </node>
  <node id='-49553' action='modify' lat='-33.827353' lon='151.108051'>
    <tag k='addr:housenumber' v='7/70' />
    <tag k='addr:street' v='Phillip Road' />
  </node>
  <node id='-49554' action='modify' lat='-33.823573' lon='151.10885'>
    <tag k='addr:housenumber' v='4/90' />
    <tag k='addr:street' v='Charles Street' />
  </node>
  <node id='-49555' action='modify' lat='-33.827353' lon='151.108051'>
    <tag k='addr:housenumber' v='6/70' />
    <tag k='addr:street' v='Phillip Road' />
  </node>
  <node id='-49556' action='modify' lat='-33.823573' lon='151.10885'>
    <tag k='addr:housenumber' v='5/90' />
    <tag k='addr:street' v='Charles Street' />
  </node>
  <node id='-49557' action='modify' lat='-33.827353' lon='151.108051'>
    <tag k='addr:housenumber' v='5/70' />
    <tag k='addr:street' v='Phillip Road' />
  </node>
  <node id='-49558' action='modify' lat='-33.827353' lon='151.108051'>
    <tag k='addr:housenumber' v='4/70' />
    <tag k='addr:street' v='Phillip Road' />
  </node>
  <node id='-49559' action='modify' lat='-33.827353' lon='151.108051'>
    <tag k='addr:housenumber' v='3/70' />
    <tag k='addr:street' v='Phillip Road' />
  </node>
  <node id='-49560' action='modify' lat='-33.827353' lon='151.108051'>
    <tag k='addr:housenumber' v='2/70' />
    <tag k='addr:street' v='Phillip Road' />
  </node>
  <node id='-49561' action='modify' lat='-33.827353' lon='151.108051'>
    <tag k='addr:housenumber' v='1/70' />
    <tag k='addr:street' v='Phillip Road' />
  </node>
  <node id='-49562' action='modify' lat='-33.82595' lon='151.109693'>
    <tag k='addr:housenumber' v='9' />
    <tag k='addr:street' v='Mitchell Street' />
  </node>
  <node id='-49563' action='modify' lat='-33.825481' lon='151.101256'>
    <tag k='addr:housenumber' v='57' />
    <tag k='addr:street' v='Waterview Street' />
  </node>
  <node id='-49564' action='modify' lat='-33.82595' lon='151.109693'>
    <tag k='addr:housenumber' v='1/9' />
    <tag k='addr:street' v='Mitchell Street' />
  </node>
  <node id='-49565' action='modify' lat='-33.825481' lon='151.101256'>
    <tag k='addr:housenumber' v='1/57' />
    <tag k='addr:street' v='Waterview Street' />
  </node>
  <node id='-49566' action='modify' lat='-33.82595' lon='151.109693'>
    <tag k='addr:housenumber' v='2/9' />
    <tag k='addr:street' v='Mitchell Street' />
  </node>
  <node id='-49567' action='modify' lat='-33.825481' lon='151.101256'>
    <tag k='addr:housenumber' v='2/57' />
    <tag k='addr:street' v='Waterview Street' />
  </node>
  <node id='-49568' action='modify' lat='-33.82595' lon='151.109693'>
    <tag k='addr:housenumber' v='3/9' />
    <tag k='addr:street' v='Mitchell Street' />
  </node>
  <node id='-49569' action='modify' lat='-33.825481' lon='151.101256'>
    <tag k='addr:housenumber' v='3/57' />
    <tag k='addr:street' v='Waterview Street' />
  </node>
  <node id='-49570' action='modify' lat='-33.82595' lon='151.109693'>
    <tag k='addr:housenumber' v='4/9' />
    <tag k='addr:street' v='Mitchell Street' />
  </node>
  <node id='-49571' action='modify' lat='-33.823629' lon='151.101261'>
    <tag k='addr:housenumber' v='147' />
    <tag k='addr:street' v='Princes Street' />
  </node>
  <node id='-49572' action='modify' lat='-33.82595' lon='151.109693'>
    <tag k='addr:housenumber' v='5/9' />
    <tag k='addr:street' v='Mitchell Street' />
  </node>
  <node id='-49573' action='modify' lat='-33.823629' lon='151.101261'>
    <tag k='addr:housenumber' v='1/147' />
    <tag k='addr:street' v='Princes Street' />
  </node>
  <node id='-49574' action='modify' lat='-33.82595' lon='151.109693'>
    <tag k='addr:housenumber' v='6/9' />
    <tag k='addr:street' v='Mitchell Street' />
  </node>
  <node id='-49575' action='modify' lat='-33.823629' lon='151.101261'>
    <tag k='addr:housenumber' v='2/147' />
    <tag k='addr:street' v='Princes Street' />
  </node>
  <node id='-49576' action='modify' lat='-33.82595' lon='151.109693'>
    <tag k='addr:housenumber' v='7/9' />
    <tag k='addr:street' v='Mitchell Street' />
  </node>
  <node id='-49577' action='modify' lat='-33.823629' lon='151.101261'>
    <tag k='addr:housenumber' v='3/147' />
    <tag k='addr:street' v='Princes Street' />
  </node>
  <node id='-49578' action='modify' lat='-33.825069' lon='151.111619'>
    <tag k='addr:housenumber' v='175-177' />
    <tag k='addr:street' v='Morrison Road' />
  </node>
  <node id='-49579' action='modify' lat='-33.823629' lon='151.101261'>
    <tag k='addr:housenumber' v='4/147' />
    <tag k='addr:street' v='Princes Street' />
  </node>
  <node id='-49580' action='modify' lat='-33.825069' lon='151.111619'>
    <tag k='addr:housenumber' v='5/175-177' />
    <tag k='addr:street' v='Morrison Road' />
  </node>
  <node id='-49581' action='modify' lat='-33.825069' lon='151.111619'>
    <tag k='addr:housenumber' v='4/175-177' />
    <tag k='addr:street' v='Morrison Road' />
  </node>
  <node id='-49582' action='modify' lat='-33.825069' lon='151.111619'>
    <tag k='addr:housenumber' v='3/175-177' />
    <tag k='addr:street' v='Morrison Road' />
  </node>
  <node id='-49583' action='modify' lat='-33.825069' lon='151.111619'>
    <tag k='addr:housenumber' v='2/175-177' />
    <tag k='addr:street' v='Morrison Road' />
  </node>
  <node id='-49584' action='modify' lat='-33.825069' lon='151.111619'>
    <tag k='addr:housenumber' v='1/175-177' />
    <tag k='addr:street' v='Morrison Road' />
  </node>
  <node id='-49585' action='modify' lat='-33.825975' lon='151.111058'>
    <tag k='addr:housenumber' v='23' />
    <tag k='addr:street' v='Donnelly Street' />
  </node>
  <node id='-49586' action='modify' lat='-33.825975' lon='151.111058'>
    <tag k='addr:housenumber' v='25' />
    <tag k='addr:street' v='Donnelly Street' />
  </node>
  <node id='-49587' action='modify' lat='-33.825975' lon='151.111058'>
    <tag k='addr:housenumber' v='27' />
    <tag k='addr:street' v='Donnelly Street' />
  </node>
  <node id='-49588' action='modify' lat='-33.825464' lon='151.109942'>
    <tag k='addr:housenumber' v='210' />
    <tag k='addr:street' v='Morrison Road' />
  </node>
  <node id='-49589' action='modify' lat='-33.825975' lon='151.111058'>
    <tag k='addr:housenumber' v='29' />
    <tag k='addr:street' v='Donnelly Street' />
  </node>
  <node id='-49590' action='modify' lat='-33.825464' lon='151.109942'>
    <tag k='addr:housenumber' v='1/210' />
    <tag k='addr:street' v='Morrison Road' />
  </node>
  <node id='-49591' action='modify' lat='-33.825464' lon='151.109942'>
    <tag k='addr:housenumber' v='2/210' />
    <tag k='addr:street' v='Morrison Road' />
  </node>
  <node id='-49592' action='modify' lat='-33.825464' lon='151.109942'>
    <tag k='addr:housenumber' v='3/210' />
    <tag k='addr:street' v='Morrison Road' />
  </node>
  <node id='-49593' action='modify' lat='-33.825464' lon='151.109942'>
    <tag k='addr:housenumber' v='4/210' />
    <tag k='addr:street' v='Morrison Road' />
  </node>
  <node id='-49594' action='modify' lat='-33.825464' lon='151.109942'>
    <tag k='addr:housenumber' v='5/210' />
    <tag k='addr:street' v='Morrison Road' />
  </node>
</osm>
