<?xml version='1.0' encoding='UTF-8'?>
<osm version='0.6' generator='JOSM'>
  <node id='-102249' action='modify' visible='true' lat='-36.84582511449' lon='149.30827872282'>
    <tag k='addr:housenumber' v='85' />
    <tag k='addr:street' v='Green Lake Road' />
  </node>
  <node id='-102251' action='modify' visible='true' lat='-36.84331318159' lon='149.2831390701'>
    <tag k='addr:housename' v='Green Lake' />
    <tag k='addr:housenumber' v='950' />
    <tag k='addr:street' v='Monaro Highway' />
    <tag k='name' v='Green Lake' />
  </node>
  <node id='-102255' action='modify' visible='true' lat='-36.81366627762' lon='149.28525707134'>
    <tag k='addr:housenumber' v='39' />
    <tag k='addr:street' v='Burnima Street' />
    <tag k='name' v='Bibbenluke Hall' />
  </node>
  <node id='-102257' action='modify' visible='true' lat='-36.81381101165' lon='149.29010946336'>
    <tag k='addr:housenumber' v='3' />
    <tag k='addr:street' v='Wellesley Street' />
  </node>
  <node id='-102259' action='modify' visible='true' lat='-36.81420066117' lon='149.28028365141'>
    <tag k='addr:housename' v='Bibbenluke Lodge' />
    <tag k='addr:housenumber' v='3' />
    <tag k='addr:street' v='Bukalong Siding Road' />
    <tag k='name' v='Bibbenluke Lodge' />
  </node>
  <node id='-102261' action='modify' visible='true' lat='-36.83603023224' lon='149.2450605715'>
    <tag k='addr:housename' v='Burrawong' />
    <tag k='addr:housenumber' v='345' />
    <tag k='addr:street' v='Burnima Road' />
    <tag k='name' v='Burrawong' />
  </node>
  <node id='-102263' action='modify' visible='true' lat='-36.84772702951' lon='149.30395216603'>
    <tag k='addr:housename' v='Maddison Cottage' />
    <tag k='addr:housenumber' v='119' />
    <tag k='addr:street' v='Green Lake Road' />
  </node>
  <node id='-102265' action='modify' visible='true' lat='-36.81267764846' lon='149.28966868839'>
    <tag k='addr:housenumber' v='4' />
    <tag k='addr:street' v='Burnima Street' />
  </node>
  <node id='-102267' action='modify' visible='true' lat='-36.82305544194' lon='149.3358298682'>
    <tag k='addr:housenumber' v='174' />
    <tag k='addr:street' v='Mooresprings Road' />
  </node>
  <node id='-102269' action='modify' visible='true' lat='-36.81301440549' lon='149.28867732181'>
    <tag k='addr:housenumber' v='66' />
    <tag k='addr:street' v='Burnima Street' />
    <tag k='amenity' v='fire_station' />
    <tag k='name' v='Bibbenluke RFB' />
  </node>
  <node id='-102271' action='modify' visible='true' lat='-36.8124991286' lon='149.29029898291'>
    <tag k='addr:housenumber' v='6' />
    <tag k='addr:street' v='Wellesley Street' />
  </node>
  <node id='-102273' action='modify' visible='true' lat='-36.81481684155' lon='149.28372601224'>
    <tag k='addr:housenumber' v='4' />
    <tag k='addr:street' v='Burnima Street' />
  </node>
  <node id='-102275' action='modify' visible='true' lat='-36.81461753053' lon='149.28433866477'>
    <tag k='addr:housenumber' v='26' />
    <tag k='addr:street' v='Burnima Street' />
  </node>
  <node id='-102279' action='modify' visible='true' lat='-36.81055227112' lon='149.28622559898'>
    <tag k='addr:housenumber' v='1' />
    <tag k='addr:street' v='Bank Street' />
  </node>
  <node id='-102281' visible='true' lat='-36.81295994227' lon='149.2889438868'>
    <tag k='addr:housenumber' v='3' />
    <tag k='addr:street' v='Burnima Street' />
  </node>
  <node id='-102283' action='modify' visible='true' lat='-36.84390079464' lon='149.30495205039'>
    <tag k='addr:housename' v='Sautelle Lodge' />
    <tag k='addr:housenumber' v='109' />
    <tag k='addr:street' v='Green Lake Road' />
  </node>
  <node id='-102285' action='modify' visible='true' lat='-36.79889448838' lon='149.30091249927'>
    <tag k='addr:housenumber' v='106' />
    <tag k='addr:street' v='Broadview Road' />
  </node>
  <node id='-102289' action='modify' visible='true' lat='-36.81399889688' lon='149.28385946977'>
    <tag k='addr:housenumber' v='1' />
    <tag k='addr:street' v='Burnima Street' />
  </node>
  <node id='-102291' action='modify' visible='true' lat='-36.81430735331' lon='149.29290712433'>
    <tag k='addr:housenumber' v='10' />
    <tag k='addr:street' v='Evans Street' />
  </node>
  <node id='-103579' action='modify' visible='true' lat='-36.81006207312' lon='149.27870615244'>
    <tag k='addr:housename' v='Bibbenluke Station' />
    <tag k='addr:housenumber' v='24' />
    <tag k='addr:street' v='Bukalong Siding Road' />
    <tag k='name' v='Bibbenluke Station' />
  </node>
  <node id='-103593' action='modify' visible='true' lat='-36.80404038719' lon='149.29852364302'>
    <tag k='addr:housename' v='Broadview' />
    <tag k='addr:street' v='Broadview Road' />
    <tag k='name' v='Broadview' />
  </node>
  <node id='-107875' action='modify' visible='true' lat='-36.79557403145' lon='149.33219611108'>
    <tag k='addr:housename' v='Exeter' />
    <tag k='addr:street' v='Broadview Road' />
    <tag k='name' v='Exeter' />
  </node>
  <node id='-107893' action='modify' visible='true' lat='-36.79373544291' lon='149.33222292781' />
  <node id='-107894' action='modify' visible='true' lat='-36.79096029995' lon='149.3349265945' />
  <way id='-107895' action='modify' visible='true'>
    <nd ref='-107893' />
    <nd ref='-107894' />
    <tag k='aeroway' v='runway' />
    <tag k='surface' v='compacted' />
  </way>
</osm>
