<?xml version='1.0' encoding='UTF-8'?>
<osm version='0.6' generator='JOSM'>
  <node id='-447230' lat='-33.89766863071' lon='151.03008458398'>
    <tag k='addr:housenumber' v='36E' />
    <tag k='addr:street' v='Brunker Road' />
  </node>
  <node id='-447234' lat='-33.89398629673' lon='151.03698112147'>
    <tag k='addr:housenumber' v='10' />
    <tag k='addr:street' v='William Holmes Street' />
  </node>
  <node id='-447236' lat='-33.89586765743' lon='151.03478845122'>
    <tag k='addr:housenumber' v='30' />
    <tag k='addr:street' v='William Holmes Street' />
  </node>
  <node id='-447238' lat='-33.89783825672' lon='151.03463015665'>
    <tag k='addr:housenumber' v='10' />
    <tag k='addr:street' v='Nelson Short Street' />
  </node>
  <node id='-447240' lat='-33.89240661441' lon='151.02739560295'>
    <tag k='addr:housenumber' v='43' />
    <tag k='addr:street' v='Jones Avenue' />
  </node>
  <node id='-447242' lat='-33.89402954' lon='151.02848821833'>
    <tag k='addr:housenumber' v='16' />
    <tag k='addr:street' v='Rowe Drive' />
  </node>
  <node id='-447246' lat='-33.89434316688' lon='151.02794562768'>
    <tag k='addr:housenumber' v='9' />
    <tag k='addr:street' v='Rowe Drive' />
  </node>
  <node id='-447248' lat='-33.89252335714' lon='151.027370881'>
    <tag k='addr:housenumber' v='41' />
    <tag k='addr:street' v='Jones Avenue' />
  </node>
  <node id='-447250' lat='-33.89266451735' lon='151.02734098402'>
    <tag k='addr:housenumber' v='39' />
    <tag k='addr:street' v='Jones Avenue' />
  </node>
  <node id='-447252' lat='-33.89280212484' lon='151.02731183591'>
    <tag k='addr:housenumber' v='37' />
    <tag k='addr:street' v='Jones Avenue' />
  </node>
  <node id='-447254' lat='-33.89291531791' lon='151.02728785894'>
    <tag k='addr:housenumber' v='35' />
    <tag k='addr:street' v='Jones Avenue' />
  </node>
  <node id='-447256' lat='-33.89301297958' lon='151.02726718697'>
    <tag k='addr:housenumber' v='33' />
    <tag k='addr:street' v='Jones Avenue' />
  </node>
  <node id='-447258' lat='-33.89311063615' lon='151.02724649927'>
    <tag k='addr:housenumber' v='31' />
    <tag k='addr:street' v='Jones Avenue' />
  </node>
  <node id='-447260' lat='-33.89320829462' lon='151.02722581379'>
    <tag k='addr:housenumber' v='29' />
    <tag k='addr:street' v='Jones Avenue' />
  </node>
  <node id='-447262' lat='-33.89330595283' lon='151.0272051308'>
    <tag k='addr:housenumber' v='27' />
    <tag k='addr:street' v='Jones Avenue' />
  </node>
  <node id='-447264' lat='-33.89340360675' lon='151.02718444642'>
    <tag k='addr:housenumber' v='25' />
    <tag k='addr:street' v='Jones Avenue' />
  </node>
  <node id='-447266' lat='-33.89351680068' lon='151.02716046947'>
    <tag k='addr:housenumber' v='23' />
    <tag k='addr:street' v='Jones Avenue' />
  </node>
  <node id='-447268' lat='-33.89364553232' lon='151.0271332036'>
    <tag k='addr:housenumber' v='21' />
    <tag k='addr:street' v='Jones Avenue' />
  </node>
  <node id='-447270' lat='-33.89377426499' lon='151.02710594291'>
    <tag k='addr:housenumber' v='19' />
    <tag k='addr:street' v='Jones Avenue' />
  </node>
  <node id='-447272' lat='-33.8938874626' lon='151.02708198469'>
    <tag k='addr:housenumber' v='17' />
    <tag k='addr:street' v='Jones Avenue' />
  </node>
  <node id='-447274' lat='-33.89398511319' lon='151.02706128336'>
    <tag k='addr:housenumber' v='15' />
    <tag k='addr:street' v='Jones Avenue' />
  </node>
  <node id='-447276' lat='-33.89408277362' lon='151.02704059999'>
    <tag k='addr:housenumber' v='13' />
    <tag k='addr:street' v='Jones Avenue' />
  </node>
  <node id='-447278' lat='-33.89419596986' lon='151.02701662167'>
    <tag k='addr:housenumber' v='11' />
    <tag k='addr:street' v='Jones Avenue' />
  </node>
  <node id='-447280' lat='-33.8943246983' lon='151.02698936123'>
    <tag k='addr:housenumber' v='9' />
    <tag k='addr:street' v='Jones Avenue' />
  </node>
  <node id='-447282' lat='-33.89445342641' lon='151.02696209377'>
    <tag k='addr:housenumber' v='7' />
    <tag k='addr:street' v='Jones Avenue' />
  </node>
  <node id='-447284' lat='-33.89458215829' lon='151.02693482687'>
    <tag k='addr:housenumber' v='5' />
    <tag k='addr:street' v='Jones Avenue' />
  </node>
  <node id='-447286' lat='-33.89471684854' lon='151.02690482541'>
    <tag k='addr:housenumber' v='3' />
    <tag k='addr:street' v='Jones Avenue' />
  </node>
  <node id='-447288' lat='-33.8927578841' lon='151.02791254004'>
    <tag k='addr:housenumber' v='38' />
    <tag k='addr:street' v='Jones Avenue' />
  </node>
  <node id='-447290' lat='-33.8929041652' lon='151.02788029473'>
    <tag k='addr:housenumber' v='36' />
    <tag k='addr:street' v='Jones Avenue' />
  </node>
  <node id='-447292' lat='-33.8930328965' lon='151.027853026'>
    <tag k='addr:housenumber' v='34' />
    <tag k='addr:street' v='Jones Avenue' />
  </node>
  <node id='-447294' lat='-33.89316162389' lon='151.02782576361'>
    <tag k='addr:housenumber' v='32' />
    <tag k='addr:street' v='Jones Avenue' />
  </node>
  <node id='-447296' lat='-33.89329035345' lon='151.02779850268'>
    <tag k='addr:housenumber' v='30' />
    <tag k='addr:street' v='Jones Avenue' />
  </node>
  <node id='-447298' lat='-33.89350120427' lon='151.02775384819'>
    <tag k='addr:housenumber' v='26' />
    <tag k='addr:street' v='Jones Avenue' />
  </node>
  <node id='-447300' lat='-33.8936143984' lon='151.0277298727'>
    <tag k='addr:housenumber' v='24' />
    <tag k='addr:street' v='Jones Avenue' />
  </node>
  <node id='-447302' lat='-33.89374313024' lon='151.0277026059'>
    <tag k='addr:housenumber' v='22' />
    <tag k='addr:street' v='Jones Avenue' />
  </node>
  <node id='-447304' lat='-33.89387186172' lon='151.02767534122'>
    <tag k='addr:housenumber' v='20' />
    <tag k='addr:street' v='Jones Avenue' />
  </node>
  <node id='-447306' lat='-33.8940005934' lon='151.02764807721'>
    <tag k='addr:housenumber' v='18' />
    <tag k='addr:street' v='Jones Avenue' />
  </node>
  <node id='-447308' lat='-33.89411378834' lon='151.02762409797'>
    <tag k='addr:housenumber' v='16' />
    <tag k='addr:street' v='Jones Avenue' />
  </node>
  <node id='-447310' lat='-33.89421144723' lon='151.02760342241'>
    <tag k='addr:housenumber' v='14' />
    <tag k='addr:street' v='Jones Avenue' />
  </node>
  <node id='-447312' lat='-33.89430910417' lon='151.0275827344'>
    <tag k='addr:housenumber' v='12' />
    <tag k='addr:street' v='Jones Avenue' />
  </node>
  <node id='-447314' lat='-33.89340354744' lon='151.02777452358'>
    <tag k='addr:housenumber' v='28' />
    <tag k='addr:street' v='Jones Avenue' />
  </node>
  <node id='-447316' lat='-33.89280689922' lon='151.02827556292'>
    <tag k='addr:housenumber' v='33' />
    <tag k='addr:street' v='Rowe Drive' />
  </node>
  <node id='-447318' lat='-33.89295120988' lon='151.02824632462'>
    <tag k='addr:housenumber' v='31' />
    <tag k='addr:street' v='Rowe Drive' />
  </node>
  <node id='-447320' lat='-33.89308438056' lon='151.02821811933'>
    <tag k='addr:housenumber' v='29' />
    <tag k='addr:street' v='Rowe Drive' />
  </node>
  <node id='-447322' lat='-33.89321754813' lon='151.0281899195'>
    <tag k='addr:housenumber' v='27' />
    <tag k='addr:street' v='Rowe Drive' />
  </node>
  <node id='-447324' lat='-33.89335071441' lon='151.02816171301'>
    <tag k='addr:housenumber' v='25' />
    <tag k='addr:street' v='Rowe Drive' />
  </node>
  <node id='-447326' lat='-33.89348388776' lon='151.02813351028'>
    <tag k='addr:housenumber' v='23' />
    <tag k='addr:street' v='Rowe Drive' />
  </node>
  <node id='-447328' lat='-33.89361705831' lon='151.02810530518'>
    <tag k='addr:housenumber' v='21' />
    <tag k='addr:street' v='Rowe Drive' />
  </node>
  <node id='-447330' lat='-33.89373246817' lon='151.02808086077'>
    <tag k='addr:housenumber' v='19' />
    <tag k='addr:street' v='Rowe Drive' />
  </node>
  <node id='-447332' lat='-33.89383012608' lon='151.02806018'>
    <tag k='addr:housenumber' v='17' />
    <tag k='addr:street' v='Rowe Drive' />
  </node>
  <node id='-447334' lat='-33.89394554149' lon='151.02803573792'>
    <tag k='addr:housenumber' v='15' />
    <tag k='addr:street' v='Rowe Drive' />
  </node>
  <node id='-447336' lat='-33.89407871113' lon='151.02800753672'>
    <tag k='addr:housenumber' v='13' />
    <tag k='addr:street' v='Rowe Drive' />
  </node>
  <node id='-447338' lat='-33.89421186161' lon='151.02797929307'>
    <tag k='addr:housenumber' v='11' />
    <tag k='addr:street' v='Rowe Drive' />
  </node>
  <node id='-447340' lat='-33.89249145937' lon='151.02837471291'>
    <tag k='addr:housenumber' v='5' />
    <tag k='addr:street' v='Aspinall Street' />
  </node>
  <node id='-447342' lat='-33.89375676156' lon='151.02862289248'>
    <tag k='addr:housenumber' v='18' />
    <tag k='addr:street' v='Rowe Drive' />
  </node>
  <node id='-447344' lat='-33.89364887956' lon='151.02867615196'>
    <tag k='addr:housenumber' v='20' />
    <tag k='addr:street' v='Rowe Drive' />
  </node>
  <node id='-447346' lat='-33.89353957751' lon='151.02873011002'>
    <tag k='addr:housenumber' v='22' />
    <tag k='addr:street' v='Rowe Drive' />
  </node>
  <node id='-447348' lat='-33.89341599736' lon='151.02879112311'>
    <tag k='addr:housenumber' v='24' />
    <tag k='addr:street' v='Rowe Drive' />
  </node>
  <node id='-447350' lat='-33.89325336598' lon='151.0289851894'>
    <tag k='addr:housenumber' v='26' />
    <tag k='addr:street' v='Rowe Drive' />
  </node>
  <node id='-447352' lat='-33.89287419698' lon='151.02878224667'>
    <tag k='addr:housenumber' v='34' />
    <tag k='addr:street' v='Rowe Drive' />
  </node>
  <node id='-447354' lat='-33.89300107892' lon='151.02931687009'>
    <tag k='addr:housenumber' v='18' />
    <tag k='addr:street' v='Aspinall Street' />
  </node>
  <node id='-447356' lat='-33.892988232' lon='151.02912550033'>
    <tag k='addr:housenumber' v='16' />
    <tag k='addr:street' v='Aspinall Street' />
  </node>
  <node id='-447358' lat='-33.89296784676' lon='151.02898710635'>
    <tag k='addr:housenumber' v='14' />
    <tag k='addr:street' v='Aspinall Street' />
  </node>
  <node id='-447360' lat='-33.89320632932' lon='151.02871045962'>
    <tag k='addr:housenumber' v='28' />
    <tag k='addr:street' v='Rowe Drive' />
  </node>
  <node id='-447362' lat='-33.89309091281' lon='151.028734895'>
    <tag k='addr:housenumber' v='30' />
    <tag k='addr:street' v='Rowe Drive' />
  </node>
  <node id='-447364' lat='-33.89299325721' lon='151.02875557724'>
    <tag k='addr:housenumber' v='32' />
    <tag k='addr:street' v='Rowe Drive' />
  </node>
  <node id='-447366' lat='-33.89091637227' lon='151.02961694406'>
    <tag k='addr:housenumber' v='31' />
    <tag k='addr:street' v='Purvis Avenue' />
  </node>
  <node id='-447368' lat='-33.89086665797' lon='151.02962747204'>
    <tag k='addr:housenumber' v='33' />
    <tag k='addr:street' v='Purvis Avenue' />
  </node>
  <node id='-447370' action='modify' lat='-33.89082138399' lon='151.02961542231'>
    <tag k='addr:housenumber' v='35' />
    <tag k='addr:street' v='Purvis Avenue' />
  </node>
  <node id='-447372' action='modify' lat='-33.89082138399' lon='151.02965870931'>
    <tag k='addr:housenumber' v='35A' />
    <tag k='addr:street' v='Purvis Avenue' />
  </node>
  <node id='-447374' action='modify' lat='-33.89077166679' lon='151.02962595998'>
    <tag k='addr:housenumber' v='37' />
    <tag k='addr:street' v='Purvis Avenue' />
  </node>
  <node id='-447376' action='modify' lat='-33.89077166679' lon='151.02966924696'>
    <tag k='addr:housenumber' v='37A' />
    <tag k='addr:street' v='Purvis Avenue' />
  </node>
  <node id='-447378' action='modify' lat='-33.890717505' lon='151.0296374177'>
    <tag k='addr:housenumber' v='39' />
    <tag k='addr:street' v='Purvis Avenue' />
  </node>
  <node id='-447380' action='modify' lat='-33.890717505' lon='151.02968070465'>
    <tag k='addr:housenumber' v='39A' />
    <tag k='addr:street' v='Purvis Avenue' />
  </node>
  <node id='-447382' lat='-33.89066779197' lon='151.02966958471'>
    <tag k='addr:housenumber' v='41' />
    <tag k='addr:street' v='Purvis Avenue' />
  </node>
  <node id='-447384' lat='-33.89062251652' lon='151.0296791836'>
    <tag k='addr:housenumber' v='43' />
    <tag k='addr:street' v='Purvis Avenue' />
  </node>
  <node id='-447386' lat='-33.89057723348' lon='151.0296887619'>
    <tag k='addr:housenumber' v='45' />
    <tag k='addr:street' v='Purvis Avenue' />
  </node>
  <node id='-447388' lat='-33.890531955' lon='151.02969835516'>
    <tag k='addr:housenumber' v='47' />
    <tag k='addr:street' v='Purvis Avenue' />
  </node>
  <node id='-447390' action='modify' lat='-33.89048223941' lon='151.02968724437'>
    <tag k='addr:housenumber' v='49' />
    <tag k='addr:street' v='Purvis Avenue' />
  </node>
  <node id='-447392' action='modify' lat='-33.89048223941' lon='151.0297305312'>
    <tag k='addr:housenumber' v='49A' />
    <tag k='addr:street' v='Purvis Avenue' />
  </node>
  <node id='-447394' lat='-33.89042808212' lon='151.02972034613'>
    <tag k='addr:housenumber' v='51' />
    <tag k='addr:street' v='Purvis Avenue' />
  </node>
  <node id='-447396' lat='-33.89037836453' lon='151.02973088482'>
    <tag k='addr:housenumber' v='53' />
    <tag k='addr:street' v='Purvis Avenue' />
  </node>
  <node id='-447398' action='modify' lat='-33.89033308753' lon='151.02971882958'>
    <tag k='addr:housenumber' v='55' />
    <tag k='addr:street' v='Purvis Avenue' />
  </node>
  <node id='-447400' action='modify' lat='-33.89033308753' lon='151.02976211634'>
    <tag k='addr:housenumber' v='55A' />
    <tag k='addr:street' v='Purvis Avenue' />
  </node>
  <node id='-447402' action='modify' lat='-33.89028781045' lon='151.02972840138'>
    <tag k='addr:housenumber' v='57' />
    <tag k='addr:street' v='Purvis Avenue' />
  </node>
  <node id='-447404' action='modify' lat='-33.89028781045' lon='151.02977168811'>
    <tag k='addr:housenumber' v='57A' />
    <tag k='addr:street' v='Purvis Avenue' />
  </node>
  <node id='-447406' lat='-33.89023809482' lon='151.02976059207'>
    <tag k='addr:housenumber' v='59' />
    <tag k='addr:street' v='Purvis Avenue' />
  </node>
  <node id='-447408' action='modify' lat='-33.89018393785' lon='151.02979368348'>
    <tag k='addr:housenumber' v='61' />
    <tag k='addr:street' v='Purvis Avenue' />
  </node>
  <node id='-447410' action='modify' lat='-33.89018393785' lon='151.0297503968'>
    <tag k='addr:housenumber' v='61A' />
    <tag k='addr:street' v='Purvis Avenue' />
  </node>
  <node id='-447416' lat='-33.8904196926' lon='151.02930223802'>
    <tag k='addr:housenumber' v='72' />
    <tag k='addr:street' v='Rowe Drive' />
  </node>
  <node id='-447418' lat='-33.89049852862' lon='151.02928553897'>
    <tag k='addr:housenumber' v='70' />
    <tag k='addr:street' v='Rowe Drive' />
  </node>
  <node id='-447420' lat='-33.89013423044' lon='151.02978256722'>
    <tag k='addr:housenumber' v='63' />
    <tag k='addr:street' v='Purvis Avenue' />
  </node>
  <node id='-447422' lat='-33.89008895214' lon='151.02979219214'>
    <tag k='addr:housenumber' v='65' />
    <tag k='addr:street' v='Purvis Avenue' />
  </node>
  <node id='-447424' action='modify' lat='-33.89004366147' lon='151.02978010673'>
    <tag k='addr:housenumber' v='67' />
    <tag k='addr:street' v='Purvis Avenue' />
  </node>
  <node id='-447426' action='modify' lat='-33.89004366147' lon='151.02982339334'>
    <tag k='addr:housenumber' v='67A' />
    <tag k='addr:street' v='Purvis Avenue' />
  </node>
  <node id='-447436' lat='-33.89126391604' lon='151.02912345553'>
    <tag k='addr:housenumber' v='52' />
    <tag k='addr:street' v='Rowe Drive' />
  </node>
  <node id='-447438' lat='-33.89030262085' lon='151.02932702254'>
    <tag k='addr:housenumber' v='74' />
    <tag k='addr:street' v='Rowe Drive' />
  </node>
  <node id='-447440' lat='-33.8907732778' lon='151.02922735596'>
    <tag k='addr:housenumber' v='62' />
    <tag k='addr:street' v='Rowe Drive' />
  </node>
  <node id='-447450' lat='-33.88951274057' lon='151.02904979539'>
    <tag k='addr:housenumber' v='15' />
    <tag k='addr:street' v='Moriarty Way' />
  </node>
  <node id='-447452' lat='-33.8894266' lon='151.02802526096'>
    <tag k='addr:housenumber' v='91' />
    <tag k='addr:street' v='Jones Avenue' />
  </node>
  <node id='-447454' lat='-33.88943100496' lon='151.02849498793'>
    <tag k='addr:housenumber' v='9' />
    <tag k='addr:street' v='Moriarty Way' />
  </node>
  <node id='-447456' lat='-33.89241070655' lon='151.02892450609'>
    <tag k='addr:housenumber' v='38' />
    <tag k='addr:street' v='Rowe Drive' />
  </node>
  <node id='-447458' lat='-33.88956510558' lon='151.02940543672'>
    <tag k='addr:housenumber' v='17' />
    <tag k='addr:street' v='Moriarty Way' />
  </node>
  <node id='-447460' lat='-33.88958748839' lon='151.02954926161'>
    <tag k='addr:housenumber' v='19' />
    <tag k='addr:street' v='Moriarty Way' />
  </node>
  <node id='-447462' lat='-33.88960786944' lon='151.02968765267'>
    <tag k='addr:housenumber' v='21' />
    <tag k='addr:street' v='Moriarty Way' />
  </node>
  <node id='-447464' lat='-33.88974822605' lon='151.02795714576'>
    <tag k='addr:housenumber' v='89' />
    <tag k='addr:street' v='Jones Avenue' />
  </node>
  <node id='-447466' lat='-33.89063485886' lon='151.0277708418'>
    <tag k='addr:housenumber' v='73' />
    <tag k='addr:street' v='Jones Avenue' />
  </node>
  <node id='-447468' lat='-33.89050035725' lon='151.02779932747'>
    <tag k='addr:housenumber' v='75' />
    <tag k='addr:street' v='Jones Avenue' />
  </node>
  <node id='-447470' lat='-33.88986780018' lon='151.02793329203'>
    <tag k='addr:housenumber' v='87' />
    <tag k='addr:street' v='Jones Avenue' />
  </node>
  <node id='-447472' lat='-33.88996545601' lon='151.0279126077'>
    <tag k='addr:housenumber' v='85' />
    <tag k='addr:street' v='Jones Avenue' />
  </node>
  <node id='-447474' lat='-33.8900631151' lon='151.02789192978'>
    <tag k='addr:housenumber' v='83' />
    <tag k='addr:street' v='Jones Avenue' />
  </node>
  <node id='-447476' lat='-33.89016077209' lon='151.02787124247'>
    <tag k='addr:housenumber' v='81' />
    <tag k='addr:street' v='Jones Avenue' />
  </node>
  <node id='-447478' lat='-33.8902584307' lon='151.02785056582'>
    <tag k='addr:housenumber' v='79' />
    <tag k='addr:street' v='Jones Avenue' />
  </node>
  <node id='-447480' lat='-33.89037162577' lon='151.0278265893'>
    <tag k='addr:housenumber' v='77' />
    <tag k='addr:street' v='Jones Avenue' />
  </node>
  <node id='-447482' lat='-33.89070194113' lon='151.03043057195'>
    <tag k='addr:housenumber' v='20' />
    <tag k='addr:street' v='Purvis Avenue' />
  </node>
  <node id='-447484' lat='-33.89170067403' lon='151.03031517605'>
    <tag k='addr:housenumber' v='40' />
    <tag k='addr:street' v='Potts Lane' />
  </node>
  <node id='-447486' lat='-33.89165887076' lon='151.02985233613'>
    <tag k='addr:housenumber' v='26' />
    <tag k='addr:street' v='Potts Lane' />
  </node>
  <node id='-447488' lat='-33.89166904305' lon='151.02992137429'>
    <tag k='addr:housenumber' v='28' />
    <tag k='addr:street' v='Potts Lane' />
  </node>
  <node id='-447490' lat='-33.89167703815' lon='151.02997566633'>
    <tag k='addr:housenumber' v='30' />
    <tag k='addr:street' v='Potts Lane' />
  </node>
  <node id='-447492' lat='-33.89168581189' lon='151.03003528263'>
    <tag k='addr:housenumber' v='32' />
    <tag k='addr:street' v='Potts Lane' />
  </node>
  <node id='-447494' lat='-33.89169538127' lon='151.03010022105'>
    <tag k='addr:housenumber' v='34' />
    <tag k='addr:street' v='Potts Lane' />
  </node>
  <node id='-447496' lat='-33.8917041597' lon='151.03015983898'>
    <tag k='addr:housenumber' v='36' />
    <tag k='addr:street' v='Potts Lane' />
  </node>
  <node id='-447498' lat='-33.8917119968' lon='151.03021414157'>
    <tag k='addr:housenumber' v='38' />
    <tag k='addr:street' v='Potts Lane' />
  </node>
  <node id='-447500' lat='-33.89228486645' lon='151.02983546936'>
    <tag k='addr:housenumber' v='8' />
    <tag k='addr:street' v='Purvis Avenue' />
  </node>
  <node id='-447502' lat='-33.89250787815' lon='151.02972537565'>
    <tag k='addr:housenumber' v='6' />
    <tag k='addr:street' v='Purvis Avenue' />
  </node>
  <node id='-447504' lat='-33.89219116893' lon='151.02988173083'>
    <tag k='addr:housenumber' v='10' />
    <tag k='addr:street' v='Purvis Avenue' />
  </node>
  <node id='-447506' lat='-33.89208181174' lon='151.02993571198'>
    <tag k='addr:housenumber' v='12' />
    <tag k='addr:street' v='Purvis Avenue' />
  </node>
  <node id='-447508' lat='-33.89195889054' lon='151.02999820882'>
    <tag k='addr:housenumber' v='14' />
    <tag k='addr:street' v='Purvis Avenue' />
  </node>
  <node id='-447510' lat='-33.8915392347' lon='151.02757930543'>
    <tag k='addr:housenumber' v='59' />
    <tag k='addr:street' v='Jones Avenue' />
  </node>
  <node id='-447512' lat='-33.89228197482' lon='151.02895176853'>
    <tag k='addr:housenumber' v='40' />
    <tag k='addr:street' v='Rowe Drive' />
  </node>
  <node id='-447514' lat='-33.8921687821' lon='151.02897573919'>
    <tag k='addr:housenumber' v='42' />
    <tag k='addr:street' v='Rowe Drive' />
  </node>
  <node id='-447516' lat='-33.89214035946' lon='151.02935774909'>
    <tag k='addr:housenumber' v='9' />
    <tag k='addr:street' v='Purvis Avenue' />
  </node>
  <node id='-447518' lat='-33.89201163' lon='151.0293850105'>
    <tag k='addr:housenumber' v='11' />
    <tag k='addr:street' v='Purvis Avenue' />
  </node>
  <node id='-447520' lat='-33.89187882753' lon='151.02941163155'>
    <tag k='addr:housenumber' v='13' />
    <tag k='addr:street' v='Purvis Avenue' />
  </node>
  <node id='-447522' lat='-33.89246440768' lon='151.02928912713'>
    <tag k='addr:housenumber' v='3' />
    <tag k='addr:street' v='Purvis Avenue' />
  </node>
  <node id='-447524' lat='-33.89235121535' lon='151.02931310361'>
    <tag k='addr:housenumber' v='5' />
    <tag k='addr:street' v='Purvis Avenue' />
  </node>
  <node id='-447526' lat='-33.89182542721' lon='151.02904997355'>
    <tag k='addr:housenumber' v='48' />
    <tag k='addr:street' v='Rowe Drive' />
  </node>
  <node id='-447528' lat='-33.891957927' lon='151.0290203915'>
    <tag k='addr:housenumber' v='46' />
    <tag k='addr:street' v='Rowe Drive' />
  </node>
  <node id='-447530' lat='-33.89207112418' lon='151.02899642147'>
    <tag k='addr:housenumber' v='44' />
    <tag k='addr:street' v='Rowe Drive' />
  </node>
  <node id='-447532' lat='-33.89225355455' lon='151.02933378165'>
    <tag k='addr:housenumber' v='7' />
    <tag k='addr:street' v='Purvis Avenue' />
  </node>
  <node id='-447534' lat='-33.89162005997' lon='151.02958881803'>
    <tag k='addr:housenumber' v='24' />
    <tag k='addr:street' v='Potts Lane' />
  </node>
  <node id='-447536' lat='-33.89152516934' lon='151.02894449972'>
    <tag k='addr:housenumber' v='2' />
    <tag k='addr:street' v='Potts Lane' />
  </node>
  <node id='-447538' lat='-33.89153506658' lon='151.02901169196'>
    <tag k='addr:housenumber' v='4' />
    <tag k='addr:street' v='Potts Lane' />
  </node>
  <node id='-447540' lat='-33.89154305942' lon='151.02906598704'>
    <tag k='addr:housenumber' v='6' />
    <tag k='addr:street' v='Potts Lane' />
  </node>
  <node id='-447542' lat='-33.89155106028' lon='151.02912028164'>
    <tag k='addr:housenumber' v='8' />
    <tag k='addr:street' v='Potts Lane' />
  </node>
  <node id='-447544' lat='-33.89155905281' lon='151.0291745722'>
    <tag k='addr:housenumber' v='10' />
    <tag k='addr:street' v='Potts Lane' />
  </node>
  <node id='-447546' lat='-33.891567833' lon='151.02923418686'>
    <tag k='addr:housenumber' v='12' />
    <tag k='addr:street' v='Potts Lane' />
  </node>
  <node id='-447548' lat='-33.891577397' lon='151.0292991265'>
    <tag k='addr:housenumber' v='14' />
    <tag k='addr:street' v='Potts Lane' />
  </node>
  <node id='-447550' lat='-33.89158617716' lon='151.0293587415'>
    <tag k='addr:housenumber' v='16' />
    <tag k='addr:street' v='Potts Lane' />
  </node>
  <node id='-447552' lat='-33.89159417523' lon='151.02941303666'>
    <tag k='addr:housenumber' v='18' />
    <tag k='addr:street' v='Potts Lane' />
  </node>
  <node id='-447554' lat='-33.89160217086' lon='151.02946733118'>
    <tag k='addr:housenumber' v='20' />
    <tag k='addr:street' v='Potts Lane' />
  </node>
  <node id='-447556' lat='-33.89161016658' lon='151.02952162596'>
    <tag k='addr:housenumber' v='22' />
    <tag k='addr:street' v='Potts Lane' />
  </node>
  <node id='-447558' lat='-33.89106966814' lon='151.02755996639'>
    <tag k='addr:housenumber' v='61' />
    <tag k='addr:street' v='Jones Avenue' />
  </node>
  <node id='-447560' lat='-33.8923089565' lon='151.02741628749'>
    <tag k='addr:housenumber' v='45' />
    <tag k='addr:street' v='Jones Avenue' />
  </node>
  <node id='-447562' lat='-33.8922112985' lon='151.0274369715'>
    <tag k='addr:housenumber' v='47' />
    <tag k='addr:street' v='Jones Avenue' />
  </node>
  <node id='-447564' lat='-33.89211275305' lon='151.0274578404'>
    <tag k='addr:housenumber' v='49' />
    <tag k='addr:street' v='Jones Avenue' />
  </node>
  <node id='-447566' lat='-33.89201420723' lon='151.02747871432'>
    <tag k='addr:housenumber' v='51' />
    <tag k='addr:street' v='Jones Avenue' />
  </node>
  <node id='-447568' lat='-33.89191654945' lon='151.02749939726'>
    <tag k='addr:housenumber' v='53' />
    <tag k='addr:street' v='Jones Avenue' />
  </node>
  <node id='-447570' lat='-33.89180335462' lon='151.02752337315'>
    <tag k='addr:housenumber' v='55' />
    <tag k='addr:street' v='Jones Avenue' />
  </node>
  <node id='-447572' lat='-33.89167462471' lon='151.02755063459'>
    <tag k='addr:housenumber' v='57' />
    <tag k='addr:street' v='Jones Avenue' />
  </node>
  <node id='-447574' lat='-33.88996010857' lon='151.02895588212'>
    <tag k='addr:housenumber' v='18' />
    <tag k='addr:street' v='Moriarty Way' />
  </node>
  <node id='-447576' lat='-33.89234572818' lon='151.02837454879'>
    <tag k='addr:housenumber' v='37' />
    <tag k='addr:street' v='Rowe Drive' />
  </node>
  <node id='-447578' lat='-33.89227648797' lon='151.02801322562'>
    <tag k='addr:housenumber' v='42' />
    <tag k='addr:street' v='Jones Avenue' />
  </node>
  <node id='-447580' lat='-33.89214775734' lon='151.02804048956'>
    <tag k='addr:housenumber' v='44' />
    <tag k='addr:street' v='Jones Avenue' />
  </node>
  <node id='-447582' lat='-33.89201903022' lon='151.02806775117'>
    <tag k='addr:housenumber' v='46' />
    <tag k='addr:street' v='Jones Avenue' />
  </node>
  <node id='-447584' lat='-33.89189029849' lon='151.02809501507'>
    <tag k='addr:housenumber' v='48' />
    <tag k='addr:street' v='Jones Avenue' />
  </node>
  <node id='-447586' lat='-33.8917602354' lon='151.02812255827'>
    <tag k='addr:housenumber' v='50' />
    <tag k='addr:street' v='Jones Avenue' />
  </node>
  <node id='-447588' lat='-33.89162351469' lon='151.02815151568'>
    <tag k='addr:housenumber' v='52' />
    <tag k='addr:street' v='Jones Avenue' />
  </node>
  <node id='-447590' lat='-33.89224807306' lon='151.02839523334'>
    <tag k='addr:housenumber' v='39' />
    <tag k='addr:street' v='Rowe Drive' />
  </node>
  <node id='-447592' lat='-33.89213265746' lon='151.02841967923'>
    <tag k='addr:housenumber' v='41' />
    <tag k='addr:street' v='Rowe Drive' />
  </node>
  <node id='-447594' lat='-33.89199948651' lon='151.02844788121'>
    <tag k='addr:housenumber' v='43' />
    <tag k='addr:street' v='Rowe Drive' />
  </node>
  <node id='-447596' lat='-33.89186631959' lon='151.02847608178'>
    <tag k='addr:housenumber' v='45' />
    <tag k='addr:street' v='Rowe Drive' />
  </node>
  <node id='-447598' lat='-33.89173314847' lon='151.02850428189'>
    <tag k='addr:housenumber' v='47' />
    <tag k='addr:street' v='Rowe Drive' />
  </node>
  <node id='-447600' lat='-33.89140200089' lon='151.02857441311'>
    <tag k='addr:housenumber' v='53' />
    <tag k='addr:street' v='Rowe Drive' />
  </node>
  <node id='-447602' lat='-33.8915200792' lon='151.02854941097'>
    <tag k='addr:housenumber' v='51' />
    <tag k='addr:street' v='Rowe Drive' />
  </node>
  <node id='-447604' lat='-33.89161773491' lon='151.02852872556'>
    <tag k='addr:housenumber' v='49' />
    <tag k='addr:street' v='Rowe Drive' />
  </node>
  <node id='-447606' lat='-33.8900763662' lon='151.02847916303'>
    <tag k='addr:housenumber' v='78' />
    <tag k='addr:street' v='Jones Avenue' />
  </node>
  <node id='-447608' lat='-33.88987816766' lon='151.02839946524'>
    <tag k='addr:housenumber' v='10' />
    <tag k='addr:street' v='Moriarty Way' />
  </node>
  <node id='-447610' lat='-33.88989891867' lon='151.02854858121'>
    <tag k='addr:housenumber' v='12' />
    <tag k='addr:street' v='Moriarty Way' />
  </node>
  <node id='-447612' lat='-33.88991788821' lon='151.02867739206'>
    <tag k='addr:housenumber' v='14' />
    <tag k='addr:street' v='Moriarty Way' />
  </node>
  <node id='-447614' lat='-33.88993686279' lon='151.02880620203'>
    <tag k='addr:housenumber' v='16' />
    <tag k='addr:street' v='Moriarty Way' />
  </node>
  <node id='-447616' lat='-33.89017402333' lon='151.02845848376'>
    <tag k='addr:housenumber' v='76' />
    <tag k='addr:street' v='Jones Avenue' />
  </node>
  <node id='-447618' lat='-33.89014782879' lon='151.02884001411'>
    <tag k='addr:housenumber' v='73' />
    <tag k='addr:street' v='Rowe Drive' />
  </node>
  <node id='-447620' lat='-33.89027168403' lon='151.02843780027'>
    <tag k='addr:housenumber' v='74' />
    <tag k='addr:street' v='Jones Avenue' />
  </node>
  <node id='-447622' lat='-33.89027877843' lon='151.02881227797'>
    <tag k='addr:housenumber' v='71' />
    <tag k='addr:street' v='Rowe Drive' />
  </node>
  <node id='-447624' lat='-33.89038488016' lon='151.02841382409'>
    <tag k='addr:housenumber' v='72' />
    <tag k='addr:street' v='Jones Avenue' />
  </node>
  <node id='-447626' lat='-33.89040750836' lon='151.02878502012'>
    <tag k='addr:housenumber' v='69' />
    <tag k='addr:street' v='Rowe Drive' />
  </node>
  <node id='-447628' lat='-33.89049807099' lon='151.0283898563'>
    <tag k='addr:housenumber' v='70' />
    <tag k='addr:street' v='Jones Avenue' />
  </node>
  <node id='-447630' lat='-33.8905362376' lon='151.02875776003'>
    <tag k='addr:housenumber' v='67' />
    <tag k='addr:street' v='Rowe Drive' />
  </node>
  <node id='-447632' lat='-33.89118069021' lon='151.02831397759'>
    <tag k='addr:housenumber' v='54' />
    <tag k='addr:street' v='Jones Avenue' />
  </node>
  <node id='-447634' lat='-33.89066496678' lon='151.02873049681'>
    <tag k='addr:housenumber' v='65' />
    <tag k='addr:street' v='Rowe Drive' />
  </node>
  <node id='-447636' lat='-33.8910516059' lon='151.02864862116'>
    <tag k='addr:housenumber' v='59' />
    <tag k='addr:street' v='Rowe Drive' />
  </node>
  <node id='-447638' lat='-33.89092243208' lon='151.02867596979'>
    <tag k='addr:housenumber' v='61' />
    <tag k='addr:street' v='Rowe Drive' />
  </node>
  <node id='-447640' lat='-33.89059572755' lon='151.02836917956'>
    <tag k='addr:housenumber' v='68' />
    <tag k='addr:street' v='Jones Avenue' />
  </node>
  <node id='-447642' lat='-33.89079370073' lon='151.02870323297'>
    <tag k='addr:housenumber' v='63' />
    <tag k='addr:street' v='Rowe Drive' />
  </node>
  <node id='-447644' lat='-33.89071691061' lon='151.02834351026'>
    <tag k='addr:housenumber' v='66' />
    <tag k='addr:street' v='Jones Avenue' />
  </node>
  <node id='-447646' action='modify' lat='-33.889986112' lon='151.029792294'>
    <tag k='addr:housenumber' v='69' />
    <tag k='addr:street' v='Purvis Avenue' />
  </node>
  <node id='-447648' action='modify' lat='-33.889986112' lon='151.02983558058'>
    <tag k='addr:housenumber' v='69A' />
    <tag k='addr:street' v='Purvis Avenue' />
  </node>
  <node id='-447650' lat='-33.89132386708' lon='151.02953065777'>
    <tag k='addr:housenumber' v='17' />
    <tag k='addr:street' v='Purvis Avenue' />
  </node>
  <node id='-447652' action='modify' lat='-33.89121467574' lon='151.02953213318'>
    <tag k='addr:housenumber' v='19' />
    <tag k='addr:street' v='Purvis Avenue' />
  </node>
  <node id='-447654' action='modify' lat='-33.89121467574' lon='151.02957542038'>
    <tag k='addr:housenumber' v='19A' />
    <tag k='addr:street' v='Purvis Avenue' />
  </node>
  <node id='-447656' action='modify' lat='-33.89115608256' lon='151.02958784417'>
    <tag k='addr:housenumber' v='21' />
    <tag k='addr:street' v='Purvis Avenue' />
  </node>
  <node id='-447658' action='modify' lat='-33.89115608256' lon='151.029544557'>
    <tag k='addr:housenumber' v='21A' />
    <tag k='addr:street' v='Purvis Avenue' />
  </node>
  <node id='-447660' action='modify' lat='-33.89111080097' lon='151.0295541283'>
    <tag k='addr:housenumber' v='23' />
    <tag k='addr:street' v='Purvis Avenue' />
  </node>
  <node id='-447662' action='modify' lat='-33.89111080097' lon='151.02959741545'>
    <tag k='addr:housenumber' v='23A' />
    <tag k='addr:street' v='Purvis Avenue' />
  </node>
  <node id='-447664' lat='-33.89106552397' lon='151.02958535904'>
    <tag k='addr:housenumber' v='25' />
    <tag k='addr:street' v='Purvis Avenue' />
  </node>
  <node id='-447666' lat='-33.89102025294' lon='151.02959494272'>
    <tag k='addr:housenumber' v='27' />
    <tag k='addr:street' v='Purvis Avenue' />
  </node>
  <node id='-447668' action='modify' lat='-33.89097053552' lon='151.02958385219'>
    <tag k='addr:housenumber' v='29' />
    <tag k='addr:street' v='Purvis Avenue' />
  </node>
  <node id='-447670' action='modify' lat='-33.89097053552' lon='151.02962713927'>
    <tag k='addr:housenumber' v='29A' />
    <tag k='addr:street' v='Purvis Avenue' />
  </node>
  <node id='-447672' lat='-33.88965277353' lon='151.02987813031'>
    <tag k='addr:housenumber' v='23' />
    <tag k='addr:street' v='Moriarty Way' />
  </node>
  <node id='-447674' lat='-33.88858167326' lon='151.0282056615'>
    <tag k='addr:housenumber' v='105' />
    <tag k='addr:street' v='Jones Avenue' />
  </node>
  <node id='-447676' lat='-33.88869486964' lon='151.02818168626'>
    <tag k='addr:housenumber' v='103' />
    <tag k='addr:street' v='Jones Avenue' />
  </node>
  <node id='-447678' lat='-33.88879252635' lon='151.02816101118'>
    <tag k='addr:housenumber' v='101' />
    <tag k='addr:street' v='Jones Avenue' />
  </node>
  <node id='-447680' lat='-33.88890571696' lon='151.02813703943'>
    <tag k='addr:housenumber' v='99' />
    <tag k='addr:street' v='Jones Avenue' />
  </node>
  <node id='-447682' lat='-33.88903444866' lon='151.02810977456'>
    <tag k='addr:housenumber' v='97' />
    <tag k='addr:street' v='Jones Avenue' />
  </node>
  <node id='-447684' lat='-33.88916318847' lon='151.02808254581'>
    <tag k='addr:housenumber' v='95' />
    <tag k='addr:street' v='Jones Avenue' />
  </node>
  <node id='-447686' lat='-33.88929191557' lon='151.02805533967'>
    <tag k='addr:housenumber' v='93' />
    <tag k='addr:street' v='Jones Avenue' />
  </node>
  <node id='-447688' lat='-33.88876533267' lon='151.02920877343'>
    <tag k='addr:housenumber' v='10' />
    <tag k='addr:street' v='Hanna Street' />
  </node>
  <node id='-447690' lat='-33.88881950051' lon='151.02873744029'>
    <tag k='addr:housenumber' v='92' />
    <tag k='addr:street' v='Jones Avenue' />
  </node>
  <node id='-447692' lat='-33.88859073676' lon='151.02867210471'>
    <tag k='addr:housenumber' v='2' />
    <tag k='addr:street' v='Hanna Street' />
  </node>
  <node id='-447694' lat='-33.88861285845' lon='151.02881811342'>
    <tag k='addr:housenumber' v='4' />
    <tag k='addr:street' v='Hanna Street' />
  </node>
  <node id='-447696' lat='-33.88865290968' lon='151.02894082569'>
    <tag k='addr:housenumber' v='6' />
    <tag k='addr:street' v='Hanna Street' />
  </node>
  <node id='-447698' lat='-33.8887045606' lon='151.02906558927'>
    <tag k='addr:housenumber' v='8' />
    <tag k='addr:street' v='Hanna Street' />
  </node>
  <node id='-447700' lat='-33.88930337986' lon='151.02901883897'>
    <tag k='addr:housenumber' v='79' />
    <tag k='addr:street' v='Rowe Drive' />
  </node>
  <node id='-447702' lat='-33.88894338533' lon='151.02871908999'>
    <tag k='addr:housenumber' v='90' />
    <tag k='addr:street' v='Jones Avenue' />
  </node>
  <node id='-447704' lat='-33.88904104183' lon='151.02869841309'>
    <tag k='addr:housenumber' v='88' />
    <tag k='addr:street' v='Jones Avenue' />
  </node>
  <node id='-447706' lat='-33.88913870333' lon='151.02867772762'>
    <tag k='addr:housenumber' v='86' />
    <tag k='addr:street' v='Jones Avenue' />
  </node>
  <node id='-447708' lat='-33.88925189837' lon='151.02865376005'>
    <tag k='addr:housenumber' v='84' />
    <tag k='addr:street' v='Jones Avenue' />
  </node>
  <node id='-447710' lat='-33.88918796506' lon='151.02904327403'>
    <tag k='addr:housenumber' v='81' />
    <tag k='addr:street' v='Rowe Drive' />
  </node>
  <node id='-447712' lat='-33.88909030736' lon='151.0290639574'>
    <tag k='addr:housenumber' v='83' />
    <tag k='addr:street' v='Rowe Drive' />
  </node>
  <node id='-447714' lat='-33.88895270305' lon='151.02908067615'>
    <tag k='addr:housenumber' v='85' />
    <tag k='addr:street' v='Rowe Drive' />
  </node>
  <node id='-447716' lat='-33.88911094929' lon='151.02951326781'>
    <tag k='addr:housenumber' v='82' />
    <tag k='addr:street' v='Rowe Drive' />
  </node>
  <node id='-447718' lat='-33.88917103633' lon='151.02970054833'>
    <tag k='addr:housenumber' v='14' />
    <tag k='addr:street' v='Hanna Street' />
  </node>
  <node id='-447720' lat='-33.88832276736' lon='151.02826025671'>
    <tag k='addr:housenumber' v='109' />
    <tag k='addr:street' v='Jones Avenue' />
  </node>
  <node id='-447722' lat='-33.88809088575' lon='151.02786217628'>
    <tag k='addr:housenumber' v='11' />
    <tag k='addr:street' v='Cooper Road' />
  </node>
  <node id='-447724' lat='-33.88815969631' lon='151.02854693089'>
    <tag k='addr:housenumber' v='1' />
    <tag k='addr:street' v='Hanna Street' />
  </node>
  <node id='-447726' lat='-33.88845293938' lon='151.02823292095'>
    <tag k='addr:housenumber' v='107' />
    <tag k='addr:street' v='Jones Avenue' />
  </node>
  <node id='-447924' lat='-33.89244968924' lon='151.02808628961'>
    <tag k='addr:housenumber' v='3' />
    <tag k='addr:street' v='Aspinall Street' />
  </node>
  <node id='-447926' lat='-33.89246548912' lon='151.02819272419'>
    <tag k='addr:housenumber' v='3A' />
    <tag k='addr:street' v='Aspinall Street' />
  </node>
  <node id='-447928' lat='-33.88945178402' lon='151.02862790375'>
    <tag k='addr:housenumber' v='11' />
    <tag k='addr:street' v='Moriarty Way' />
  </node>
  <node id='-447930' lat='-33.88946589613' lon='151.02872371045'>
    <tag k='addr:housenumber' v='11A' />
    <tag k='addr:street' v='Moriarty Way' />
  </node>
  <node id='-448018' lat='-33.88935321767' lon='151.02972247982'>
    <tag k='addr:housenumber' v='18' />
    <tag k='addr:street' v='Hanna Street' />
  </node>
  <node id='-448020' lat='-33.88943698861' lon='151.02973306264'>
    <tag k='addr:housenumber' v='20' />
    <tag k='addr:street' v='Hanna Street' />
  </node>
  <node id='-448022' lat='-33.89240962631' lon='151.02784411853'>
    <tag k='addr:housenumber' v='40' />
    <tag k='addr:street' v='Jones Avenue' />
  </node>
  <node id='-448024' lat='-33.89243559608' lon='151.0279695937'>
    <tag k='addr:housenumber' v='1' />
    <tag k='addr:street' v='Aspinall Street' />
  </node>
  <node id='-448026' lat='-33.89460750919' lon='151.02760734915'>
    <tag k='addr:housenumber' v='1-7' />
    <tag k='addr:street' v='Rowe Drive' />
  </node>
  <node id='-448028' lat='-33.88947996591' lon='151.02881957503'>
    <tag k='addr:housenumber' v='13A' />
    <tag k='addr:street' v='Moriarty Way' />
  </node>
  <node id='-448030' lat='-33.88949417606' lon='151.02891536647'>
    <tag k='addr:housenumber' v='13B' />
    <tag k='addr:street' v='Moriarty Way' />
  </node>
  <node id='-448032' lat='-33.89057736426' lon='151.02926884332'>
    <tag k='addr:housenumber' v='68' />
    <tag k='addr:street' v='Rowe Drive' />
  </node>
  <node id='-448034' lat='-33.89065620226' lon='151.02925214782'>
    <tag k='addr:housenumber' v='66' />
    <tag k='addr:street' v='Rowe Drive' />
  </node>
</osm>
